%!PS-Adobe-2.0 EPSF-2.0
%%Title: time_over_solutions.eps
%%Creator: gnuplot 5.2 patchlevel 2
%%CreationDate: Fri Feb 22 10:23:32 2019
%%DocumentFonts: (atend)
%%BoundingBox: 50 50 410 201
%%EndComments
%%BeginProlog
/gnudict 256 dict def
gnudict begin
%
% The following true/false flags may be edited by hand if desired.
% The unit line width and grayscale image gamma correction may also be changed.
%
/Color true def
/Blacktext false def
/Solid false def
/Dashlength 1 def
/Landscape false def
/Level1 false def
/Level3 false def
/Rounded false def
/ClipToBoundingBox false def
/SuppressPDFMark false def
/TransparentPatterns false def
/gnulinewidth 5.000 def
/userlinewidth gnulinewidth def
/Gamma 1.0 def
/BackgroundColor {-1.000 -1.000 -1.000} def
%
/vshift -66 def
/dl1 {
  10.0 Dashlength userlinewidth gnulinewidth div mul mul mul
  Rounded { currentlinewidth 0.75 mul sub dup 0 le { pop 0.01 } if } if
} def
/dl2 {
  10.0 Dashlength userlinewidth gnulinewidth div mul mul mul
  Rounded { currentlinewidth 0.75 mul add } if
} def
/hpt_ 31.5 def
/vpt_ 31.5 def
/hpt hpt_ def
/vpt vpt_ def
/doclip {
  ClipToBoundingBox {
    newpath 50 50 moveto 410 50 lineto 410 201 lineto 50 201 lineto closepath
    clip
  } if
} def
%
% Gnuplot Prolog Version 5.1 (Oct 2015)
%
%/SuppressPDFMark true def
%
/M {moveto} bind def
/L {lineto} bind def
/R {rmoveto} bind def
/V {rlineto} bind def
/N {newpath moveto} bind def
/Z {closepath} bind def
/C {setrgbcolor} bind def
/f {rlineto fill} bind def
/g {setgray} bind def
/Gshow {show} def   % May be redefined later in the file to support UTF-8
/vpt2 vpt 2 mul def
/hpt2 hpt 2 mul def
/Lshow {currentpoint stroke M 0 vshift R 
	Blacktext {gsave 0 setgray textshow grestore} {textshow} ifelse} def
/Rshow {currentpoint stroke M dup stringwidth pop neg vshift R
	Blacktext {gsave 0 setgray textshow grestore} {textshow} ifelse} def
/Cshow {currentpoint stroke M dup stringwidth pop -2 div vshift R 
	Blacktext {gsave 0 setgray textshow grestore} {textshow} ifelse} def
/UP {dup vpt_ mul /vpt exch def hpt_ mul /hpt exch def
  /hpt2 hpt 2 mul def /vpt2 vpt 2 mul def} def
/DL {Color {setrgbcolor Solid {pop []} if 0 setdash}
 {pop pop pop 0 setgray Solid {pop []} if 0 setdash} ifelse} def
/BL {stroke userlinewidth 2 mul setlinewidth
	Rounded {1 setlinejoin 1 setlinecap} if} def
/AL {stroke userlinewidth 2 div setlinewidth
	Rounded {1 setlinejoin 1 setlinecap} if} def
/UL {dup gnulinewidth mul /userlinewidth exch def
	dup 1 lt {pop 1} if 10 mul /udl exch def} def
/PL {stroke userlinewidth setlinewidth
	Rounded {1 setlinejoin 1 setlinecap} if} def
3.8 setmiterlimit
% Classic Line colors (version 5.0)
/LCw {1 1 1} def
/LCb {0 0 0} def
/LCa {0 0 0} def
/LC0 {1 0 0} def
/LC1 {0 1 0} def
/LC2 {0 0 1} def
/LC3 {1 0 1} def
/LC4 {0 1 1} def
/LC5 {1 1 0} def
/LC6 {0 0 0} def
/LC7 {1 0.3 0} def
/LC8 {0.5 0.5 0.5} def
% Default dash patterns (version 5.0)
/LTB {BL [] LCb DL} def
/LTw {PL [] 1 setgray} def
/LTb {PL [] LCb DL} def
/LTa {AL [1 udl mul 2 udl mul] 0 setdash LCa setrgbcolor} def
/LT0 {PL [] LC0 DL} def
/LT1 {PL [2 dl1 3 dl2] LC1 DL} def
/LT2 {PL [1 dl1 1.5 dl2] LC2 DL} def
/LT3 {PL [6 dl1 2 dl2 1 dl1 2 dl2] LC3 DL} def
/LT4 {PL [1 dl1 2 dl2 6 dl1 2 dl2 1 dl1 2 dl2] LC4 DL} def
/LT5 {PL [4 dl1 2 dl2] LC5 DL} def
/LT6 {PL [1.5 dl1 1.5 dl2 1.5 dl1 1.5 dl2 1.5 dl1 6 dl2] LC6 DL} def
/LT7 {PL [3 dl1 3 dl2 1 dl1 3 dl2] LC7 DL} def
/LT8 {PL [2 dl1 2 dl2 2 dl1 6 dl2] LC8 DL} def
/SL {[] 0 setdash} def
/Pnt {stroke [] 0 setdash gsave 1 setlinecap M 0 0 V stroke grestore} def
/Dia {stroke [] 0 setdash 2 copy vpt add M
  hpt neg vpt neg V hpt vpt neg V
  hpt vpt V hpt neg vpt V closepath stroke
  Pnt} def
/Pls {stroke [] 0 setdash vpt sub M 0 vpt2 V
  currentpoint stroke M
  hpt neg vpt neg R hpt2 0 V stroke
 } def
/Box {stroke [] 0 setdash 2 copy exch hpt sub exch vpt add M
  0 vpt2 neg V hpt2 0 V 0 vpt2 V
  hpt2 neg 0 V closepath stroke
  Pnt} def
/Crs {stroke [] 0 setdash exch hpt sub exch vpt add M
  hpt2 vpt2 neg V currentpoint stroke M
  hpt2 neg 0 R hpt2 vpt2 V stroke} def
/TriU {stroke [] 0 setdash 2 copy vpt 1.12 mul add M
  hpt neg vpt -1.62 mul V
  hpt 2 mul 0 V
  hpt neg vpt 1.62 mul V closepath stroke
  Pnt} def
/Star {2 copy Pls Crs} def
/BoxF {stroke [] 0 setdash exch hpt sub exch vpt add M
  0 vpt2 neg V hpt2 0 V 0 vpt2 V
  hpt2 neg 0 V closepath fill} def
/TriUF {stroke [] 0 setdash vpt 1.12 mul add M
  hpt neg vpt -1.62 mul V
  hpt 2 mul 0 V
  hpt neg vpt 1.62 mul V closepath fill} def
/TriD {stroke [] 0 setdash 2 copy vpt 1.12 mul sub M
  hpt neg vpt 1.62 mul V
  hpt 2 mul 0 V
  hpt neg vpt -1.62 mul V closepath stroke
  Pnt} def
/TriDF {stroke [] 0 setdash vpt 1.12 mul sub M
  hpt neg vpt 1.62 mul V
  hpt 2 mul 0 V
  hpt neg vpt -1.62 mul V closepath fill} def
/DiaF {stroke [] 0 setdash vpt add M
  hpt neg vpt neg V hpt vpt neg V
  hpt vpt V hpt neg vpt V closepath fill} def
/Pent {stroke [] 0 setdash 2 copy gsave
  translate 0 hpt M 4 {72 rotate 0 hpt L} repeat
  closepath stroke grestore Pnt} def
/PentF {stroke [] 0 setdash gsave
  translate 0 hpt M 4 {72 rotate 0 hpt L} repeat
  closepath fill grestore} def
/Circle {stroke [] 0 setdash 2 copy
  hpt 0 360 arc stroke Pnt} def
/CircleF {stroke [] 0 setdash hpt 0 360 arc fill} def
/C0 {BL [] 0 setdash 2 copy moveto vpt 90 450 arc} bind def
/C1 {BL [] 0 setdash 2 copy moveto
	2 copy vpt 0 90 arc closepath fill
	vpt 0 360 arc closepath} bind def
/C2 {BL [] 0 setdash 2 copy moveto
	2 copy vpt 90 180 arc closepath fill
	vpt 0 360 arc closepath} bind def
/C3 {BL [] 0 setdash 2 copy moveto
	2 copy vpt 0 180 arc closepath fill
	vpt 0 360 arc closepath} bind def
/C4 {BL [] 0 setdash 2 copy moveto
	2 copy vpt 180 270 arc closepath fill
	vpt 0 360 arc closepath} bind def
/C5 {BL [] 0 setdash 2 copy moveto
	2 copy vpt 0 90 arc
	2 copy moveto
	2 copy vpt 180 270 arc closepath fill
	vpt 0 360 arc} bind def
/C6 {BL [] 0 setdash 2 copy moveto
	2 copy vpt 90 270 arc closepath fill
	vpt 0 360 arc closepath} bind def
/C7 {BL [] 0 setdash 2 copy moveto
	2 copy vpt 0 270 arc closepath fill
	vpt 0 360 arc closepath} bind def
/C8 {BL [] 0 setdash 2 copy moveto
	2 copy vpt 270 360 arc closepath fill
	vpt 0 360 arc closepath} bind def
/C9 {BL [] 0 setdash 2 copy moveto
	2 copy vpt 270 450 arc closepath fill
	vpt 0 360 arc closepath} bind def
/C10 {BL [] 0 setdash 2 copy 2 copy moveto vpt 270 360 arc closepath fill
	2 copy moveto
	2 copy vpt 90 180 arc closepath fill
	vpt 0 360 arc closepath} bind def
/C11 {BL [] 0 setdash 2 copy moveto
	2 copy vpt 0 180 arc closepath fill
	2 copy moveto
	2 copy vpt 270 360 arc closepath fill
	vpt 0 360 arc closepath} bind def
/C12 {BL [] 0 setdash 2 copy moveto
	2 copy vpt 180 360 arc closepath fill
	vpt 0 360 arc closepath} bind def
/C13 {BL [] 0 setdash 2 copy moveto
	2 copy vpt 0 90 arc closepath fill
	2 copy moveto
	2 copy vpt 180 360 arc closepath fill
	vpt 0 360 arc closepath} bind def
/C14 {BL [] 0 setdash 2 copy moveto
	2 copy vpt 90 360 arc closepath fill
	vpt 0 360 arc} bind def
/C15 {BL [] 0 setdash 2 copy vpt 0 360 arc closepath fill
	vpt 0 360 arc closepath} bind def
/Rec {newpath 4 2 roll moveto 1 index 0 rlineto 0 exch rlineto
	neg 0 rlineto closepath} bind def
/Square {dup Rec} bind def
/Bsquare {vpt sub exch vpt sub exch vpt2 Square} bind def
/S0 {BL [] 0 setdash 2 copy moveto 0 vpt rlineto BL Bsquare} bind def
/S1 {BL [] 0 setdash 2 copy vpt Square fill Bsquare} bind def
/S2 {BL [] 0 setdash 2 copy exch vpt sub exch vpt Square fill Bsquare} bind def
/S3 {BL [] 0 setdash 2 copy exch vpt sub exch vpt2 vpt Rec fill Bsquare} bind def
/S4 {BL [] 0 setdash 2 copy exch vpt sub exch vpt sub vpt Square fill Bsquare} bind def
/S5 {BL [] 0 setdash 2 copy 2 copy vpt Square fill
	exch vpt sub exch vpt sub vpt Square fill Bsquare} bind def
/S6 {BL [] 0 setdash 2 copy exch vpt sub exch vpt sub vpt vpt2 Rec fill Bsquare} bind def
/S7 {BL [] 0 setdash 2 copy exch vpt sub exch vpt sub vpt vpt2 Rec fill
	2 copy vpt Square fill Bsquare} bind def
/S8 {BL [] 0 setdash 2 copy vpt sub vpt Square fill Bsquare} bind def
/S9 {BL [] 0 setdash 2 copy vpt sub vpt vpt2 Rec fill Bsquare} bind def
/S10 {BL [] 0 setdash 2 copy vpt sub vpt Square fill 2 copy exch vpt sub exch vpt Square fill
	Bsquare} bind def
/S11 {BL [] 0 setdash 2 copy vpt sub vpt Square fill 2 copy exch vpt sub exch vpt2 vpt Rec fill
	Bsquare} bind def
/S12 {BL [] 0 setdash 2 copy exch vpt sub exch vpt sub vpt2 vpt Rec fill Bsquare} bind def
/S13 {BL [] 0 setdash 2 copy exch vpt sub exch vpt sub vpt2 vpt Rec fill
	2 copy vpt Square fill Bsquare} bind def
/S14 {BL [] 0 setdash 2 copy exch vpt sub exch vpt sub vpt2 vpt Rec fill
	2 copy exch vpt sub exch vpt Square fill Bsquare} bind def
/S15 {BL [] 0 setdash 2 copy Bsquare fill Bsquare} bind def
/D0 {gsave translate 45 rotate 0 0 S0 stroke grestore} bind def
/D1 {gsave translate 45 rotate 0 0 S1 stroke grestore} bind def
/D2 {gsave translate 45 rotate 0 0 S2 stroke grestore} bind def
/D3 {gsave translate 45 rotate 0 0 S3 stroke grestore} bind def
/D4 {gsave translate 45 rotate 0 0 S4 stroke grestore} bind def
/D5 {gsave translate 45 rotate 0 0 S5 stroke grestore} bind def
/D6 {gsave translate 45 rotate 0 0 S6 stroke grestore} bind def
/D7 {gsave translate 45 rotate 0 0 S7 stroke grestore} bind def
/D8 {gsave translate 45 rotate 0 0 S8 stroke grestore} bind def
/D9 {gsave translate 45 rotate 0 0 S9 stroke grestore} bind def
/D10 {gsave translate 45 rotate 0 0 S10 stroke grestore} bind def
/D11 {gsave translate 45 rotate 0 0 S11 stroke grestore} bind def
/D12 {gsave translate 45 rotate 0 0 S12 stroke grestore} bind def
/D13 {gsave translate 45 rotate 0 0 S13 stroke grestore} bind def
/D14 {gsave translate 45 rotate 0 0 S14 stroke grestore} bind def
/D15 {gsave translate 45 rotate 0 0 S15 stroke grestore} bind def
/DiaE {stroke [] 0 setdash vpt add M
  hpt neg vpt neg V hpt vpt neg V
  hpt vpt V hpt neg vpt V closepath stroke} def
/BoxE {stroke [] 0 setdash exch hpt sub exch vpt add M
  0 vpt2 neg V hpt2 0 V 0 vpt2 V
  hpt2 neg 0 V closepath stroke} def
/TriUE {stroke [] 0 setdash vpt 1.12 mul add M
  hpt neg vpt -1.62 mul V
  hpt 2 mul 0 V
  hpt neg vpt 1.62 mul V closepath stroke} def
/TriDE {stroke [] 0 setdash vpt 1.12 mul sub M
  hpt neg vpt 1.62 mul V
  hpt 2 mul 0 V
  hpt neg vpt -1.62 mul V closepath stroke} def
/PentE {stroke [] 0 setdash gsave
  translate 0 hpt M 4 {72 rotate 0 hpt L} repeat
  closepath stroke grestore} def
/CircE {stroke [] 0 setdash 
  hpt 0 360 arc stroke} def
/Opaque {gsave closepath 1 setgray fill grestore 0 setgray closepath} def
/DiaW {stroke [] 0 setdash vpt add M
  hpt neg vpt neg V hpt vpt neg V
  hpt vpt V hpt neg vpt V Opaque stroke} def
/BoxW {stroke [] 0 setdash exch hpt sub exch vpt add M
  0 vpt2 neg V hpt2 0 V 0 vpt2 V
  hpt2 neg 0 V Opaque stroke} def
/TriUW {stroke [] 0 setdash vpt 1.12 mul add M
  hpt neg vpt -1.62 mul V
  hpt 2 mul 0 V
  hpt neg vpt 1.62 mul V Opaque stroke} def
/TriDW {stroke [] 0 setdash vpt 1.12 mul sub M
  hpt neg vpt 1.62 mul V
  hpt 2 mul 0 V
  hpt neg vpt -1.62 mul V Opaque stroke} def
/PentW {stroke [] 0 setdash gsave
  translate 0 hpt M 4 {72 rotate 0 hpt L} repeat
  Opaque stroke grestore} def
/CircW {stroke [] 0 setdash 
  hpt 0 360 arc Opaque stroke} def
/BoxFill {gsave Rec 1 setgray fill grestore} def
/Density {
  /Fillden exch def
  currentrgbcolor
  /ColB exch def /ColG exch def /ColR exch def
  /ColR ColR Fillden mul Fillden sub 1 add def
  /ColG ColG Fillden mul Fillden sub 1 add def
  /ColB ColB Fillden mul Fillden sub 1 add def
  ColR ColG ColB setrgbcolor} def
/BoxColFill {gsave Rec PolyFill} def
/PolyFill {gsave Density fill grestore grestore} def
/h {rlineto rlineto rlineto gsave closepath fill grestore} bind def
%
% PostScript Level 1 Pattern Fill routine for rectangles
% Usage: x y w h s a XX PatternFill
%	x,y = lower left corner of box to be filled
%	w,h = width and height of box
%	  a = angle in degrees between lines and x-axis
%	 XX = 0/1 for no/yes cross-hatch
%
/PatternFill {gsave /PFa [ 9 2 roll ] def
  PFa 0 get PFa 2 get 2 div add PFa 1 get PFa 3 get 2 div add translate
  PFa 2 get -2 div PFa 3 get -2 div PFa 2 get PFa 3 get Rec
  TransparentPatterns {} {gsave 1 setgray fill grestore} ifelse
  clip
  currentlinewidth 0.5 mul setlinewidth
  /PFs PFa 2 get dup mul PFa 3 get dup mul add sqrt def
  0 0 M PFa 5 get rotate PFs -2 div dup translate
  0 1 PFs PFa 4 get div 1 add floor cvi
	{PFa 4 get mul 0 M 0 PFs V} for
  0 PFa 6 get ne {
	0 1 PFs PFa 4 get div 1 add floor cvi
	{PFa 4 get mul 0 2 1 roll M PFs 0 V} for
 } if
  stroke grestore} def
%
/languagelevel where
 {pop languagelevel} {1} ifelse
dup 2 lt
	{/InterpretLevel1 true def
	 /InterpretLevel3 false def}
	{/InterpretLevel1 Level1 def
	 2 gt
	    {/InterpretLevel3 Level3 def}
	    {/InterpretLevel3 false def}
	 ifelse }
 ifelse
%
% PostScript level 2 pattern fill definitions
%
/Level2PatternFill {
/Tile8x8 {/PaintType 2 /PatternType 1 /TilingType 1 /BBox [0 0 8 8] /XStep 8 /YStep 8}
	bind def
/KeepColor {currentrgbcolor [/Pattern /DeviceRGB] setcolorspace} bind def
<< Tile8x8
 /PaintProc {0.5 setlinewidth pop 0 0 M 8 8 L 0 8 M 8 0 L stroke} 
>> matrix makepattern
/Pat1 exch def
<< Tile8x8
 /PaintProc {0.5 setlinewidth pop 0 0 M 8 8 L 0 8 M 8 0 L stroke
	0 4 M 4 8 L 8 4 L 4 0 L 0 4 L stroke}
>> matrix makepattern
/Pat2 exch def
<< Tile8x8
 /PaintProc {0.5 setlinewidth pop 0 0 M 0 8 L
	8 8 L 8 0 L 0 0 L fill}
>> matrix makepattern
/Pat3 exch def
<< Tile8x8
 /PaintProc {0.5 setlinewidth pop -4 8 M 8 -4 L
	0 12 M 12 0 L stroke}
>> matrix makepattern
/Pat4 exch def
<< Tile8x8
 /PaintProc {0.5 setlinewidth pop -4 0 M 8 12 L
	0 -4 M 12 8 L stroke}
>> matrix makepattern
/Pat5 exch def
<< Tile8x8
 /PaintProc {0.5 setlinewidth pop -2 8 M 4 -4 L
	0 12 M 8 -4 L 4 12 M 10 0 L stroke}
>> matrix makepattern
/Pat6 exch def
<< Tile8x8
 /PaintProc {0.5 setlinewidth pop -2 0 M 4 12 L
	0 -4 M 8 12 L 4 -4 M 10 8 L stroke}
>> matrix makepattern
/Pat7 exch def
<< Tile8x8
 /PaintProc {0.5 setlinewidth pop 8 -2 M -4 4 L
	12 0 M -4 8 L 12 4 M 0 10 L stroke}
>> matrix makepattern
/Pat8 exch def
<< Tile8x8
 /PaintProc {0.5 setlinewidth pop 0 -2 M 12 4 L
	-4 0 M 12 8 L -4 4 M 8 10 L stroke}
>> matrix makepattern
/Pat9 exch def
/Pattern1 {PatternBgnd KeepColor Pat1 setpattern} bind def
/Pattern2 {PatternBgnd KeepColor Pat2 setpattern} bind def
/Pattern3 {PatternBgnd KeepColor Pat3 setpattern} bind def
/Pattern4 {PatternBgnd KeepColor Landscape {Pat5} {Pat4} ifelse setpattern} bind def
/Pattern5 {PatternBgnd KeepColor Landscape {Pat4} {Pat5} ifelse setpattern} bind def
/Pattern6 {PatternBgnd KeepColor Landscape {Pat9} {Pat6} ifelse setpattern} bind def
/Pattern7 {PatternBgnd KeepColor Landscape {Pat8} {Pat7} ifelse setpattern} bind def
} def
%
%
%End of PostScript Level 2 code
%
/PatternBgnd {
  TransparentPatterns {} {gsave 1 setgray fill grestore} ifelse
} def
%
% Substitute for Level 2 pattern fill codes with
% grayscale if Level 2 support is not selected.
%
/Level1PatternFill {
/Pattern1 {0.250 Density} bind def
/Pattern2 {0.500 Density} bind def
/Pattern3 {0.750 Density} bind def
/Pattern4 {0.125 Density} bind def
/Pattern5 {0.375 Density} bind def
/Pattern6 {0.625 Density} bind def
/Pattern7 {0.875 Density} bind def
} def
%
% Now test for support of Level 2 code
%
Level1 {Level1PatternFill} {Level2PatternFill} ifelse
%
/Symbol-Oblique /Symbol findfont [1 0 .167 1 0 0] makefont
dup length dict begin {1 index /FID eq {pop pop} {def} ifelse} forall
currentdict end definefont pop
%
/Metrics {ExtendTextBox Gswidth} def
/Lwidth {currentpoint stroke M 0 vshift R Metrics} def
/Rwidth {currentpoint stroke M dup stringwidth pop neg vshift R Metrics} def
/Cwidth {currentpoint stroke M dup stringwidth pop -2 div vshift R Metrics} def
/GLwidth {currentpoint stroke M 0 vshift R {ExtendTextBox} forall} def
/GRwidth {currentpoint stroke M dup Gwidth vshift R {ExtendTextBox} forall} def
/GCwidth {currentpoint stroke M dup Gwidth 2 div vshift R {ExtendTextBox} forall} def
/GLwidth2 {0 Gwidth AddGlyphWidth} def
/GRwidth2 {Gwidth -1 mul 0 AddGlyphWidth} def
/GCwidth2 {Gwidth 2 div dup -1 mul AddGlyphWidth} def
/AddGlyphWidth { dup TBx2 gt {userdict /TBx2 3 -1 roll put} {pop} ifelse
                 dup TBx1 lt {userdict /TBx1 3 -1 roll put} {pop} ifelse } def
/MFshow {
   { dup 5 get 3 ge
     { 5 get 3 eq {gsave} {grestore} ifelse }
     {dup dup 0 get findfont exch 1 get scalefont setfont
     [ currentpoint ] exch dup 2 get 0 exch R dup 5 get 2 ne {dup dup 6
     get exch 4 get {textshow} {Metrics pop 0 R} ifelse }if dup 5 get 0 eq
     {dup 3 get {2 get neg 0 exch R pop} {pop aload pop M} ifelse} {dup 5
     get 1 eq {dup 2 get exch dup 3 get exch 6 get Gswidth pop -2 div
     dup 0 R} {dup 6 get Gswidth pop -2 div 0 R 6 get
     textshow 2 index {aload pop M neg 3 -1 roll neg R pop pop} {pop pop pop
     pop aload pop M} ifelse }ifelse }ifelse }
     ifelse }
   forall} def
/Gswidth {dup type /stringtype eq {stringwidth} {pop (n) stringwidth} ifelse} def
/MFwidth {0 exch { dup 5 get 3 ge { 5 get 3 eq { 0 } { pop } ifelse }
 {dup 3 get{dup dup 0 get findfont exch 1 get scalefont setfont
     6 get Gswidth pop add} {pop} ifelse} ifelse} forall} def
/MLshow { currentpoint stroke M
  0 exch R
  Blacktext {gsave 0 setgray MFshow grestore} {MFshow} ifelse } bind def
/MRshow { currentpoint stroke M
  exch dup MFwidth neg 3 -1 roll R
  Blacktext {gsave 0 setgray MFshow grestore} {MFshow} ifelse } bind def
/MCshow { currentpoint stroke M
  exch dup MFwidth -2 div 3 -1 roll R
  Blacktext {gsave 0 setgray MFshow grestore} {MFshow} ifelse } bind def
/XYsave    { [( ) 1 2 true false 3 ()] } bind def
/XYrestore { [( ) 1 2 true false 4 ()] } bind def
Level1 SuppressPDFMark or 
{} {
/SDict 10 dict def
systemdict /pdfmark known not {
  userdict /pdfmark systemdict /cleartomark get put
} if
SDict begin [
  /Title (time_over_solutions.eps)
  /Subject (gnuplot plot)
  /Creator (gnuplot 5.2 patchlevel 2)
%  /Producer (gnuplot)
%  /Keywords ()
  /CreationDate (Fri Feb 22 10:23:32 2019)
  /DOCINFO pdfmark
end
} ifelse
%
% Support for boxed text - Ethan A Merritt Sep 2016
%
/InitTextBox { userdict /TBy2 3 -1 roll put userdict /TBx2 3 -1 roll put
           userdict /TBy1 3 -1 roll put userdict /TBx1 3 -1 roll put
	   /Boxing true def } def
/ExtendTextBox { dup type /stringtype eq
    { Boxing { gsave dup false charpath pathbbox
      dup TBy2 gt {userdict /TBy2 3 -1 roll put} {pop} ifelse
      dup TBx2 gt {userdict /TBx2 3 -1 roll put} {pop} ifelse
      dup TBy1 lt {userdict /TBy1 3 -1 roll put} {pop} ifelse
      dup TBx1 lt {userdict /TBx1 3 -1 roll put} {pop} ifelse
      grestore } if }
    {} ifelse} def
/PopTextBox { newpath TBx1 TBxmargin sub TBy1 TBymargin sub M
               TBx1 TBxmargin sub TBy2 TBymargin add L
	       TBx2 TBxmargin add TBy2 TBymargin add L
	       TBx2 TBxmargin add TBy1 TBymargin sub L closepath } def
/DrawTextBox { PopTextBox stroke /Boxing false def} def
/FillTextBox { gsave PopTextBox fill grestore /Boxing false def} def
0 0 0 0 InitTextBox
/TBxmargin 20 def
/TBymargin 20 def
/Boxing false def
/textshow { ExtendTextBox Gshow } def
%
end
%%EndProlog
%%Page: 1 1
gnudict begin
gsave
doclip
50 50 translate
0.050 0.050 scale
0 setgray
newpath
(Helvetica) findfont 200 scalefont setfont
BackgroundColor 0 lt 3 1 roll 0 lt exch 0 lt or or not {BackgroundColor C 1.000 0 0 7200.00 3024.00 BoxColFill} if
1.000 UL
LTb
LCb setrgbcolor
0.500 UL
LTa
LCa setrgbcolor
980 640 M
5859 0 V
stroke
1.000 UL
LTb
LCb setrgbcolor
980 640 M
63 0 V
5796 0 R
-63 0 V
stroke
860 640 M
[ [(Helvetica) 200.0 0.0 true true 0 ( 0)]
] -66.7 MRshow
1.000 UL
LTb
LCb setrgbcolor
0.500 UL
LTa
LCa setrgbcolor
980 1004 M
5859 0 V
stroke
1.000 UL
LTb
LCb setrgbcolor
980 1004 M
63 0 V
5796 0 R
-63 0 V
stroke
860 1004 M
[ [(Helvetica) 200.0 0.0 true true 0 ( 100)]
] -66.7 MRshow
1.000 UL
LTb
LCb setrgbcolor
0.500 UL
LTa
LCa setrgbcolor
980 1368 M
5859 0 V
stroke
1.000 UL
LTb
LCb setrgbcolor
980 1368 M
63 0 V
5796 0 R
-63 0 V
stroke
860 1368 M
[ [(Helvetica) 200.0 0.0 true true 0 ( 200)]
] -66.7 MRshow
1.000 UL
LTb
LCb setrgbcolor
0.500 UL
LTa
LCa setrgbcolor
980 1732 M
5859 0 V
stroke
1.000 UL
LTb
LCb setrgbcolor
980 1732 M
63 0 V
5796 0 R
-63 0 V
stroke
860 1732 M
[ [(Helvetica) 200.0 0.0 true true 0 ( 300)]
] -66.7 MRshow
1.000 UL
LTb
LCb setrgbcolor
0.500 UL
LTa
LCa setrgbcolor
980 2095 M
5859 0 V
stroke
1.000 UL
LTb
LCb setrgbcolor
980 2095 M
63 0 V
5796 0 R
-63 0 V
stroke
860 2095 M
[ [(Helvetica) 200.0 0.0 true true 0 ( 400)]
] -66.7 MRshow
1.000 UL
LTb
LCb setrgbcolor
0.500 UL
LTa
LCa setrgbcolor
980 2459 M
2556 0 V
3183 0 R
120 0 V
stroke
1.000 UL
LTb
LCb setrgbcolor
980 2459 M
63 0 V
5796 0 R
-63 0 V
stroke
860 2459 M
[ [(Helvetica) 200.0 0.0 true true 0 ( 500)]
] -66.7 MRshow
1.000 UL
LTb
LCb setrgbcolor
0.500 UL
LTa
LCa setrgbcolor
980 2823 M
5859 0 V
stroke
1.000 UL
LTb
LCb setrgbcolor
980 2823 M
63 0 V
5796 0 R
-63 0 V
stroke
860 2823 M
[ [(Helvetica) 200.0 0.0 true true 0 ( 600)]
] -66.7 MRshow
1.000 UL
LTb
LCb setrgbcolor
0.500 UL
LTa
LCa setrgbcolor
980 640 M
0 2183 V
stroke
1.000 UL
LTb
LCb setrgbcolor
980 640 M
0 63 V
0 2120 R
0 -63 V
stroke
980 440 M
[ [(Helvetica) 200.0 0.0 true true 0 ( 0)]
] -66.7 MCshow
1.000 UL
LTb
LCb setrgbcolor
0.500 UL
LTa
LCa setrgbcolor
2152 640 M
0 2183 V
stroke
1.000 UL
LTb
LCb setrgbcolor
2152 640 M
0 63 V
0 2120 R
0 -63 V
stroke
2152 440 M
[ [(Helvetica) 200.0 0.0 true true 0 ( 20)]
] -66.7 MCshow
1.000 UL
LTb
LCb setrgbcolor
0.500 UL
LTa
LCa setrgbcolor
3324 640 M
0 2183 V
stroke
1.000 UL
LTb
LCb setrgbcolor
3324 640 M
0 63 V
0 2120 R
0 -63 V
stroke
3324 440 M
[ [(Helvetica) 200.0 0.0 true true 0 ( 40)]
] -66.7 MCshow
1.000 UL
LTb
LCb setrgbcolor
0.500 UL
LTa
LCa setrgbcolor
4495 640 M
0 1520 V
0 600 R
0 63 V
stroke
1.000 UL
LTb
LCb setrgbcolor
4495 640 M
0 63 V
0 2120 R
0 -63 V
stroke
4495 440 M
[ [(Helvetica) 200.0 0.0 true true 0 ( 60)]
] -66.7 MCshow
1.000 UL
LTb
LCb setrgbcolor
0.500 UL
LTa
LCa setrgbcolor
5667 640 M
0 1520 V
0 600 R
0 63 V
stroke
1.000 UL
LTb
LCb setrgbcolor
5667 640 M
0 63 V
0 2120 R
0 -63 V
stroke
5667 440 M
[ [(Helvetica) 200.0 0.0 true true 0 ( 80)]
] -66.7 MCshow
1.000 UL
LTb
LCb setrgbcolor
0.500 UL
LTa
LCa setrgbcolor
6839 640 M
0 2183 V
stroke
1.000 UL
LTb
LCb setrgbcolor
6839 640 M
0 63 V
0 2120 R
0 -63 V
stroke
6839 440 M
[ [(Helvetica) 200.0 0.0 true true 0 ( 100)]
] -66.7 MCshow
1.000 UL
LTb
LCb setrgbcolor
1.000 UL
LTB
LCb setrgbcolor
980 2823 N
980 640 L
5859 0 V
0 2183 V
-5859 0 V
Z stroke
1.000 UP
1.000 UL
LTb
LCb setrgbcolor
LCb setrgbcolor
180 1731 M
currentpoint gsave translate -270 rotate 0 0 moveto
[ [(Helvetica) 200.0 0.0 true true 0 (Time [us])]
] -66.7 MCshow
grestore
LTb
LCb setrgbcolor
3909 140 M
[ [(Helvetica) 200.0 0.0 true true 0 (Solution found \(#\))]
] -66.7 MCshow
LTb
% Begin plot #1
1.000 UL
LTb
0.34 0.71 0.91 C 980 1400 N
0 1423 V
1 0 V
0 -1423 V
-1 0 V
Z stroke
1038 651 N
0 54 V
1 0 V
0 -54 V
-1 0 V
Z stroke
1097 665 N
0 88 V
1 0 V
0 -88 V
-1 0 V
Z stroke
1155 673 N
0 116 V
1 0 V
0 -116 V
-1 0 V
Z stroke
1214 684 N
0 160 V
1 0 V
0 -160 V
-1 0 V
Z stroke
1272 687 N
0 197 V
2 0 V
0 -197 V
-2 0 V
Z stroke
1331 691 N
0 233 V
1 0 V
0 -233 V
-1 0 V
Z stroke
1390 702 N
0 284 V
1 0 V
0 -284 V
-1 0 V
Z stroke
1448 705 N
0 317 V
1 0 V
0 -317 V
-1 0 V
Z stroke
1507 713 N
0 364 V
1 0 V
0 -364 V
-1 0 V
Z stroke
1565 713 N
0 430 V
1 0 V
0 -430 V
-1 0 V
Z stroke
1624 720 N
0 463 V
1 0 V
0 -463 V
-1 0 V
Z stroke
1682 713 N
0 524 V
2 0 V
0 -524 V
-2 0 V
Z stroke
1741 735 N
0 534 V
1 0 V
0 -534 V
-1 0 V
Z stroke
1800 716 N
0 602 V
1 0 V
0 -602 V
-1 0 V
Z stroke
1858 720 N
0 688 V
1 0 V
0 -688 V
-1 0 V
Z stroke
1917 713 N
0 735 V
1 0 V
0 -735 V
-1 0 V
Z stroke
1975 708 N
0 788 V
2 0 V
0 -788 V
-2 0 V
Z stroke
2034 705 N
0 855 V
1 0 V
0 -855 V
-1 0 V
Z stroke
2093 691 N
0 885 V
1 0 V
0 -885 V
-1 0 V
Z stroke
2151 673 N
0 971 V
1 0 V
0 -971 V
-1 0 V
Z stroke
2210 668 N
0 1003 V
1 0 V
0 -1003 V
-1 0 V
Z stroke
2268 654 N
0 1023 V
2 0 V
0 -1023 V
-2 0 V
Z stroke
2327 643 N
0 1063 V
1 0 V
0 -1063 V
-1 0 V
Z stroke
2386 640 N
0 1062 V
1 0 V
0 -1062 V
-1 0 V
Z stroke
2444 640 N
0 1139 V
1 0 V
0 -1139 V
-1 0 V
Z stroke
2503 640 N
0 1209 V
1 0 V
0 -1209 V
-1 0 V
Z stroke
2561 640 N
0 1202 V
2 0 V
0 -1202 V
-2 0 V
Z stroke
2620 640 N
0 1252 V
1 0 V
0 -1252 V
-1 0 V
Z stroke
2679 640 N
0 1304 V
1 0 V
0 -1304 V
-1 0 V
Z stroke
2737 640 N
0 1297 V
1 0 V
0 -1297 V
-1 0 V
Z stroke
2796 640 N
0 1315 V
1 0 V
0 -1315 V
-1 0 V
Z stroke
2854 640 N
0 1368 V
1 0 V
0 -1368 V
-1 0 V
Z stroke
2913 640 N
0 1362 V
1 0 V
0 -1362 V
-1 0 V
Z stroke
2971 640 N
0 1432 V
2 0 V
0 -1432 V
-2 0 V
Z stroke
3030 640 N
0 1459 V
1 0 V
0 -1459 V
-1 0 V
Z stroke
3089 640 N
0 1482 V
1 0 V
0 -1482 V
-1 0 V
Z stroke
3147 640 N
0 1467 V
1 0 V
0 -1467 V
-1 0 V
Z stroke
3206 640 N
0 1546 V
1 0 V
0 -1546 V
-1 0 V
Z stroke
3264 640 N
0 1543 V
2 0 V
0 -1543 V
-2 0 V
Z stroke
3323 640 N
0 1569 V
1 0 V
0 -1569 V
-1 0 V
Z stroke
3382 640 N
0 1562 V
1 0 V
0 -1562 V
-1 0 V
Z stroke
3440 640 N
0 1579 V
1 0 V
0 -1579 V
-1 0 V
Z stroke
3499 640 N
0 1631 V
1 0 V
0 -1631 V
-1 0 V
Z stroke
3557 640 N
0 1634 V
2 0 V
0 -1634 V
-2 0 V
Z stroke
3616 640 N
0 1688 V
1 0 V
0 -1688 V
-1 0 V
Z stroke
3675 640 N
0 1705 V
1 0 V
0 -1705 V
-1 0 V
Z stroke
3733 640 N
0 1715 V
1 0 V
0 -1715 V
-1 0 V
Z stroke
3792 640 N
0 1707 V
1 0 V
0 -1707 V
-1 0 V
Z stroke
3850 640 N
0 1740 V
1 0 V
0 -1740 V
-1 0 V
Z stroke
3909 640 N
0 1722 V
1 0 V
0 -1722 V
-1 0 V
Z stroke
3968 640 N
0 1751 V
1 0 V
0 -1751 V
-1 0 V
Z stroke
4026 640 N
0 1758 V
1 0 V
0 -1758 V
-1 0 V
Z stroke
4085 640 N
0 1747 V
1 0 V
0 -1747 V
-1 0 V
Z stroke
4143 640 N
0 1751 V
1 0 V
0 -1751 V
-1 0 V
Z stroke
4202 640 N
0 1745 V
1 0 V
0 -1745 V
-1 0 V
Z stroke
4260 640 N
0 1813 V
2 0 V
0 -1813 V
-2 0 V
Z stroke
4319 640 N
0 1811 V
1 0 V
0 -1811 V
-1 0 V
Z stroke
4378 640 N
0 1756 V
1 0 V
0 -1756 V
-1 0 V
Z stroke
4436 640 N
0 1824 V
1 0 V
0 -1824 V
-1 0 V
Z stroke
4495 640 N
0 1725 V
1 0 V
0 -1725 V
-1 0 V
Z stroke
4553 640 N
0 1757 V
2 0 V
0 -1757 V
-2 0 V
Z stroke
4612 640 N
0 1705 V
1 0 V
0 -1705 V
-1 0 V
Z stroke
4671 640 N
0 1755 V
1 0 V
0 -1755 V
-1 0 V
Z stroke
4729 640 N
0 1780 V
1 0 V
0 -1780 V
-1 0 V
Z stroke
4788 640 N
0 1776 V
1 0 V
0 -1776 V
-1 0 V
Z stroke
4846 640 N
0 1832 V
2 0 V
0 -1832 V
-2 0 V
Z stroke
4905 640 N
0 1687 V
1 0 V
0 -1687 V
-1 0 V
Z stroke
4964 640 N
0 1766 V
1 0 V
0 -1766 V
-1 0 V
Z stroke
5022 640 N
0 1751 V
1 0 V
0 -1751 V
-1 0 V
Z stroke
5081 640 N
0 1813 V
1 0 V
0 -1813 V
-1 0 V
Z stroke
5139 640 N
0 1823 V
1 0 V
0 -1823 V
-1 0 V
Z stroke
5198 640 N
0 1822 V
1 0 V
0 -1822 V
-1 0 V
Z stroke
5256 640 N
0 1711 V
2 0 V
0 -1711 V
-2 0 V
Z stroke
5315 640 N
0 1898 V
1 0 V
0 -1898 V
-1 0 V
Z stroke
5374 640 N
0 1683 V
1 0 V
0 -1683 V
-1 0 V
Z stroke
5432 640 N
0 1786 V
1 0 V
0 -1786 V
-1 0 V
Z stroke
5491 640 N
0 1659 V
1 0 V
0 -1659 V
-1 0 V
Z stroke
5549 640 N
0 931 V
2 0 V
0 -931 V
-2 0 V
Z stroke
5608 640 N
0 1776 V
1 0 V
0 -1776 V
-1 0 V
Z stroke
5667 640 N
0 613 V
1 0 V
0 -613 V
-1 0 V
Z stroke
5725 640 N
0 1330 V
1 0 V
0 -1330 V
-1 0 V
Z stroke
5784 640 N
0 416 V
1 0 V
0 -416 V
-1 0 V
Z stroke
5842 640 N
0 860 V
2 0 V
0 -860 V
-2 0 V
Z stroke
5901 640 N
0 297 V
1 0 V
0 -297 V
-1 0 V
Z stroke
5960 640 N
0 301 V
1 0 V
0 -301 V
-1 0 V
Z stroke
6018 640 N
0 336 V
1 0 V
0 -336 V
-1 0 V
Z stroke
6077 640 N
0 209 V
1 0 V
0 -209 V
-1 0 V
Z stroke
6135 640 N
0 328 V
2 0 V
0 -328 V
-2 0 V
Z stroke
6194 640 N
0 186 V
1 0 V
0 -186 V
-1 0 V
Z stroke
6253 640 N
0 219 V
1 0 V
0 -219 V
-1 0 V
Z stroke
6311 640 N
0 193 V
1 0 V
0 -193 V
-1 0 V
Z stroke
6370 640 N
0 166 V
1 0 V
0 -166 V
-1 0 V
Z stroke
6428 640 N
0 168 V
1 0 V
0 -168 V
-1 0 V
Z stroke
6487 640 N
0 165 V
1 0 V
0 -165 V
-1 0 V
Z stroke
6545 640 N
0 139 V
2 0 V
0 -139 V
-2 0 V
Z stroke
6604 640 N
0 135 V
1 0 V
0 -135 V
-1 0 V
Z stroke
6663 640 N
0 136 V
1 0 V
0 -136 V
-1 0 V
Z stroke
6721 640 N
0 87 V
1 0 V
0 -87 V
-1 0 V
Z stroke
6780 640 N
0 97 V
1 0 V
0 -97 V
-1 0 V
Z stroke
6838 640 N
0 70 V
1 0 V
0 -70 V
-1 0 V
Z stroke
% End plot #1
% Begin plot #2
1.000 UL
[] 0 setdash
0.34 0.71 0.91 C 1.000 UL
[] 0 setdash
0.34 0.71 0.91 C 980 2206 M
3 0 V
1036 669 M
6 0 V
52 29 R
6 0 V
53 18 R
6 0 V
52 26 R
6 0 V
53 14 R
6 0 V
53 22 R
5 0 V
53 22 R
6 0 V
53 22 R
6 0 V
52 24 R
6 0 V
53 20 R
6 0 V
53 12 R
5 0 V
53 13 R
6 0 V
53 36 R
6 0 V
52 13 R
6 0 V
53 15 R
6 0 V
53 3 R
5 0 V
53 33 R
6 0 V
53 27 R
6 0 V
52 -9 R
6 0 V
53 48 R
6 0 V
52 -6 R
6 0 V
53 -31 R
6 0 V
53 53 R
5 0 V
53 -33 R
6 0 V
53 29 R
6 0 V
52 -7 R
6 0 V
53 29 R
6 0 V
53 -18 R
5 0 V
53 49 R
6 0 V
53 -62 R
6 0 V
52 66 R
6 0 V
53 -11 R
6 0 V
53 20 R
5 0 V
53 -47 R
6 0 V
53 -15 R
6 0 V
52 -7 R
6 0 V
53 -49 R
6 0 V
52 -102 R
6 0 V
53 20 R
6 0 V
53 -49 R
6 0 V
52 3 R
6 0 V
53 -78 R
6 0 V
52 18 R
6 0 V
53 -47 R
6 0 V
53 -22 R
5 0 V
53 2 R
6 0 V
53 -2 R
6 0 V
52 -55 R
6 0 V
53 59 R
6 0 V
53 -88 R
5 0 V
53 -1 R
6 0 V
53 -13 R
6 0 V
52 -11 R
6 0 V
53 -11 R
6 0 V
53 0 R
5 0 V
53 0 R
6 0 V
53 0 R
6 0 V
52 0 R
6 0 V
53 0 R
6 0 V
52 0 R
6 0 V
53 0 R
6 0 V
53 0 R
6 0 V
52 0 R
6 0 V
53 0 R
6 0 V
52 0 R
6 0 V
53 0 R
6 0 V
53 0 R
5 0 V
53 0 R
6 0 V
53 0 R
6 0 V
52 0 R
6 0 V
53 0 R
6 0 V
53 0 R
5 0 V
53 0 R
6 0 V
53 0 R
6 0 V
52 0 R
6 0 V
53 0 R
6 0 V
53 0 R
5 0 V
53 0 R
6 0 V
53 0 R
6 0 V
52 0 R
6 0 V
53 0 R
6 0 V
52 0 R
6 0 V
53 0 R
6 0 V
53 0 R
5 0 V
53 0 R
6 0 V
53 0 R
6 0 V
52 0 R
6 0 V
53 0 R
6 0 V
53 0 R
5 0 V
53 0 R
6 0 V
53 0 R
6 0 V
52 0 R
6 0 V
53 0 R
6 0 V
53 0 R
5 0 V
53 0 R
6 0 V
53 0 R
6 0 V
52 0 R
6 0 V
53 0 R
6 0 V
52 0 R
6 0 V
53 0 R
3 0 V
% End plot #2
% Begin plot #3
stroke
LTb
0.34 0.71 0.91 C LCb setrgbcolor
5936 2660 M
[ [(Helvetica) 200.0 0.0 true true 0 (anytime WA* landmark)]
] -66.7 MRshow
1.000 UL
LTb
0.34 0.71 0.91 C 6056 2660 M
543 0 V
980 2206 M
1039 669 L
58 29 V
59 18 V
58 26 V
59 14 V
59 22 V
58 22 V
59 22 V
58 24 V
59 20 V
58 12 V
59 13 V
59 36 V
58 13 V
59 15 V
58 3 V
59 33 V
59 27 V
58 -9 V
59 48 V
58 -6 V
59 -31 V
59 53 V
58 -33 V
59 29 V
58 -7 V
59 29 V
59 -18 V
58 49 V
59 -62 V
58 66 V
59 -11 V
58 20 V
59 -47 V
59 -15 V
58 -7 V
59 -49 V
58 -102 V
59 20 V
59 -49 V
58 3 V
59 -78 V
58 18 V
59 -47 V
59 -22 V
58 2 V
59 -2 V
58 -55 V
59 59 V
59 -88 V
58 -1 V
59 -13 V
58 -11 V
59 -11 V
58 0 V
59 0 V
59 0 V
58 0 V
59 0 V
58 0 V
59 0 V
59 0 V
58 0 V
59 0 V
58 0 V
59 0 V
59 0 V
58 0 V
59 0 V
58 0 V
59 0 V
58 0 V
59 0 V
59 0 V
58 0 V
59 0 V
58 0 V
59 0 V
59 0 V
58 0 V
59 0 V
58 0 V
59 0 V
59 0 V
58 0 V
59 0 V
58 0 V
59 0 V
59 0 V
58 0 V
59 0 V
58 0 V
59 0 V
58 0 V
59 0 V
59 0 V
58 0 V
59 0 V
58 0 V
59 0 V
% End plot #3
% Begin plot #4
stroke
LTb
0.58 0.00 0.83 C 980 695 N
0 152 V
1 0 V
0 -152 V
-1 0 V
Z stroke
1038 658 N
0 40 V
1 0 V
0 -40 V
-1 0 V
Z stroke
1097 651 N
0 34 V
1 0 V
0 -34 V
-1 0 V
Z stroke
1155 651 N
0 36 V
1 0 V
0 -36 V
-1 0 V
Z stroke
1214 651 N
0 40 V
1 0 V
0 -40 V
-1 0 V
Z stroke
1272 651 N
0 29 V
2 0 V
0 -29 V
-2 0 V
Z stroke
1331 651 N
0 29 V
1 0 V
0 -29 V
-1 0 V
Z stroke
1390 651 N
0 29 V
1 0 V
0 -29 V
-1 0 V
Z stroke
1448 651 N
0 29 V
1 0 V
0 -29 V
-1 0 V
Z stroke
1507 651 N
0 29 V
1 0 V
0 -29 V
-1 0 V
Z stroke
1565 651 N
0 33 V
1 0 V
0 -33 V
-1 0 V
Z stroke
1624 651 N
0 33 V
1 0 V
0 -33 V
-1 0 V
Z stroke
1682 651 N
0 29 V
2 0 V
0 -29 V
-2 0 V
Z stroke
1741 651 N
0 33 V
1 0 V
0 -33 V
-1 0 V
Z stroke
1800 651 N
0 29 V
1 0 V
0 -29 V
-1 0 V
Z stroke
1858 651 N
0 29 V
1 0 V
0 -29 V
-1 0 V
Z stroke
1917 651 N
0 25 V
1 0 V
0 -25 V
-1 0 V
Z stroke
1975 647 N
0 33 V
2 0 V
0 -33 V
-2 0 V
Z stroke
2034 647 N
0 37 V
1 0 V
0 -37 V
-1 0 V
Z stroke
2093 647 N
0 40 V
1 0 V
0 -40 V
-1 0 V
Z stroke
2151 647 N
0 40 V
1 0 V
0 -40 V
-1 0 V
Z stroke
2210 647 N
0 48 V
1 0 V
0 -48 V
-1 0 V
Z stroke
2268 647 N
0 66 V
2 0 V
0 -66 V
-2 0 V
Z stroke
2327 647 N
0 73 V
1 0 V
0 -73 V
-1 0 V
Z stroke
2386 644 N
0 84 V
1 0 V
0 -84 V
-1 0 V
Z stroke
2444 644 N
0 76 V
1 0 V
0 -76 V
-1 0 V
Z stroke
2503 644 N
0 72 V
1 0 V
0 -72 V
-1 0 V
Z stroke
2561 644 N
0 95 V
2 0 V
0 -95 V
-2 0 V
Z stroke
2620 644 N
0 105 V
1 0 V
0 -105 V
-1 0 V
Z stroke
2679 644 N
0 116 V
1 0 V
0 -116 V
-1 0 V
Z stroke
2737 640 N
0 120 V
1 0 V
0 -120 V
-1 0 V
Z stroke
2796 640 N
0 136 V
1 0 V
0 -136 V
-1 0 V
Z stroke
2854 640 N
0 146 V
1 0 V
0 -146 V
-1 0 V
Z stroke
2913 640 N
0 160 V
1 0 V
0 -160 V
-1 0 V
Z stroke
2971 640 N
0 171 V
2 0 V
0 -171 V
-2 0 V
Z stroke
3030 640 N
0 205 V
1 0 V
0 -205 V
-1 0 V
Z stroke
3089 640 N
0 212 V
1 0 V
0 -212 V
-1 0 V
Z stroke
3147 640 N
0 230 V
1 0 V
0 -230 V
-1 0 V
Z stroke
3206 640 N
0 258 V
1 0 V
0 -258 V
-1 0 V
Z stroke
3264 640 N
0 285 V
2 0 V
0 -285 V
-2 0 V
Z stroke
3323 640 N
0 317 V
1 0 V
0 -317 V
-1 0 V
Z stroke
3382 640 N
0 326 V
1 0 V
0 -326 V
-1 0 V
Z stroke
3440 640 N
0 372 V
1 0 V
0 -372 V
-1 0 V
Z stroke
3499 640 N
0 400 V
1 0 V
0 -400 V
-1 0 V
Z stroke
3557 640 N
0 429 V
2 0 V
0 -429 V
-2 0 V
Z stroke
3616 640 N
0 503 V
1 0 V
0 -503 V
-1 0 V
Z stroke
3675 640 N
0 518 V
1 0 V
0 -518 V
-1 0 V
Z stroke
3733 640 N
0 539 V
1 0 V
0 -539 V
-1 0 V
Z stroke
3792 640 N
0 615 V
1 0 V
0 -615 V
-1 0 V
Z stroke
3850 640 N
0 622 V
1 0 V
0 -622 V
-1 0 V
Z stroke
3909 640 N
0 720 V
1 0 V
0 -720 V
-1 0 V
Z stroke
3968 640 N
0 728 V
1 0 V
0 -728 V
-1 0 V
Z stroke
4026 640 N
0 779 V
1 0 V
0 -779 V
-1 0 V
Z stroke
4085 640 N
0 794 V
1 0 V
0 -794 V
-1 0 V
Z stroke
4143 640 N
0 867 V
1 0 V
0 -867 V
-1 0 V
Z stroke
4202 640 N
0 870 V
1 0 V
0 -870 V
-1 0 V
Z stroke
4260 640 N
0 928 V
2 0 V
0 -928 V
-2 0 V
Z stroke
4319 640 N
0 942 V
1 0 V
0 -942 V
-1 0 V
Z stroke
4378 640 N
0 1015 V
1 0 V
0 -1015 V
-1 0 V
Z stroke
4436 640 N
0 1038 V
1 0 V
0 -1038 V
-1 0 V
Z stroke
4495 640 N
0 993 V
1 0 V
0 -993 V
-1 0 V
Z stroke
4553 640 N
0 1093 V
2 0 V
0 -1093 V
-2 0 V
Z stroke
4612 640 N
0 1122 V
1 0 V
0 -1122 V
-1 0 V
Z stroke
4671 640 N
0 1135 V
1 0 V
0 -1135 V
-1 0 V
Z stroke
4729 640 N
0 1161 V
1 0 V
0 -1161 V
-1 0 V
Z stroke
4788 640 N
0 1142 V
1 0 V
0 -1142 V
-1 0 V
Z stroke
4846 640 N
0 1206 V
2 0 V
0 -1206 V
-2 0 V
Z stroke
4905 640 N
0 1193 V
1 0 V
0 -1193 V
-1 0 V
Z stroke
4964 640 N
0 1198 V
1 0 V
0 -1198 V
-1 0 V
Z stroke
5022 640 N
0 1270 V
1 0 V
0 -1270 V
-1 0 V
Z stroke
5081 640 N
0 1307 V
1 0 V
0 -1307 V
-1 0 V
Z stroke
5139 640 N
0 1303 V
1 0 V
0 -1303 V
-1 0 V
Z stroke
5198 640 N
0 1296 V
1 0 V
0 -1296 V
-1 0 V
Z stroke
5256 640 N
0 1363 V
2 0 V
0 -1363 V
-2 0 V
Z stroke
5315 640 N
0 1353 V
1 0 V
0 -1353 V
-1 0 V
Z stroke
5374 640 N
0 1387 V
1 0 V
0 -1387 V
-1 0 V
Z stroke
5432 640 N
0 1266 V
1 0 V
0 -1266 V
-1 0 V
Z stroke
5491 640 N
0 1343 V
1 0 V
0 -1343 V
-1 0 V
Z stroke
5549 640 N
0 1242 V
2 0 V
0 -1242 V
-2 0 V
Z stroke
5608 640 N
0 1110 V
1 0 V
0 -1110 V
-1 0 V
Z stroke
5667 640 N
0 1136 V
1 0 V
0 -1136 V
-1 0 V
Z stroke
5725 640 N
0 991 V
1 0 V
0 -991 V
-1 0 V
Z stroke
5784 640 N
0 943 V
1 0 V
0 -943 V
-1 0 V
Z stroke
5842 640 N
0 758 V
2 0 V
0 -758 V
-2 0 V
Z stroke
5901 640 N
0 220 V
1 0 V
0 -220 V
-1 0 V
Z stroke
5960 640 N
0 120 V
1 0 V
0 -120 V
-1 0 V
Z stroke
6018 640 N
0 94 V
1 0 V
0 -94 V
-1 0 V
Z stroke
6077 640 N
0 30 V
1 0 V
0 -30 V
-1 0 V
Z stroke
6135 640 N
0 19 V
2 0 V
0 -19 V
-2 0 V
Z stroke
% End plot #4
% Begin plot #5
1.000 UL
[] 0 setdash
0.58 0.00 0.83 C 1.000 UL
[] 0 setdash
0.58 0.00 0.83 C 980 742 M
3 0 V
53 -69 R
6 0 V
52 -11 R
6 0 V
53 3 R
6 0 V
52 0 R
6 0 V
53 -3 R
6 0 V
53 0 R
5 0 V
53 0 R
6 0 V
53 0 R
6 0 V
52 0 R
6 0 V
53 0 R
6 0 V
53 2 R
5 0 V
53 -2 R
6 0 V
53 0 R
6 0 V
52 0 R
6 0 V
53 -4 R
6 0 V
53 0 R
5 0 V
53 0 R
6 0 V
53 -3 R
6 0 V
52 3 R
6 0 V
53 0 R
6 0 V
52 0 R
6 0 V
53 0 R
6 0 V
53 4 R
5 0 V
53 0 R
6 0 V
53 0 R
6 0 V
52 0 R
6 0 V
53 0 R
6 0 V
53 3 R
5 0 V
53 0 R
6 0 V
53 0 R
6 0 V
52 -3 R
6 0 V
53 3 R
6 0 V
53 4 R
5 0 V
53 -4 R
6 0 V
53 0 R
6 0 V
52 0 R
6 0 V
53 0 R
6 0 V
52 4 R
6 0 V
53 0 R
6 0 V
53 -4 R
6 0 V
52 4 R
6 0 V
53 4 R
6 0 V
52 -4 R
6 0 V
53 7 R
6 0 V
53 0 R
5 0 V
53 4 R
6 0 V
53 -4 R
6 0 V
52 8 R
6 0 V
53 -6 R
6 0 V
53 15 R
5 0 V
53 -9 R
6 0 V
53 7 R
6 0 V
52 -11 R
6 0 V
53 11 R
6 0 V
53 -15 R
5 0 V
53 8 R
6 0 V
53 -11 R
6 0 V
52 2 R
6 0 V
53 -17 R
6 0 V
52 -18 R
6 0 V
53 0 R
6 0 V
53 0 R
6 0 V
52 0 R
6 0 V
53 0 R
6 0 V
52 0 R
6 0 V
53 0 R
6 0 V
53 0 R
5 0 V
53 0 R
6 0 V
53 0 R
6 0 V
52 0 R
6 0 V
53 0 R
6 0 V
53 0 R
5 0 V
53 0 R
6 0 V
53 0 R
6 0 V
52 0 R
6 0 V
53 0 R
6 0 V
53 0 R
5 0 V
53 0 R
6 0 V
53 0 R
6 0 V
52 0 R
6 0 V
53 0 R
6 0 V
52 0 R
6 0 V
53 0 R
6 0 V
53 0 R
5 0 V
53 0 R
6 0 V
53 0 R
6 0 V
52 0 R
6 0 V
53 0 R
6 0 V
53 0 R
5 0 V
53 0 R
6 0 V
53 0 R
6 0 V
52 0 R
6 0 V
53 0 R
6 0 V
53 0 R
5 0 V
53 0 R
6 0 V
53 0 R
6 0 V
52 0 R
6 0 V
53 0 R
6 0 V
52 0 R
6 0 V
53 0 R
3 0 V
% End plot #5
% Begin plot #6
stroke
LTb
0.58 0.00 0.83 C LCb setrgbcolor
5936 2460 M
[ [(Helvetica) 200.0 0.0 true true 0 (CPD anytime A*)]
] -66.7 MRshow
1.000 UL
LTb
0.58 0.00 0.83 C 6056 2460 M
543 0 V
980 742 M
59 -69 V
58 -11 V
59 3 V
58 0 V
59 -3 V
59 0 V
58 0 V
59 0 V
58 0 V
59 0 V
58 2 V
59 -2 V
59 0 V
58 0 V
59 -4 V
58 0 V
59 0 V
59 -3 V
58 3 V
59 0 V
58 0 V
59 0 V
59 4 V
58 0 V
59 0 V
58 0 V
59 0 V
59 3 V
58 0 V
59 0 V
58 -3 V
59 3 V
58 4 V
59 -4 V
59 0 V
58 0 V
59 0 V
58 4 V
59 0 V
59 -4 V
58 4 V
59 4 V
58 -4 V
59 7 V
59 0 V
58 4 V
59 -4 V
58 8 V
59 -6 V
59 15 V
58 -9 V
59 7 V
58 -11 V
59 11 V
58 -15 V
59 8 V
59 -11 V
58 2 V
59 -17 V
58 -18 V
59 0 V
59 0 V
58 0 V
59 0 V
58 0 V
59 0 V
59 0 V
58 0 V
59 0 V
58 0 V
59 0 V
58 0 V
59 0 V
59 0 V
58 0 V
59 0 V
58 0 V
59 0 V
59 0 V
58 0 V
59 0 V
58 0 V
59 0 V
59 0 V
58 0 V
59 0 V
58 0 V
59 0 V
59 0 V
58 0 V
59 0 V
58 0 V
59 0 V
58 0 V
59 0 V
59 0 V
58 0 V
59 0 V
58 0 V
59 0 V
% End plot #6
% Begin plot #7
stroke
LTb
0.00 0.62 0.45 C 980 709 N
0 146 V
1 0 V
0 -146 V
-1 0 V
Z stroke
1038 662 N
0 40 V
1 0 V
0 -40 V
-1 0 V
Z stroke
1097 655 N
0 43 V
1 0 V
0 -43 V
-1 0 V
Z stroke
1155 655 N
0 58 V
1 0 V
0 -58 V
-1 0 V
Z stroke
1214 655 N
0 76 V
1 0 V
0 -76 V
-1 0 V
Z stroke
1272 655 N
0 84 V
2 0 V
0 -84 V
-2 0 V
Z stroke
1331 655 N
0 87 V
1 0 V
0 -87 V
-1 0 V
Z stroke
1390 651 N
0 109 V
1 0 V
0 -109 V
-1 0 V
Z stroke
1448 647 N
0 118 V
1 0 V
0 -118 V
-1 0 V
Z stroke
1507 647 N
0 124 V
1 0 V
0 -124 V
-1 0 V
Z stroke
1565 647 N
0 132 V
1 0 V
0 -132 V
-1 0 V
Z stroke
1624 647 N
0 139 V
1 0 V
0 -139 V
-1 0 V
Z stroke
1682 647 N
0 135 V
2 0 V
0 -135 V
-2 0 V
Z stroke
1741 647 N
0 149 V
1 0 V
0 -149 V
-1 0 V
Z stroke
1800 647 N
0 176 V
1 0 V
0 -176 V
-1 0 V
Z stroke
1858 644 N
0 152 V
1 0 V
0 -152 V
-1 0 V
Z stroke
1917 644 N
0 152 V
1 0 V
0 -152 V
-1 0 V
Z stroke
1975 640 N
0 160 V
2 0 V
0 -160 V
-2 0 V
Z stroke
2034 640 N
0 138 V
1 0 V
0 -138 V
-1 0 V
Z stroke
2093 640 N
0 103 V
1 0 V
0 -103 V
-1 0 V
Z stroke
2151 640 N
0 76 V
1 0 V
0 -76 V
-1 0 V
Z stroke
2210 640 N
0 91 V
1 0 V
0 -91 V
-1 0 V
Z stroke
2268 640 N
0 84 V
2 0 V
0 -84 V
-2 0 V
Z stroke
2327 640 N
0 77 V
1 0 V
0 -77 V
-1 0 V
Z stroke
2386 640 N
0 73 V
1 0 V
0 -73 V
-1 0 V
Z stroke
2444 640 N
0 58 V
1 0 V
0 -58 V
-1 0 V
Z stroke
2503 640 N
0 55 V
1 0 V
0 -55 V
-1 0 V
Z stroke
2561 640 N
0 55 V
2 0 V
0 -55 V
-2 0 V
Z stroke
2620 640 N
0 55 V
1 0 V
0 -55 V
-1 0 V
Z stroke
2679 640 N
0 65 V
1 0 V
0 -65 V
-1 0 V
Z stroke
2737 640 N
0 62 V
1 0 V
0 -62 V
-1 0 V
Z stroke
2796 640 N
0 59 V
1 0 V
0 -59 V
-1 0 V
Z stroke
2854 640 N
0 44 V
1 0 V
0 -44 V
-1 0 V
Z stroke
2913 640 N
0 44 V
1 0 V
0 -44 V
-1 0 V
Z stroke
2971 640 N
0 30 V
2 0 V
0 -30 V
-2 0 V
Z stroke
3030 640 N
0 33 V
1 0 V
0 -33 V
-1 0 V
Z stroke
3089 640 N
0 25 V
1 0 V
0 -25 V
-1 0 V
Z stroke
3147 640 N
0 25 V
1 0 V
0 -25 V
-1 0 V
Z stroke
3206 640 N
0 22 V
1 0 V
0 -22 V
-1 0 V
Z stroke
3264 640 N
0 25 V
2 0 V
0 -25 V
-2 0 V
Z stroke
3323 640 N
0 22 V
1 0 V
0 -22 V
-1 0 V
Z stroke
3382 640 N
0 18 V
1 0 V
0 -18 V
-1 0 V
Z stroke
3440 640 N
0 12 V
1 0 V
0 -12 V
-1 0 V
Z stroke
3499 640 N
0 15 V
1 0 V
0 -15 V
-1 0 V
Z stroke
3557 640 N
0 15 V
2 0 V
0 -15 V
-2 0 V
Z stroke
3616 640 N
0 11 V
1 0 V
0 -11 V
-1 0 V
Z stroke
3675 640 N
0 11 V
1 0 V
0 -11 V
-1 0 V
Z stroke
3733 640 N
0 7 V
1 0 V
0 -7 V
-1 0 V
Z stroke
3792 640 N
0 1 V
1 0 V
0 -1 V
-1 0 V
Z stroke
% End plot #7
% Begin plot #8
1.000 UL
[] 0 setdash
0.00 0.62 0.45 C 1.000 UL
[] 0 setdash
0.00 0.62 0.45 C 980 775 M
3 0 V
53 -99 R
6 0 V
52 -7 R
6 0 V
53 4 R
6 0 V
52 14 R
6 0 V
53 0 R
6 0 V
53 -3 R
5 0 V
53 3 R
6 0 V
53 -2 R
6 0 V
52 -5 R
6 0 V
53 0 R
6 0 V
53 4 R
5 0 V
53 -15 R
6 0 V
53 4 R
6 0 V
52 11 R
6 0 V
53 -15 R
6 0 V
53 0 R
5 0 V
53 -4 R
6 0 V
53 -3 R
6 0 V
52 -4 R
6 0 V
53 0 R
6 0 V
52 0 R
6 0 V
53 -3 R
6 0 V
53 -4 R
5 0 V
53 0 R
6 0 V
53 -4 R
6 0 V
52 0 R
6 0 V
53 0 R
6 0 V
53 0 R
5 0 V
53 -2 R
6 0 V
53 -1 R
6 0 V
52 0 R
6 0 V
53 0 R
6 0 V
53 -4 R
5 0 V
53 0 R
6 0 V
53 0 R
6 0 V
52 0 R
6 0 V
53 0 R
6 0 V
52 0 R
6 0 V
53 0 R
6 0 V
53 0 R
6 0 V
52 0 R
6 0 V
53 0 R
6 0 V
52 0 R
6 0 V
53 0 R
6 0 V
53 0 R
5 0 V
53 0 R
6 0 V
53 0 R
6 0 V
52 0 R
6 0 V
53 0 R
6 0 V
53 0 R
5 0 V
53 0 R
6 0 V
53 0 R
6 0 V
52 0 R
6 0 V
53 0 R
6 0 V
53 0 R
5 0 V
53 0 R
6 0 V
53 0 R
6 0 V
52 0 R
6 0 V
53 0 R
6 0 V
52 0 R
6 0 V
53 0 R
6 0 V
53 0 R
6 0 V
52 0 R
6 0 V
53 0 R
6 0 V
52 0 R
6 0 V
53 0 R
6 0 V
53 0 R
5 0 V
53 0 R
6 0 V
53 0 R
6 0 V
52 0 R
6 0 V
53 0 R
6 0 V
53 0 R
5 0 V
53 0 R
6 0 V
53 0 R
6 0 V
52 0 R
6 0 V
53 0 R
6 0 V
53 0 R
5 0 V
53 0 R
6 0 V
53 0 R
6 0 V
52 0 R
6 0 V
53 0 R
6 0 V
52 0 R
6 0 V
53 0 R
6 0 V
53 0 R
5 0 V
53 0 R
6 0 V
53 0 R
6 0 V
52 0 R
6 0 V
53 0 R
6 0 V
53 0 R
5 0 V
53 0 R
6 0 V
53 0 R
6 0 V
52 0 R
6 0 V
53 0 R
6 0 V
53 0 R
5 0 V
53 0 R
6 0 V
53 0 R
6 0 V
52 0 R
6 0 V
53 0 R
6 0 V
52 0 R
6 0 V
53 0 R
3 0 V
% End plot #8
% Begin plot #9
stroke
LTb
0.00 0.62 0.45 C LCb setrgbcolor
5936 2260 M
[ [(Helvetica) 200.0 0.0 true true 0 (CPD anytime WA*)]
] -66.7 MRshow
1.000 UL
LTb
0.00 0.62 0.45 C 6056 2260 M
543 0 V
980 775 M
59 -99 V
58 -7 V
59 4 V
58 14 V
59 0 V
59 -3 V
58 3 V
59 -2 V
58 -5 V
59 0 V
58 4 V
59 -15 V
59 4 V
58 11 V
59 -15 V
58 0 V
59 -4 V
59 -3 V
58 -4 V
59 0 V
58 0 V
59 -3 V
59 -4 V
58 0 V
59 -4 V
58 0 V
59 0 V
59 0 V
58 -2 V
59 -1 V
58 0 V
59 0 V
58 -4 V
59 0 V
59 0 V
58 0 V
59 0 V
58 0 V
59 0 V
59 0 V
58 0 V
59 0 V
58 0 V
59 0 V
59 0 V
58 0 V
59 0 V
58 0 V
59 0 V
59 0 V
58 0 V
59 0 V
58 0 V
59 0 V
58 0 V
59 0 V
59 0 V
58 0 V
59 0 V
58 0 V
59 0 V
59 0 V
58 0 V
59 0 V
58 0 V
59 0 V
59 0 V
58 0 V
59 0 V
58 0 V
59 0 V
58 0 V
59 0 V
59 0 V
58 0 V
59 0 V
58 0 V
59 0 V
59 0 V
58 0 V
59 0 V
58 0 V
59 0 V
59 0 V
58 0 V
59 0 V
58 0 V
59 0 V
59 0 V
58 0 V
59 0 V
58 0 V
59 0 V
58 0 V
59 0 V
59 0 V
58 0 V
59 0 V
58 0 V
59 0 V
% End plot #9
stroke
2.000 UL
LTb
LCb setrgbcolor
1.000 UL
LTB
LCb setrgbcolor
980 2823 N
980 640 L
5859 0 V
0 2183 V
-5859 0 V
Z stroke
1.000 UP
1.000 UL
LTb
LCb setrgbcolor
stroke
grestore
end
showpage
%%Trailer
%%DocumentFonts: Helvetica
