%!PS-Adobe-3.0 EPSF-3.0
%%Title: /home/koldar/git/UNIBS_dynamicPathFinding/DynamicPathFindingTestsCockpit/build.optimal/images/0000|ar#[15,15]@mp#hrt201n.map@opr#[0,95]@pk#RANDOM_RATIO_AREA@pm#MULTIPLY@pr#[3,3]@sf#hrt201n.map.scen@ua#False@ub#False|image_infos:image_type#single_time_over_query|.eps
%%Creator: matplotlib version 3.0.2, http://matplotlib.org/
%%CreationDate: Fri Feb 22 23:49:31 2019
%%Orientation: portrait
%%BoundingBox: -132 215 744 576
%%EndComments
%%BeginProlog
/mpldict 8 dict def
mpldict begin
/m { moveto } bind def
/l { lineto } bind def
/r { rlineto } bind def
/c { curveto } bind def
/cl { closepath } bind def
/box {
m
1 index 0 r
0 exch r
neg 0 r
cl
} bind def
/clipbox {
box
clip
newpath
} bind def
%!PS-Adobe-3.0 Resource-Font
%%Title: DejaVu Sans
%%Copyright: Copyright (c) 2003 by Bitstream, Inc. All Rights Reserved. Copyright (c) 2006 by Tavmjong Bah. All Rights Reserved. DejaVu changes are in public domain 
%%Creator: Converted from TrueType to type 3 by PPR
25 dict begin
/_d{bind def}bind def
/_m{moveto}_d
/_l{lineto}_d
/_cl{closepath eofill}_d
/_c{curveto}_d
/_sc{7 -1 roll{setcachedevice}{pop pop pop pop pop pop}ifelse}_d
/_e{exec}_d
/FontName /DejaVuSans def
/PaintType 0 def
/FontMatrix[.001 0 0 .001 0 0]def
/FontBBox[-1021 -463 1793 1232]def
/FontType 3 def
/Encoding [ /space /numbersign /parenleft /parenright /asterisk /comma /zero /one /two /three /four /five /six /eight /nine /equal /A /D /E /F /H /I /L /M /O /P /Q /R /S /T /U /Y /bracketleft /bracketright /underscore /a /b /c /d /e /f /g /h /i /l /m /n /o /p /q /r /s /t /u /v /y ] def
/FontInfo 10 dict dup begin
/FamilyName (DejaVu Sans) def
/FullName (DejaVu Sans) def
/Notice (Copyright (c) 2003 by Bitstream, Inc. All Rights Reserved. Copyright (c) 2006 by Tavmjong Bah. All Rights Reserved. DejaVu changes are in public domain ) def
/Weight (Book) def
/Version (Version 2.35) def
/ItalicAngle 0.0 def
/isFixedPitch false def
/UnderlinePosition -130 def
/UnderlineThickness 90 def
end readonly def
/CharStrings 57 dict dup begin
/.notdef 0 def
/space{318 0 0 0 0 0 _sc
}_d
/numbersign{{838 0 77 0 761 718 _sc
511 440 _m
369 440 _l
328 277 _l
471 277 _l
511 440 _l
438 718 _m
387 515 _l
530 515 _l
581 718 _l
659 718 _l
609 515 _l
761 515 _l
761 440 _l
590 440 _l
550 277 _l
705 277 _l
705 202 _l
531 202 _l
480 0 _l
402 0 _l
452 202 _l
309 202 _l
259 0 _l
180 0 _l
231 202 _l
77 202 _l
77 277 _l
249 277 _l
290 440 _l
133 440 _l
}_e{133 515 _l
309 515 _l
359 718 _l
438 718 _l
_cl}_e}_d
/parenleft{390 0 86 -131 310 759 _sc
310 759 _m
266 683 234 609 213 536 _c
191 463 181 389 181 314 _c
181 238 191 164 213 91 _c
234 17 266 -56 310 -131 _c
232 -131 _l
183 -54 146 20 122 94 _c
98 168 86 241 86 314 _c
86 386 98 459 122 533 _c
146 607 182 682 232 759 _c
310 759 _l
_cl}_d
/parenright{390 0 80 -131 304 759 _sc
80 759 _m
158 759 _l
206 682 243 607 267 533 _c
291 459 304 386 304 314 _c
304 241 291 168 267 94 _c
243 20 206 -54 158 -131 _c
80 -131 _l
123 -56 155 17 177 91 _c
198 164 209 238 209 314 _c
209 389 198 463 177 536 _c
155 609 123 683 80 759 _c
_cl}_d
/asterisk{500 0 30 286 470 742 _sc
470 609 _m
295 514 _l
470 419 _l
442 371 _l
278 470 _l
278 286 _l
222 286 _l
222 470 _l
58 371 _l
30 419 _l
205 514 _l
30 609 _l
58 657 _l
222 558 _l
222 742 _l
278 742 _l
278 558 _l
442 657 _l
470 609 _l
_cl}_d
/comma{318 0 77 -115 220 124 _sc
117 124 _m
220 124 _l
220 40 _l
140 -115 _l
77 -115 _l
117 40 _l
117 124 _l
_cl}_d
/zero{636 0 66 -13 570 742 _sc
318 664 _m
267 664 229 639 203 589 _c
177 539 165 464 165 364 _c
165 264 177 189 203 139 _c
229 89 267 64 318 64 _c
369 64 407 89 433 139 _c
458 189 471 264 471 364 _c
471 464 458 539 433 589 _c
407 639 369 664 318 664 _c
318 742 _m
399 742 461 709 505 645 _c
548 580 570 486 570 364 _c
570 241 548 147 505 83 _c
461 19 399 -13 318 -13 _c
236 -13 173 19 130 83 _c
87 147 66 241 66 364 _c
66 486 87 580 130 645 _c
173 709 236 742 318 742 _c
_cl}_d
/one{636 0 110 0 544 729 _sc
124 83 _m
285 83 _l
285 639 _l
110 604 _l
110 694 _l
284 729 _l
383 729 _l
383 83 _l
544 83 _l
544 0 _l
124 0 _l
124 83 _l
_cl}_d
/two{{636 0 73 0 536 742 _sc
192 83 _m
536 83 _l
536 0 _l
73 0 _l
73 83 _l
110 121 161 173 226 239 _c
290 304 331 346 348 365 _c
380 400 402 430 414 455 _c
426 479 433 504 433 528 _c
433 566 419 598 392 622 _c
365 646 330 659 286 659 _c
255 659 222 653 188 643 _c
154 632 117 616 78 594 _c
78 694 _l
118 710 155 722 189 730 _c
223 738 255 742 284 742 _c
}_e{359 742 419 723 464 685 _c
509 647 532 597 532 534 _c
532 504 526 475 515 449 _c
504 422 484 390 454 354 _c
446 344 420 317 376 272 _c
332 227 271 164 192 83 _c
_cl}_e}_d
/three{{636 0 76 -13 556 742 _sc
406 393 _m
453 383 490 362 516 330 _c
542 298 556 258 556 212 _c
556 140 531 84 482 45 _c
432 6 362 -13 271 -13 _c
240 -13 208 -10 176 -4 _c
144 1 110 10 76 22 _c
76 117 _l
103 101 133 89 166 81 _c
198 73 232 69 268 69 _c
330 69 377 81 409 105 _c
441 129 458 165 458 212 _c
458 254 443 288 413 312 _c
383 336 341 349 287 349 _c
}_e{202 349 _l
202 430 _l
291 430 _l
339 430 376 439 402 459 _c
428 478 441 506 441 543 _c
441 580 427 609 401 629 _c
374 649 336 659 287 659 _c
260 659 231 656 200 650 _c
169 644 135 635 98 623 _c
98 711 _l
135 721 170 729 203 734 _c
235 739 266 742 296 742 _c
370 742 429 725 473 691 _c
517 657 539 611 539 553 _c
539 513 527 479 504 451 _c
481 423 448 403 406 393 _c
_cl}_e}_d
/four{636 0 49 0 580 729 _sc
378 643 _m
129 254 _l
378 254 _l
378 643 _l
352 729 _m
476 729 _l
476 254 _l
580 254 _l
580 172 _l
476 172 _l
476 0 _l
378 0 _l
378 172 _l
49 172 _l
49 267 _l
352 729 _l
_cl}_d
/five{{636 0 77 -13 549 729 _sc
108 729 _m
495 729 _l
495 646 _l
198 646 _l
198 467 _l
212 472 227 476 241 478 _c
255 480 270 482 284 482 _c
365 482 429 459 477 415 _c
525 370 549 310 549 234 _c
549 155 524 94 475 51 _c
426 8 357 -13 269 -13 _c
238 -13 207 -10 175 -6 _c
143 -1 111 6 77 17 _c
77 116 _l
106 100 136 88 168 80 _c
199 72 232 69 267 69 _c
}_e{323 69 368 83 401 113 _c
433 143 450 183 450 234 _c
450 284 433 324 401 354 _c
368 384 323 399 267 399 _c
241 399 214 396 188 390 _c
162 384 135 375 108 363 _c
108 729 _l
_cl}_e}_d
/six{{636 0 70 -13 573 742 _sc
330 404 _m
286 404 251 388 225 358 _c
199 328 186 286 186 234 _c
186 181 199 139 225 109 _c
251 79 286 64 330 64 _c
374 64 409 79 435 109 _c
461 139 474 181 474 234 _c
474 286 461 328 435 358 _c
409 388 374 404 330 404 _c
526 713 _m
526 623 _l
501 635 476 644 451 650 _c
425 656 400 659 376 659 _c
310 659 260 637 226 593 _c
}_e{192 549 172 482 168 394 _c
187 422 211 444 240 459 _c
269 474 301 482 336 482 _c
409 482 467 459 509 415 _c
551 371 573 310 573 234 _c
573 159 550 99 506 54 _c
462 9 403 -13 330 -13 _c
246 -13 181 19 137 83 _c
92 147 70 241 70 364 _c
70 479 97 571 152 639 _c
206 707 280 742 372 742 _c
396 742 421 739 447 735 _c
472 730 498 723 526 713 _c
_cl}_e}_d
/eight{{636 0 68 -13 568 742 _sc
318 346 _m
271 346 234 333 207 308 _c
180 283 167 249 167 205 _c
167 161 180 126 207 101 _c
234 76 271 64 318 64 _c
364 64 401 76 428 102 _c
455 127 469 161 469 205 _c
469 249 455 283 429 308 _c
402 333 365 346 318 346 _c
219 388 _m
177 398 144 418 120 447 _c
96 476 85 511 85 553 _c
85 611 105 657 147 691 _c
188 725 245 742 318 742 _c
}_e{390 742 447 725 489 691 _c
530 657 551 611 551 553 _c
551 511 539 476 515 447 _c
491 418 459 398 417 388 _c
464 377 501 355 528 323 _c
554 291 568 251 568 205 _c
568 134 546 80 503 43 _c
459 5 398 -13 318 -13 _c
237 -13 175 5 132 43 _c
89 80 68 134 68 205 _c
68 251 81 291 108 323 _c
134 355 171 377 219 388 _c
183 544 _m
183 506 194 476 218 455 _c
}_e{242 434 275 424 318 424 _c
360 424 393 434 417 455 _c
441 476 453 506 453 544 _c
453 582 441 611 417 632 _c
393 653 360 664 318 664 _c
275 664 242 653 218 632 _c
194 611 183 582 183 544 _c
_cl}_e}_d
/nine{{636 0 63 -13 566 742 _sc
110 15 _m
110 105 _l
134 93 159 84 185 78 _c
210 72 235 69 260 69 _c
324 69 374 90 408 134 _c
442 178 462 244 468 334 _c
448 306 424 284 396 269 _c
367 254 335 247 300 247 _c
226 247 168 269 126 313 _c
84 357 63 417 63 494 _c
63 568 85 628 129 674 _c
173 719 232 742 306 742 _c
390 742 455 709 499 645 _c
543 580 566 486 566 364 _c
}_e{566 248 538 157 484 89 _c
429 21 356 -13 264 -13 _c
239 -13 214 -10 189 -6 _c
163 -2 137 5 110 15 _c
306 324 _m
350 324 385 339 411 369 _c
437 399 450 441 450 494 _c
450 546 437 588 411 618 _c
385 648 350 664 306 664 _c
262 664 227 648 201 618 _c
175 588 162 546 162 494 _c
162 441 175 399 201 369 _c
227 339 262 324 306 324 _c
_cl}_e}_d
/equal{838 0 106 172 732 454 _sc
106 454 _m
732 454 _l
732 372 _l
106 372 _l
106 454 _l
106 255 _m
732 255 _l
732 172 _l
106 172 _l
106 255 _l
_cl}_d
/A{684 0 8 0 676 729 _sc
342 632 _m
208 269 _l
476 269 _l
342 632 _l
286 729 _m
398 729 _l
676 0 _l
573 0 _l
507 187 _l
178 187 _l
112 0 _l
8 0 _l
286 729 _l
_cl}_d
/D{770 0 98 0 711 729 _sc
197 648 _m
197 81 _l
316 81 _l
416 81 490 103 537 149 _c
583 195 607 267 607 365 _c
607 463 583 534 537 580 _c
490 625 416 648 316 648 _c
197 648 _l
98 729 _m
301 729 _l
442 729 546 699 612 641 _c
678 582 711 490 711 365 _c
711 239 677 147 611 88 _c
545 29 441 0 301 0 _c
98 0 _l
98 729 _l
_cl}_d
/E{632 0 98 0 568 729 _sc
98 729 _m
559 729 _l
559 646 _l
197 646 _l
197 430 _l
544 430 _l
544 347 _l
197 347 _l
197 83 _l
568 83 _l
568 0 _l
98 0 _l
98 729 _l
_cl}_d
/F{575 0 98 0 517 729 _sc
98 729 _m
517 729 _l
517 646 _l
197 646 _l
197 431 _l
486 431 _l
486 348 _l
197 348 _l
197 0 _l
98 0 _l
98 729 _l
_cl}_d
/H{752 0 98 0 654 729 _sc
98 729 _m
197 729 _l
197 430 _l
555 430 _l
555 729 _l
654 729 _l
654 0 _l
555 0 _l
555 347 _l
197 347 _l
197 0 _l
98 0 _l
98 729 _l
_cl}_d
/I{295 0 98 0 197 729 _sc
98 729 _m
197 729 _l
197 0 _l
98 0 _l
98 729 _l
_cl}_d
/L{557 0 98 0 552 729 _sc
98 729 _m
197 729 _l
197 83 _l
552 83 _l
552 0 _l
98 0 _l
98 729 _l
_cl}_d
/M{863 0 98 0 765 729 _sc
98 729 _m
245 729 _l
431 233 _l
618 729 _l
765 729 _l
765 0 _l
669 0 _l
669 640 _l
481 140 _l
382 140 _l
194 640 _l
194 0 _l
98 0 _l
98 729 _l
_cl}_d
/O{787 0 56 -13 731 742 _sc
394 662 _m
322 662 265 635 223 582 _c
181 528 160 456 160 364 _c
160 272 181 199 223 146 _c
265 92 322 66 394 66 _c
465 66 522 92 564 146 _c
606 199 627 272 627 364 _c
627 456 606 528 564 582 _c
522 635 465 662 394 662 _c
394 742 _m
496 742 577 707 639 639 _c
700 571 731 479 731 364 _c
731 248 700 157 639 89 _c
577 21 496 -13 394 -13 _c
291 -13 209 21 148 89 _c
86 157 56 248 56 364 _c
56 479 86 571 148 639 _c
209 707 291 742 394 742 _c
_cl}_d
/P{603 0 98 0 569 729 _sc
197 648 _m
197 374 _l
321 374 _l
367 374 402 385 427 409 _c
452 433 465 467 465 511 _c
465 555 452 588 427 612 _c
402 636 367 648 321 648 _c
197 648 _l
98 729 _m
321 729 _l
402 729 464 710 506 673 _c
548 636 569 582 569 511 _c
569 439 548 384 506 348 _c
464 311 402 293 321 293 _c
197 293 _l
197 0 _l
98 0 _l
98 729 _l
_cl}_d
/Q{{787 0 56 -128 731 742 _sc
394 662 _m
322 662 265 635 223 582 _c
181 528 160 456 160 364 _c
160 272 181 199 223 146 _c
265 92 322 66 394 66 _c
465 66 522 92 564 146 _c
606 199 627 272 627 364 _c
627 456 606 528 564 582 _c
522 635 465 662 394 662 _c
532 13 _m
662 -128 _l
543 -128 _l
435 -11 _l
424 -11 416 -12 410 -12 _c
404 -12 399 -13 394 -13 _c
291 -13 209 21 148 89 _c
}_e{86 157 56 248 56 364 _c
56 479 86 571 148 639 _c
209 707 291 742 394 742 _c
496 742 577 707 639 639 _c
700 571 731 479 731 364 _c
731 279 714 206 680 146 _c
646 86 596 41 532 13 _c
_cl}_e}_d
/R{{695 0 98 0 666 729 _sc
444 342 _m
465 334 486 319 506 296 _c
526 272 546 240 566 199 _c
666 0 _l
560 0 _l
467 187 _l
443 235 419 268 397 284 _c
374 300 343 308 304 308 _c
197 308 _l
197 0 _l
98 0 _l
98 729 _l
321 729 _l
404 729 466 711 507 677 _c
548 642 569 589 569 519 _c
569 473 558 434 537 404 _c
515 374 484 353 444 342 _c
197 648 _m
197 389 _l
321 389 _l
}_e{368 389 404 400 428 422 _c
452 444 465 476 465 519 _c
465 561 452 593 428 615 _c
404 637 368 648 321 648 _c
197 648 _l
_cl}_e}_d
/S{{635 0 66 -13 579 742 _sc
535 705 _m
535 609 _l
497 627 462 640 429 649 _c
395 657 363 662 333 662 _c
279 662 237 651 208 631 _c
179 610 165 580 165 542 _c
165 510 174 485 194 469 _c
213 452 250 439 304 429 _c
364 417 _l
437 403 491 378 526 343 _c
561 307 579 260 579 201 _c
579 130 555 77 508 41 _c
460 5 391 -13 300 -13 _c
265 -13 228 -9 189 -2 _c
}_e{150 5 110 16 69 32 _c
69 134 _l
109 111 148 94 186 83 _c
224 71 262 66 300 66 _c
356 66 399 77 430 99 _c
460 121 476 152 476 194 _c
476 230 465 258 443 278 _c
421 298 385 313 335 323 _c
275 335 _l
201 349 148 372 115 404 _c
82 435 66 478 66 534 _c
66 598 88 649 134 686 _c
179 723 242 742 322 742 _c
356 742 390 739 426 733 _c
461 727 497 717 535 705 _c
}_e{_cl}_e}_d
/T{611 0 -2 0 614 729 _sc
-2 729 _m
614 729 _l
614 646 _l
355 646 _l
355 0 _l
256 0 _l
256 646 _l
-2 646 _l
-2 729 _l
_cl}_d
/U{732 0 87 -13 645 729 _sc
87 729 _m
186 729 _l
186 286 _l
186 208 200 151 228 117 _c
256 83 302 66 366 66 _c
429 66 475 83 503 117 _c
531 151 546 208 546 286 _c
546 729 _l
645 729 _l
645 274 _l
645 178 621 107 574 59 _c
527 11 458 -13 366 -13 _c
274 -13 204 11 157 59 _c
110 107 87 178 87 274 _c
87 729 _l
_cl}_d
/Y{611 0 -1 0 613 729 _sc
-1 729 _m
104 729 _l
306 429 _l
507 729 _l
613 729 _l
355 347 _l
355 0 _l
256 0 _l
256 347 _l
-1 729 _l
_cl}_d
/bracketleft{390 0 86 -131 293 760 _sc
86 760 _m
293 760 _l
293 690 _l
176 690 _l
176 -61 _l
293 -61 _l
293 -131 _l
86 -131 _l
86 760 _l
_cl}_d
/bracketright{390 0 97 -131 304 760 _sc
304 760 _m
304 -131 _l
97 -131 _l
97 -61 _l
214 -61 _l
214 690 _l
97 690 _l
97 760 _l
304 760 _l
_cl}_d
/underscore{500 0 -9 -235 510 -165 _sc
510 -165 _m
510 -235 _l
-9 -235 _l
-9 -165 _l
510 -165 _l
_cl}_d
/a{{613 0 60 -13 522 560 _sc
343 275 _m
270 275 220 266 192 250 _c
164 233 150 205 150 165 _c
150 133 160 107 181 89 _c
202 70 231 61 267 61 _c
317 61 357 78 387 114 _c
417 149 432 196 432 255 _c
432 275 _l
343 275 _l
522 312 _m
522 0 _l
432 0 _l
432 83 _l
411 49 385 25 355 10 _c
325 -5 287 -13 243 -13 _c
187 -13 142 2 109 33 _c
76 64 60 106 60 159 _c
}_e{60 220 80 266 122 298 _c
163 329 224 345 306 345 _c
432 345 _l
432 354 _l
432 395 418 427 391 450 _c
364 472 326 484 277 484 _c
245 484 215 480 185 472 _c
155 464 127 453 100 439 _c
100 522 _l
132 534 164 544 195 550 _c
226 556 256 560 286 560 _c
365 560 424 539 463 498 _c
502 457 522 395 522 312 _c
_cl}_e}_d
/b{{635 0 91 -13 580 760 _sc
487 273 _m
487 339 473 390 446 428 _c
418 466 381 485 334 485 _c
286 485 249 466 222 428 _c
194 390 181 339 181 273 _c
181 207 194 155 222 117 _c
249 79 286 61 334 61 _c
381 61 418 79 446 117 _c
473 155 487 207 487 273 _c
181 464 _m
199 496 223 520 252 536 _c
281 552 316 560 356 560 _c
422 560 476 533 518 481 _c
559 428 580 359 580 273 _c
}_e{580 187 559 117 518 65 _c
476 13 422 -13 356 -13 _c
316 -13 281 -5 252 10 _c
223 25 199 49 181 82 _c
181 0 _l
91 0 _l
91 760 _l
181 760 _l
181 464 _l
_cl}_e}_d
/c{{550 0 55 -13 488 560 _sc
488 526 _m
488 442 _l
462 456 437 466 411 473 _c
385 480 360 484 334 484 _c
276 484 230 465 198 428 _c
166 391 150 339 150 273 _c
150 206 166 154 198 117 _c
230 80 276 62 334 62 _c
360 62 385 65 411 72 _c
437 79 462 90 488 104 _c
488 21 _l
462 9 436 0 410 -5 _c
383 -10 354 -13 324 -13 _c
242 -13 176 12 128 64 _c
}_e{79 115 55 185 55 273 _c
55 362 79 432 128 483 _c
177 534 244 560 330 560 _c
358 560 385 557 411 551 _c
437 545 463 537 488 526 _c
_cl}_e}_d
/d{{635 0 55 -13 544 760 _sc
454 464 _m
454 760 _l
544 760 _l
544 0 _l
454 0 _l
454 82 _l
435 49 411 25 382 10 _c
353 -5 319 -13 279 -13 _c
213 -13 159 13 117 65 _c
75 117 55 187 55 273 _c
55 359 75 428 117 481 _c
159 533 213 560 279 560 _c
319 560 353 552 382 536 _c
411 520 435 496 454 464 _c
148 273 _m
148 207 161 155 188 117 _c
215 79 253 61 301 61 _c
}_e{348 61 385 79 413 117 _c
440 155 454 207 454 273 _c
454 339 440 390 413 428 _c
385 466 348 485 301 485 _c
253 485 215 466 188 428 _c
161 390 148 339 148 273 _c
_cl}_e}_d
/e{{615 0 55 -13 562 560 _sc
562 296 _m
562 252 _l
149 252 _l
153 190 171 142 205 110 _c
238 78 284 62 344 62 _c
378 62 412 66 444 74 _c
476 82 509 95 541 113 _c
541 28 _l
509 14 476 3 442 -3 _c
408 -9 373 -13 339 -13 _c
251 -13 182 12 131 62 _c
80 112 55 181 55 268 _c
55 357 79 428 127 481 _c
175 533 241 560 323 560 _c
397 560 455 536 498 489 _c
}_e{540 441 562 377 562 296 _c
472 322 _m
471 371 457 410 431 440 _c
404 469 368 484 324 484 _c
274 484 234 469 204 441 _c
174 413 156 373 152 322 _c
472 322 _l
_cl}_e}_d
/f{352 0 23 0 371 760 _sc
371 760 _m
371 685 _l
285 685 _l
253 685 230 678 218 665 _c
205 652 199 629 199 595 _c
199 547 _l
347 547 _l
347 477 _l
199 477 _l
199 0 _l
109 0 _l
109 477 _l
23 477 _l
23 547 _l
109 547 _l
109 585 _l
109 645 123 690 151 718 _c
179 746 224 760 286 760 _c
371 760 _l
_cl}_d
/g{{635 0 55 -207 544 560 _sc
454 280 _m
454 344 440 395 414 431 _c
387 467 349 485 301 485 _c
253 485 215 467 188 431 _c
161 395 148 344 148 280 _c
148 215 161 165 188 129 _c
215 93 253 75 301 75 _c
349 75 387 93 414 129 _c
440 165 454 215 454 280 _c
544 68 _m
544 -24 523 -93 482 -139 _c
440 -184 377 -207 292 -207 _c
260 -207 231 -204 203 -200 _c
175 -195 147 -188 121 -178 _c
}_e{121 -91 _l
147 -105 173 -115 199 -122 _c
225 -129 251 -133 278 -133 _c
336 -133 380 -117 410 -87 _c
439 -56 454 -10 454 52 _c
454 96 _l
435 64 411 40 382 24 _c
353 8 319 0 279 0 _c
211 0 157 25 116 76 _c
75 127 55 195 55 280 _c
55 364 75 432 116 483 _c
157 534 211 560 279 560 _c
319 560 353 552 382 536 _c
411 520 435 496 454 464 _c
454 547 _l
544 547 _l
}_e{544 68 _l
_cl}_e}_d
/h{634 0 91 0 549 760 _sc
549 330 _m
549 0 _l
459 0 _l
459 327 _l
459 379 448 417 428 443 _c
408 469 378 482 338 482 _c
289 482 251 466 223 435 _c
195 404 181 362 181 309 _c
181 0 _l
91 0 _l
91 760 _l
181 760 _l
181 462 _l
202 494 227 519 257 535 _c
286 551 320 560 358 560 _c
420 560 468 540 500 501 _c
532 462 549 405 549 330 _c
_cl}_d
/i{278 0 94 0 184 760 _sc
94 547 _m
184 547 _l
184 0 _l
94 0 _l
94 547 _l
94 760 _m
184 760 _l
184 646 _l
94 646 _l
94 760 _l
_cl}_d
/l{278 0 94 0 184 760 _sc
94 760 _m
184 760 _l
184 0 _l
94 0 _l
94 760 _l
_cl}_d
/m{{974 0 91 0 889 560 _sc
520 442 _m
542 482 569 511 600 531 _c
631 550 668 560 711 560 _c
767 560 811 540 842 500 _c
873 460 889 403 889 330 _c
889 0 _l
799 0 _l
799 327 _l
799 379 789 418 771 444 _c
752 469 724 482 686 482 _c
639 482 602 466 575 435 _c
548 404 535 362 535 309 _c
535 0 _l
445 0 _l
445 327 _l
445 379 435 418 417 444 _c
398 469 369 482 331 482 _c
}_e{285 482 248 466 221 435 _c
194 404 181 362 181 309 _c
181 0 _l
91 0 _l
91 547 _l
181 547 _l
181 462 _l
201 495 226 520 255 536 _c
283 552 317 560 357 560 _c
397 560 430 550 458 530 _c
486 510 506 480 520 442 _c
_cl}_e}_d
/n{634 0 91 0 549 560 _sc
549 330 _m
549 0 _l
459 0 _l
459 327 _l
459 379 448 417 428 443 _c
408 469 378 482 338 482 _c
289 482 251 466 223 435 _c
195 404 181 362 181 309 _c
181 0 _l
91 0 _l
91 547 _l
181 547 _l
181 462 _l
202 494 227 519 257 535 _c
286 551 320 560 358 560 _c
420 560 468 540 500 501 _c
532 462 549 405 549 330 _c
_cl}_d
/o{612 0 55 -13 557 560 _sc
306 484 _m
258 484 220 465 192 427 _c
164 389 150 338 150 273 _c
150 207 163 156 191 118 _c
219 80 257 62 306 62 _c
354 62 392 80 420 118 _c
448 156 462 207 462 273 _c
462 337 448 389 420 427 _c
392 465 354 484 306 484 _c
306 560 _m
384 560 445 534 490 484 _c
534 433 557 363 557 273 _c
557 183 534 113 490 63 _c
445 12 384 -13 306 -13 _c
227 -13 165 12 121 63 _c
77 113 55 183 55 273 _c
55 363 77 433 121 484 _c
165 534 227 560 306 560 _c
_cl}_d
/p{{635 0 91 -207 580 560 _sc
181 82 _m
181 -207 _l
91 -207 _l
91 547 _l
181 547 _l
181 464 _l
199 496 223 520 252 536 _c
281 552 316 560 356 560 _c
422 560 476 533 518 481 _c
559 428 580 359 580 273 _c
580 187 559 117 518 65 _c
476 13 422 -13 356 -13 _c
316 -13 281 -5 252 10 _c
223 25 199 49 181 82 _c
487 273 _m
487 339 473 390 446 428 _c
418 466 381 485 334 485 _c
}_e{286 485 249 466 222 428 _c
194 390 181 339 181 273 _c
181 207 194 155 222 117 _c
249 79 286 61 334 61 _c
381 61 418 79 446 117 _c
473 155 487 207 487 273 _c
_cl}_e}_d
/q{{635 0 55 -207 544 560 _sc
148 273 _m
148 207 161 155 188 117 _c
215 79 253 61 301 61 _c
348 61 385 79 413 117 _c
440 155 454 207 454 273 _c
454 339 440 390 413 428 _c
385 466 348 485 301 485 _c
253 485 215 466 188 428 _c
161 390 148 339 148 273 _c
454 82 _m
435 49 411 25 382 10 _c
353 -5 319 -13 279 -13 _c
213 -13 159 13 117 65 _c
75 117 55 187 55 273 _c
}_e{55 359 75 428 117 481 _c
159 533 213 560 279 560 _c
319 560 353 552 382 536 _c
411 520 435 496 454 464 _c
454 547 _l
544 547 _l
544 -207 _l
454 -207 _l
454 82 _l
_cl}_e}_d
/r{411 0 91 0 411 560 _sc
411 463 _m
401 469 390 473 378 476 _c
366 478 353 480 339 480 _c
288 480 249 463 222 430 _c
194 397 181 350 181 288 _c
181 0 _l
91 0 _l
91 547 _l
181 547 _l
181 462 _l
199 495 224 520 254 536 _c
284 552 321 560 365 560 _c
371 560 378 559 386 559 _c
393 558 401 557 411 555 _c
411 463 _l
_cl}_d
/s{{521 0 54 -13 472 560 _sc
443 531 _m
443 446 _l
417 458 391 468 364 475 _c
336 481 308 485 279 485 _c
234 485 200 478 178 464 _c
156 450 145 430 145 403 _c
145 382 153 366 169 354 _c
185 342 217 330 265 320 _c
296 313 _l
360 299 405 279 432 255 _c
458 230 472 195 472 151 _c
472 100 452 60 412 31 _c
372 1 316 -13 246 -13 _c
216 -13 186 -10 154 -5 _c
}_e{122 0 89 8 54 20 _c
54 113 _l
87 95 120 82 152 74 _c
184 65 216 61 248 61 _c
290 61 323 68 346 82 _c
368 96 380 117 380 144 _c
380 168 371 187 355 200 _c
339 213 303 226 247 238 _c
216 245 _l
160 257 119 275 95 299 _c
70 323 58 356 58 399 _c
58 450 76 490 112 518 _c
148 546 200 560 268 560 _c
301 560 332 557 362 552 _c
391 547 418 540 443 531 _c
}_e{_cl}_e}_d
/t{392 0 27 0 368 702 _sc
183 702 _m
183 547 _l
368 547 _l
368 477 _l
183 477 _l
183 180 _l
183 135 189 106 201 94 _c
213 81 238 75 276 75 _c
368 75 _l
368 0 _l
276 0 _l
206 0 158 13 132 39 _c
106 65 93 112 93 180 _c
93 477 _l
27 477 _l
27 547 _l
93 547 _l
93 702 _l
183 702 _l
_cl}_d
/u{634 0 85 -13 543 560 _sc
85 216 _m
85 547 _l
175 547 _l
175 219 _l
175 167 185 129 205 103 _c
225 77 255 64 296 64 _c
344 64 383 79 411 110 _c
439 141 453 183 453 237 _c
453 547 _l
543 547 _l
543 0 _l
453 0 _l
453 84 _l
431 50 405 26 377 10 _c
348 -5 315 -13 277 -13 _c
214 -13 166 6 134 45 _c
101 83 85 140 85 216 _c
311 560 _m
311 560 _l
_cl}_d
/v{592 0 30 0 562 547 _sc
30 547 _m
125 547 _l
296 88 _l
467 547 _l
562 547 _l
357 0 _l
235 0 _l
30 547 _l
_cl}_d
/y{592 0 30 -207 562 547 _sc
322 -50 _m
296 -114 271 -157 247 -177 _c
223 -197 191 -207 151 -207 _c
79 -207 _l
79 -132 _l
132 -132 _l
156 -132 175 -126 189 -114 _c
203 -102 218 -75 235 -31 _c
251 9 _l
30 547 _l
125 547 _l
296 119 _l
467 547 _l
562 547 _l
322 -50 _l
_cl}_d
end readonly def

/BuildGlyph
 {exch begin
 CharStrings exch
 2 copy known not{pop /.notdef}if
 true 3 1 roll get exec
 end}_d

/BuildChar {
 1 index /Encoding get exch get
 1 index /BuildGlyph get exec
}_d

FontName currentdict end definefont pop
end
%%EndProlog
mpldict begin
-132.919 215.979 translate
877.837 360.042 0 0 clipbox
gsave
-0 0 m
877.8375 0 l
877.8375 360.04195 l
-0 360.04195 l
cl
1.000 setgray
fill
grestore
gsave
260.35875 37.54375 m
617.47875 37.54375 l
617.47875 303.65575 l
260.35875 303.65575 l
cl
1.000 setgray
fill
grestore
0.800 setlinewidth
1 setlinejoin
2 setlinecap
[] 0 setdash
0.690 setgray
gsave
357.1 266.1 260.4 37.54 clipbox
276.591477 37.54375 m
276.591477 303.65575 l
stroke
grestore
0 setlinecap
0.000 setgray
gsave
/o {
gsave
newpath
translate
0.8 setlinewidth
1 setlinejoin
0 setlinecap
0 0 m
0 -3.5 l

gsave
0.000 setgray
fill
grestore
stroke
grestore
} bind def
276.591 37.5438 o
grestore
/DejaVuSans findfont
10.000 scalefont
setfont
gsave
273.411790 22.950000 translate
0.000000 rotate
0.000000 0.000000 m /zero glyphshow
grestore
2 setlinecap
0.690 setgray
gsave
357.1 266.1 260.4 37.54 clipbox
331.664343 37.54375 m
331.664343 303.65575 l
stroke
grestore
0 setlinecap
0.000 setgray
gsave
/o {
gsave
newpath
translate
0.8 setlinewidth
1 setlinejoin
0 setlinecap
0 0 m
0 -3.5 l

gsave
0.000 setgray
fill
grestore
stroke
grestore
} bind def
331.664 37.5438 o
grestore
gsave
322.125281 22.950000 translate
0.000000 rotate
0.000000 0.000000 m /two glyphshow
6.362305 0.000000 m /zero glyphshow
12.724609 0.000000 m /zero glyphshow
grestore
2 setlinecap
0.690 setgray
gsave
357.1 266.1 260.4 37.54 clipbox
386.737209 37.54375 m
386.737209 303.65575 l
stroke
grestore
0 setlinecap
0.000 setgray
gsave
/o {
gsave
newpath
translate
0.8 setlinewidth
1 setlinejoin
0 setlinecap
0 0 m
0 -3.5 l

gsave
0.000 setgray
fill
grestore
stroke
grestore
} bind def
386.737 37.5438 o
grestore
gsave
377.198147 22.950000 translate
0.000000 rotate
0.000000 0.000000 m /four glyphshow
6.362305 0.000000 m /zero glyphshow
12.724609 0.000000 m /zero glyphshow
grestore
2 setlinecap
0.690 setgray
gsave
357.1 266.1 260.4 37.54 clipbox
441.810075 37.54375 m
441.810075 303.65575 l
stroke
grestore
0 setlinecap
0.000 setgray
gsave
/o {
gsave
newpath
translate
0.8 setlinewidth
1 setlinejoin
0 setlinecap
0 0 m
0 -3.5 l

gsave
0.000 setgray
fill
grestore
stroke
grestore
} bind def
441.81 37.5438 o
grestore
gsave
432.271013 22.950000 translate
0.000000 rotate
0.000000 0.000000 m /six glyphshow
6.362305 0.000000 m /zero glyphshow
12.724609 0.000000 m /zero glyphshow
grestore
2 setlinecap
0.690 setgray
gsave
357.1 266.1 260.4 37.54 clipbox
496.882942 37.54375 m
496.882942 303.65575 l
stroke
grestore
0 setlinecap
0.000 setgray
gsave
/o {
gsave
newpath
translate
0.8 setlinewidth
1 setlinejoin
0 setlinecap
0 0 m
0 -3.5 l

gsave
0.000 setgray
fill
grestore
stroke
grestore
} bind def
496.883 37.5438 o
grestore
gsave
487.343879 22.950000 translate
0.000000 rotate
0.000000 0.000000 m /eight glyphshow
6.362305 0.000000 m /zero glyphshow
12.724609 0.000000 m /zero glyphshow
grestore
2 setlinecap
0.690 setgray
gsave
357.1 266.1 260.4 37.54 clipbox
551.955808 37.54375 m
551.955808 303.65575 l
stroke
grestore
0 setlinecap
0.000 setgray
gsave
/o {
gsave
newpath
translate
0.8 setlinewidth
1 setlinejoin
0 setlinecap
0 0 m
0 -3.5 l

gsave
0.000 setgray
fill
grestore
stroke
grestore
} bind def
551.956 37.5438 o
grestore
gsave
539.237058 22.950000 translate
0.000000 rotate
0.000000 0.000000 m /one glyphshow
6.362305 0.000000 m /zero glyphshow
12.724609 0.000000 m /zero glyphshow
19.086914 0.000000 m /zero glyphshow
grestore
2 setlinecap
0.690 setgray
gsave
357.1 266.1 260.4 37.54 clipbox
607.028674 37.54375 m
607.028674 303.65575 l
stroke
grestore
0 setlinecap
0.000 setgray
gsave
/o {
gsave
newpath
translate
0.8 setlinewidth
1 setlinejoin
0 setlinecap
0 0 m
0 -3.5 l

gsave
0.000 setgray
fill
grestore
stroke
grestore
} bind def
607.029 37.5438 o
grestore
gsave
594.309924 22.950000 translate
0.000000 rotate
0.000000 0.000000 m /one glyphshow
6.362305 0.000000 m /two glyphshow
12.724609 0.000000 m /zero glyphshow
19.086914 0.000000 m /zero glyphshow
grestore
gsave
407.785938 9.278125 translate
0.000000 rotate
0.000000 0.000000 m /Q glyphshow
7.871094 0.000000 m /u glyphshow
14.208984 0.000000 m /e glyphshow
20.361328 0.000000 m /r glyphshow
24.472656 0.000000 m /y glyphshow
30.390625 0.000000 m /space glyphshow
33.569336 0.000000 m /I glyphshow
36.518555 0.000000 m /d glyphshow
42.866211 0.000000 m /space glyphshow
46.044922 0.000000 m /bracketleft glyphshow
49.946289 0.000000 m /numbersign glyphshow
58.325195 0.000000 m /bracketright glyphshow
grestore
2 setlinecap
0.690 setgray
gsave
357.1 266.1 260.4 37.54 clipbox
260.35875 49.366966 m
617.47875 49.366966 l
stroke
grestore
0 setlinecap
0.000 setgray
gsave
/o {
gsave
newpath
translate
0.8 setlinewidth
1 setlinejoin
0 setlinecap
0 0 m
-3.5 0 l

gsave
0.000 setgray
fill
grestore
stroke
grestore
} bind def
260.359 49.367 o
grestore
gsave
246.999375 45.570091 translate
0.000000 rotate
0.000000 0.000000 m /zero glyphshow
grestore
2 setlinecap
0.690 setgray
gsave
357.1 266.1 260.4 37.54 clipbox
260.35875 88.336039 m
617.47875 88.336039 l
stroke
grestore
0 setlinecap
0.000 setgray
gsave
/o {
gsave
newpath
translate
0.8 setlinewidth
1 setlinejoin
0 setlinecap
0 0 m
-3.5 0 l

gsave
0.000 setgray
fill
grestore
stroke
grestore
} bind def
260.359 88.336 o
grestore
gsave
227.921250 84.539164 translate
0.000000 rotate
0.000000 0.000000 m /one glyphshow
6.362305 0.000000 m /zero glyphshow
12.724609 0.000000 m /zero glyphshow
19.086914 0.000000 m /zero glyphshow
grestore
2 setlinecap
0.690 setgray
gsave
357.1 266.1 260.4 37.54 clipbox
260.35875 127.305111 m
617.47875 127.305111 l
stroke
grestore
0 setlinecap
0.000 setgray
gsave
/o {
gsave
newpath
translate
0.8 setlinewidth
1 setlinejoin
0 setlinecap
0 0 m
-3.5 0 l

gsave
0.000 setgray
fill
grestore
stroke
grestore
} bind def
260.359 127.305 o
grestore
gsave
227.921250 123.508236 translate
0.000000 rotate
0.000000 0.000000 m /two glyphshow
6.362305 0.000000 m /zero glyphshow
12.724609 0.000000 m /zero glyphshow
19.086914 0.000000 m /zero glyphshow
grestore
2 setlinecap
0.690 setgray
gsave
357.1 266.1 260.4 37.54 clipbox
260.35875 166.274183 m
617.47875 166.274183 l
stroke
grestore
0 setlinecap
0.000 setgray
gsave
/o {
gsave
newpath
translate
0.8 setlinewidth
1 setlinejoin
0 setlinecap
0 0 m
-3.5 0 l

gsave
0.000 setgray
fill
grestore
stroke
grestore
} bind def
260.359 166.274 o
grestore
gsave
227.921250 162.477308 translate
0.000000 rotate
0.000000 0.000000 m /three glyphshow
6.362305 0.000000 m /zero glyphshow
12.724609 0.000000 m /zero glyphshow
19.086914 0.000000 m /zero glyphshow
grestore
2 setlinecap
0.690 setgray
gsave
357.1 266.1 260.4 37.54 clipbox
260.35875 205.243255 m
617.47875 205.243255 l
stroke
grestore
0 setlinecap
0.000 setgray
gsave
/o {
gsave
newpath
translate
0.8 setlinewidth
1 setlinejoin
0 setlinecap
0 0 m
-3.5 0 l

gsave
0.000 setgray
fill
grestore
stroke
grestore
} bind def
260.359 205.243 o
grestore
gsave
227.921250 201.446380 translate
0.000000 rotate
0.000000 0.000000 m /four glyphshow
6.362305 0.000000 m /zero glyphshow
12.724609 0.000000 m /zero glyphshow
19.086914 0.000000 m /zero glyphshow
grestore
2 setlinecap
0.690 setgray
gsave
357.1 266.1 260.4 37.54 clipbox
260.35875 244.212327 m
617.47875 244.212327 l
stroke
grestore
0 setlinecap
0.000 setgray
gsave
/o {
gsave
newpath
translate
0.8 setlinewidth
1 setlinejoin
0 setlinecap
0 0 m
-3.5 0 l

gsave
0.000 setgray
fill
grestore
stroke
grestore
} bind def
260.359 244.212 o
grestore
gsave
227.921250 240.415452 translate
0.000000 rotate
0.000000 0.000000 m /five glyphshow
6.362305 0.000000 m /zero glyphshow
12.724609 0.000000 m /zero glyphshow
19.086914 0.000000 m /zero glyphshow
grestore
2 setlinecap
0.690 setgray
gsave
357.1 266.1 260.4 37.54 clipbox
260.35875 283.181399 m
617.47875 283.181399 l
stroke
grestore
0 setlinecap
0.000 setgray
gsave
/o {
gsave
newpath
translate
0.8 setlinewidth
1 setlinejoin
0 setlinecap
0 0 m
-3.5 0 l

gsave
0.000 setgray
fill
grestore
stroke
grestore
} bind def
260.359 283.181 o
grestore
gsave
227.921250 279.384524 translate
0.000000 rotate
0.000000 0.000000 m /six glyphshow
6.362305 0.000000 m /zero glyphshow
12.724609 0.000000 m /zero glyphshow
19.086914 0.000000 m /zero glyphshow
grestore
gsave
210.652500 127.716938 translate
90.000000 rotate
0.000000 0.000000 m /t glyphshow
3.920898 0.000000 m /i glyphshow
6.699219 0.000000 m /m glyphshow
16.440430 0.000000 m /e glyphshow
22.592773 0.000000 m /space glyphshow
25.771484 0.000000 m /t glyphshow
29.692383 0.000000 m /o glyphshow
35.810547 0.000000 m /space glyphshow
38.989258 0.000000 m /c glyphshow
44.487305 0.000000 m /o glyphshow
50.605469 0.000000 m /m glyphshow
60.346680 0.000000 m /p glyphshow
66.694336 0.000000 m /l glyphshow
69.472656 0.000000 m /e glyphshow
75.625000 0.000000 m /t glyphshow
79.545898 0.000000 m /e glyphshow
grestore
gsave
221.843125 144.881000 translate
90.000000 rotate
0.000000 0.000000 m /q glyphshow
6.347656 0.000000 m /u glyphshow
12.685547 0.000000 m /e glyphshow
18.837891 0.000000 m /r glyphshow
22.949219 0.000000 m /y glyphshow
28.867188 0.000000 m /space glyphshow
32.045898 0.000000 m /bracketleft glyphshow
35.947266 0.000000 m /u glyphshow
42.285156 0.000000 m /s glyphshow
47.495117 0.000000 m /bracketright glyphshow
grestore
1.000 setlinewidth
2 setlinecap
0.122 0.467 0.706 setrgbcolor
gsave
357.1 266.1 260.4 37.54 clipbox
276.591477 49.717688 m
276.866842 49.756657 l
277.142206 49.951503 l
277.968299 50.029441 l
279.345121 50.302224 l
279.620485 50.536039 l
280.171214 50.575008 l
281.272671 51.003668 l
281.548035 52.406554 l
282.098764 52.445523 l
284.577043 53.224905 l
286.504593 53.965317 l
287.330686 54.160162 l
288.156779 54.588822 l
288.982872 54.66676 l
289.533601 54.783668 l
289.808965 55.602018 l
290.910422 55.95274 l
291.461151 55.95274 l
292.01188 56.225523 l
292.287244 56.264492 l
292.562608 56.498307 l
293.664066 56.732121 l
294.214794 56.965936 l
294.490159 57.316657 l
295.591616 57.589441 l
295.86698 57.823255 l
296.693073 57.940162 l
296.968438 58.407791 l
299.722081 58.797482 l
300.27281 58.992327 l
301.098903 59.070265 l
301.649631 59.187173 l
302.751089 59.265111 l
303.026453 59.537894 l
303.301817 59.537894 l
303.577182 59.73274 l
304.12791 59.73274 l
304.954003 60.239338 l
305.229368 60.278307 l
305.780096 60.473152 l
306.055461 60.473152 l
306.606189 60.784905 l
307.432282 61.330472 l
313.765662 63.045111 l
314.591755 63.123049 l
316.79467 64.019338 l
317.620762 64.058307 l
318.171491 64.136245 l
318.997584 64.214183 l
319.272948 64.447997 l
320.099041 64.525936 l
321.200499 64.75975 l
322.301956 65.071503 l
322.57732 65.344286 l
323.954142 65.695008 l
324.229506 66.00676 l
325.881692 66.318513 l
326.432421 66.552327 l
326.98315 66.630265 l
327.809243 66.903049 l
328.359971 66.903049 l
329.461429 67.29274 l
329.736793 67.29274 l
330.83825 67.838307 l
332.765801 68.150059 l
333.316529 68.500781 l
333.591894 68.656657 l
334.142622 68.734595 l
335.519444 69.202224 l
337.722359 69.747791 l
337.997723 69.747791 l
338.548452 69.981606 l
339.09918 70.020575 l
339.649909 70.098513 l
340.751366 70.332327 l
341.026731 70.410265 l
342.403552 71.267585 l
342.678917 71.267585 l
343.229645 71.384492 l
343.50501 71.423461 l
344.055738 71.696245 l
344.606467 71.774183 l
345.983289 71.930059 l
346.534017 72.202843 l
347.635474 72.436657 l
351.765939 73.060162 l
352.867397 73.449853 l
353.69349 73.644698 l
354.244218 73.839544 l
354.794947 73.956451 l
355.345676 74.073358 l
355.896404 74.190265 l
356.447133 74.190265 l
356.722497 74.42408 l
357.54859 74.502018 l
359.200776 75.125523 l
359.476141 75.125523 l
359.751505 75.281399 l
360.852962 75.359338 l
361.95442 75.515214 l
362.229784 75.710059 l
365.258792 76.138719 l
365.80952 76.372534 l
367.186342 76.489441 l
367.737071 76.52841 l
368.563164 76.879131 l
370.21535 77.112946 l
370.766078 77.463668 l
371.316807 77.463668 l
371.867536 77.619544 l
372.418264 77.697482 l
372.693629 77.736451 l
372.968993 77.931296 l
373.795086 78.009235 l
374.345815 78.087173 l
374.896543 78.282018 l
375.722636 78.476863 l
375.998001 78.944492 l
376.548729 79.139338 l
377.099458 79.217276 l
377.374822 79.684905 l
377.650187 79.918719 l
378.200915 79.996657 l
379.577737 80.347379 l
380.40383 80.386348 l
380.954558 80.581193 l
381.780651 80.815008 l
382.882109 81.165729 l
383.157473 81.321606 l
383.432837 81.321606 l
383.708202 81.516451 l
384.809659 81.594389 l
385.360388 81.750265 l
385.911116 81.906142 l
386.186481 81.906142 l
386.461845 82.178925 l
386.737209 82.256863 l
387.012574 82.451709 l
388.114031 82.685523 l
388.389395 82.880369 l
388.940124 82.919338 l
390.041581 83.153152 l
390.59231 83.23109 l
390.867674 83.386966 l
391.143039 83.386966 l
391.969132 83.776657 l
393.345953 84.049441 l
393.621318 84.283255 l
393.896682 84.361193 l
394.172046 84.672946 l
394.722775 84.828822 l
398.577876 85.413358 l
402.157612 86.816245 l
402.708341 86.855214 l
402.983705 87.127997 l
404.911255 87.751503 l
405.18662 88.024286 l
405.737348 88.063255 l
406.288077 88.258101 l
406.563441 88.413977 l
407.11417 88.452946 l
407.940263 88.647791 l
409.317084 88.725729 l
410.418542 88.959544 l
413.172185 89.310265 l
413.447549 89.505111 l
413.998278 89.583049 l
414.273642 89.738925 l
414.549007 89.738925 l
415.099735 90.011709 l
415.650464 90.089647 l
416.201193 90.36243 l
416.751921 90.401399 l
417.027286 90.596245 l
419.780929 91.063874 l
424.186758 92.232946 l
425.838944 92.46676 l
426.389673 92.856451 l
426.940402 92.89542 l
427.215766 93.051296 l
428.317223 93.129235 l
429.418681 93.363049 l
430.244774 93.479956 l
430.795502 93.674802 l
431.346231 93.674802 l
432.447688 94.025523 l
433.549146 94.259338 l
434.099874 94.687997 l
434.925967 95.311503 l
435.75206 95.389441 l
436.027425 95.467379 l
436.302789 95.662224 l
437.954975 95.935008 l
438.505704 96.090884 l
439.056432 96.168822 l
439.607161 96.441606 l
440.983982 96.67542 l
441.810075 96.987173 l
442.08544 97.376863 l
443.737626 98.000369 l
444.01299 98.039338 l
444.288354 98.429028 l
445.389812 98.506966 l
445.94054 98.545936 l
446.491269 98.896657 l
448.418819 99.20841 l
448.694184 99.442224 l
448.969548 99.481193 l
449.244912 99.676039 l
449.520277 99.715008 l
449.795641 99.948822 l
450.34637 99.987791 l
450.897098 100.494389 l
451.998556 100.845111 l
452.27392 100.923049 l
452.824649 101.195832 l
453.100013 101.273771 l
453.926106 101.858307 l
454.476835 101.936245 l
454.752199 101.975214 l
455.027563 102.286966 l
456.955114 102.598719 l
457.505842 102.793564 l
458.331935 102.832534 l
458.6073 103.300162 l
460.53485 103.923668 l
461.636307 104.430265 l
462.4624 104.586142 l
462.737765 104.897894 l
464.114586 105.404492 l
464.665315 105.48243 l
465.216044 105.872121 l
465.491408 105.91109 l
465.766772 106.105936 l
466.042137 106.144905 l
467.143594 106.651503 l
467.418958 106.651503 l
467.969687 106.963255 l
469.897237 107.313977 l
471.824787 108.249235 l
472.100152 108.483049 l
472.375516 108.522018 l
472.926245 108.794802 l
473.201609 108.833771 l
473.476973 109.028616 l
473.752338 109.028616 l
474.303066 109.223461 l
475.129159 109.379338 l
475.679888 109.496245 l
475.955252 109.69109 l
476.781345 109.885936 l
477.332074 110.314595 l
477.607438 110.314595 l
477.882803 110.743255 l
478.98426 110.860162 l
479.534989 111.249853 l
480.085717 111.483668 l
481.462539 111.79542 l
481.737903 112.068204 l
482.288632 112.146142 l
482.839361 112.574802 l
483.665454 112.730678 l
483.940818 112.730678 l
484.491547 113.198307 l
486.419097 113.510059 l
486.969826 114.016657 l
487.520554 114.133564 l
488.071283 114.406348 l
488.622012 114.484286 l
488.897376 114.873977 l
489.448105 115.224698 l
490.274198 115.302637 l
490.549562 115.57542 l
490.824926 115.57542 l
491.100291 115.887173 l
491.926384 115.965111 l
492.477112 116.315832 l
492.752477 116.315832 l
493.027841 116.549647 l
493.57857 116.744492 l
494.129298 116.939338 l
495.230756 117.173152 l
498.259763 118.770884 l
498.810492 119.004698 l
499.085856 119.277482 l
501.564135 119.939956 l
502.114864 120.290678 l
502.390228 120.368616 l
502.940957 120.914183 l
504.042414 121.45975 l
504.317778 122.122224 l
504.593143 122.472946 l
505.143871 122.589853 l
505.6946 122.862637 l
505.969964 123.330265 l
506.245329 123.525111 l
506.796057 123.603049 l
507.346786 124.304492 l
507.62215 124.304492 l
507.897515 124.694183 l
508.172879 124.733152 l
508.723608 125.005936 l
508.998972 125.044905 l
509.549701 125.551503 l
510.100429 125.629441 l
510.651158 126.291915 l
511.201887 126.330884 l
511.752615 126.642637 l
512.02798 126.642637 l
512.303344 126.954389 l
513.129437 127.188204 l
513.680166 127.34408 l
513.95553 127.694802 l
514.781623 127.850678 l
515.056987 128.201399 l
515.607716 128.240369 l
516.433809 128.941812 l
516.709173 128.980781 l
517.259902 129.214595 l
517.535266 129.604286 l
517.810631 129.682224 l
518.085995 129.87707 l
518.361359 130.26676 l
519.187452 130.734389 l
519.738181 130.812327 l
520.013545 131.279956 l
521.665731 131.825523 l
522.21646 132.215214 l
523.868646 133.150472 l
524.14401 133.150472 l
524.419375 133.501193 l
524.694739 133.618101 l
524.970103 133.968822 l
525.245468 134.124698 l
525.520832 134.631296 l
525.796196 134.670265 l
526.071561 134.826142 l
526.897654 134.90408 l
527.999111 135.098925 l
529.651297 135.800369 l
530.47739 136.813564 l
531.303483 137.164286 l
531.578847 137.203255 l
531.854211 137.515008 l
532.680304 137.982637 l
532.955669 138.216451 l
533.231033 138.956863 l
533.506397 139.073771 l
534.057126 139.619338 l
534.33249 139.775214 l
534.883219 140.242843 l
535.433948 140.437688 l
536.260041 140.78841 l
537.636862 141.178101 l
538.187591 141.879544 l
538.462955 141.879544 l
538.73832 142.46408 l
539.289048 142.542018 l
539.839777 143.243461 l
540.66587 143.399338 l
540.941234 143.633152 l
541.216599 144.061812 l
542.042692 144.334595 l
542.318056 144.724286 l
542.868785 144.841193 l
544.520971 145.620575 l
545.071699 145.932327 l
545.347064 146.633771 l
545.622428 146.711709 l
545.897792 146.906554 l
546.448521 147.023461 l
547.274614 147.49109 l
547.825343 148.153564 l
548.376071 148.738101 l
549.202164 149.010884 l
549.752893 149.322637 l
551.405079 149.634389 l
551.680443 149.751296 l
551.955808 150.374802 l
552.781901 151.037276 l
554.158722 152.167379 l
554.984815 152.401193 l
555.26018 152.673977 l
555.535544 152.751915 l
555.810908 153.102637 l
556.086273 153.102637 l
556.361637 153.297482 l
556.637001 153.297482 l
557.738459 154.310678 l
558.013823 154.349647 l
558.289187 154.583461 l
558.564552 154.62243 l
559.11528 155.167997 l
560.492102 155.362843 l
560.767466 155.557688 l
561.04283 155.596657 l
561.318195 156.142224 l
561.593559 156.181193 l
562.144288 156.531915 l
562.419652 156.570884 l
562.695016 156.843668 l
563.245745 156.999544 l
563.521109 157.58408 l
563.796474 157.662018 l
564.347202 158.090678 l
564.622567 158.675214 l
564.897931 158.753152 l
565.44866 159.064905 l
565.724024 159.142843 l
566.274753 160.272946 l
566.550117 160.389853 l
567.37621 161.052327 l
567.651574 161.286142 l
568.477667 162.299338 l
569.028396 162.494183 l
569.30376 163.156657 l
569.854489 163.507379 l
570.129853 163.89707 l
570.405218 164.832327 l
570.680582 164.832327 l
570.955946 165.222018 l
571.231311 165.260987 l
571.506675 165.650678 l
572.057404 167.092534 l
572.608132 167.209441 l
572.883497 169.469647 l
573.434225 170.015214 l
573.984954 170.054183 l
575.086411 170.638719 l
575.361776 170.833564 l
575.63714 170.833564 l
575.912504 171.067379 l
576.187869 171.535008 l
576.463233 172.314389 l
577.56469 173.171709 l
578.115419 174.80841 l
578.390783 174.847379 l
578.666148 175.042224 l
579.216876 176.172327 l
580.042969 176.328204 l
580.869062 177.224492 l
581.695155 177.847997 l
581.97052 178.432534 l
582.521248 178.822224 l
582.796613 179.757482 l
583.071977 180.147173 l
583.347341 181.316245 l
583.622706 181.861812 l
584.173434 182.056657 l
584.724163 182.991915 l
585.274892 183.303668 l
585.82562 183.459544 l
586.376349 184.86243 l
586.651713 185.057276 l
586.927078 186.96676 l
587.477806 187.785111 l
588.028535 188.408616 l
588.303899 188.525523 l
588.854628 189.343874 l
589.680721 195.267173 l
589.956085 196.475214 l
590.23145 196.63109 l
590.506814 196.942843 l
590.782178 197.566348 l
591.332907 200.566966 l
591.608271 200.644905 l
592.985093 203.528616 l
593.260457 204.814595 l
593.535821 205.399131 l
593.811186 206.957894 l
594.361914 207.737276 l
594.912643 209.490884 l
595.188007 210.114389 l
595.463372 210.426142 l
596.289465 213.465729 l
596.564829 218.06408 l
596.840193 218.336863 l
597.115558 222.155832 l
597.666286 224.338101 l
598.217015 225.234389 l
598.492379 227.143874 l
598.767744 227.767379 l
599.043108 228.079131 l
599.318472 230.962843 l
599.593837 232.287791 l
599.869201 244.95274 l
600.695294 250.057688 l
600.970658 253.447997 l
601.246023 254.61707 l
601.246023 254.61707 l
stroke
grestore
0 setlinejoin
0 setlinecap
gsave
357.1 266.1 260.4 37.54 clipbox
/o {
gsave
newpath
translate
1.0 setlinewidth
0 setlinejoin
0 setlinecap
0 1 m
-1 -1 l
1 -1 l
cl

gsave
0.122 0.467 0.706 setrgbcolor
fill
grestore
stroke
grestore
} bind def
276.591 49.7177 o
309.084 61.7591 o
341.577 70.683 o
374.07 78.0482 o
406.563 88.414 o
439.056 96.1688 o
471.549 107.899 o
504.042 121.46 o
536.535 140.866 o
569.028 162.494 o
grestore
1 setlinejoin
2 setlinecap
1.000 0.498 0.055 setrgbcolor
gsave
357.1 266.1 260.4 37.54 clipbox
276.591477 49.678719 m
277.142206 49.912534 l
278.243663 50.146348 l
278.794392 50.185317 l
279.345121 50.458101 l
279.620485 50.691915 l
280.446578 50.808822 l
280.721942 51.003668 l
280.997307 51.003668 l
281.272671 51.237482 l
281.548035 52.913152 l
282.374128 53.030059 l
282.649493 53.224905 l
283.75095 53.41975 l
284.026314 53.84841 l
284.301679 53.84841 l
284.852407 54.004286 l
285.403136 54.043255 l
286.779957 54.471915 l
287.330686 54.978513 l
288.156779 55.173358 l
288.432143 55.446142 l
289.258236 55.563049 l
289.533601 55.874802 l
289.808965 55.95274 l
290.084329 56.303461 l
290.910422 56.654183 l
291.736515 56.965936 l
292.01188 56.965936 l
292.287244 57.121812 l
292.562608 57.433564 l
293.388701 57.62841 l
294.214794 58.251915 l
294.765523 58.290884 l
295.316252 58.641606 l
295.591616 58.797482 l
296.417709 58.87542 l
296.693073 58.914389 l
296.968438 59.265111 l
298.620624 59.888616 l
299.722081 60.083461 l
300.27281 60.239338 l
300.823538 60.317276 l
301.098903 60.473152 l
301.374267 60.473152 l
301.924996 60.667997 l
302.20036 60.706966 l
302.751089 60.940781 l
303.301817 61.057688 l
304.12791 61.525317 l
304.678639 61.603255 l
305.504732 61.798101 l
307.432282 62.577482 l
307.983011 62.65542 l
308.258375 62.733358 l
308.809104 63.006142 l
309.084468 63.08408 l
309.635197 63.51274 l
309.910561 63.51274 l
310.46129 63.824492 l
311.012019 63.90243 l
311.838112 63.980369 l
312.939569 64.370059 l
313.214933 64.370059 l
313.490298 64.525936 l
313.765662 64.525936 l
314.041026 64.720781 l
314.316391 64.75975 l
314.591755 65.110472 l
316.243941 65.578101 l
316.519305 65.772946 l
317.070034 65.850884 l
317.345398 66.162637 l
318.171491 66.474389 l
318.72222 66.552327 l
318.997584 66.591296 l
319.272948 66.86408 l
322.301956 67.29274 l
322.57732 67.565523 l
323.128049 67.643461 l
323.403413 67.838307 l
324.229506 68.033152 l
324.780235 68.227997 l
325.055599 68.383874 l
325.330964 68.383874 l
325.881692 68.617688 l
328.084607 69.163255 l
328.359971 69.163255 l
328.635336 69.358101 l
329.461429 69.552946 l
329.736793 69.747791 l
330.83825 69.903668 l
331.388979 70.371296 l
332.490436 70.722018 l
332.765801 70.799956 l
333.041165 71.189647 l
334.142622 71.423461 l
334.968715 71.735214 l
335.794808 72.124905 l
336.345537 72.241812 l
337.17163 72.280781 l
337.997723 72.553564 l
338.823816 72.631503 l
339.374545 72.787379 l
339.649909 73.021193 l
340.200638 73.138101 l
340.751366 73.17707 l
341.026731 73.255008 l
341.852824 73.839544 l
342.128188 73.878513 l
343.50501 74.540987 l
343.780374 74.540987 l
345.983289 75.398307 l
346.258653 75.398307 l
346.809382 75.593152 l
347.910839 75.826966 l
348.736932 75.865936 l
349.563025 75.943874 l
349.838389 75.982843 l
350.664482 76.333564 l
351.215211 76.450472 l
351.765939 76.801193 l
352.316668 76.840162 l
353.142761 77.151915 l
353.968854 77.229853 l
354.794947 77.541606 l
355.070311 77.736451 l
355.62104 77.77542 l
356.447133 77.931296 l
357.273226 78.009235 l
359.476141 78.359956 l
360.577598 78.710678 l
362.229784 78.983461 l
362.780513 79.256245 l
363.331241 79.256245 l
365.258792 79.957688 l
366.910978 80.347379 l
367.186342 80.347379 l
367.737071 80.542224 l
368.563164 80.815008 l
370.766078 81.204698 l
371.316807 81.282637 l
373.519722 81.633358 l
374.07045 81.789235 l
374.896543 81.906142 l
375.171908 82.100987 l
377.925551 82.568616 l
378.200915 82.724492 l
378.476279 83.036245 l
379.853101 83.542843 l
382.056016 83.893564 l
382.33138 84.283255 l
383.983566 85.179544 l
384.25893 85.218513 l
384.534295 85.413358 l
385.360388 85.569235 l
385.635752 85.725111 l
385.911116 85.725111 l
386.186481 86.075832 l
386.737209 86.075832 l
387.287938 86.19274 l
389.215488 86.777276 l
389.490853 87.089028 l
390.316946 87.127997 l
391.693767 87.790472 l
391.969132 88.29707 l
393.345953 88.530884 l
393.896682 88.725729 l
394.722775 88.920575 l
395.273504 89.037482 l
395.824232 89.037482 l
396.374961 89.193358 l
397.476418 89.271296 l
398.027147 89.388204 l
398.577876 89.466142 l
399.954697 89.933771 l
403.534434 91.843255 l
404.360527 91.921193 l
404.911255 92.038101 l
405.18662 92.038101 l
405.461984 92.193977 l
406.012713 92.271915 l
408.215627 92.583668 l
409.04172 93.090265 l
411.795363 93.518925 l
412.070728 94.025523 l
412.346092 94.103461 l
412.621456 94.454183 l
412.896821 94.493152 l
413.172185 94.804905 l
413.722914 94.921812 l
413.998278 95.194595 l
415.650464 95.623255 l
416.751921 95.701193 l
417.027286 95.779131 l
417.30265 96.012946 l
418.128743 96.090884 l
419.505565 96.363668 l
420.882386 96.831296 l
421.433115 96.870265 l
421.983844 96.948204 l
422.809937 97.10408 l
423.360665 97.376863 l
423.911394 97.493771 l
424.186758 97.727585 l
425.012851 97.883461 l
425.288216 98.312121 l
427.49113 98.662843 l
428.317223 98.974595 l
428.592588 99.520162 l
429.418681 99.63707 l
429.694045 99.831915 l
432.723053 100.338513 l
433.82451 100.572327 l
434.650603 100.611296 l
434.925967 100.767173 l
435.201332 100.767173 l
435.476696 100.923049 l
435.75206 101.351709 l
437.404246 101.585523 l
438.230339 102.247997 l
438.505704 102.286966 l
438.781068 102.481812 l
439.056432 102.520781 l
439.607161 102.715626 l
440.433254 102.910472 l
440.708618 103.066348 l
441.259347 103.572946 l
443.186897 103.884698 l
444.01299 104.157482 l
444.288354 104.703049 l
445.389812 104.780987 l
445.665176 104.780987 l
445.94054 104.975832 l
446.491269 105.014802 l
446.766633 105.209647 l
447.317362 105.287585 l
447.592726 105.716245 l
448.418819 105.989028 l
448.694184 106.027997 l
449.244912 106.261812 l
450.071005 106.300781 l
450.34637 106.76841 l
451.998556 107.041193 l
452.27392 107.469853 l
452.824649 107.58676 l
453.375377 107.625729 l
453.650742 107.781606 l
453.926106 107.781606 l
454.476835 107.976451 l
454.752199 108.054389 l
455.027563 108.288204 l
455.302928 108.327173 l
456.404385 109.028616 l
456.679749 109.457276 l
458.056571 110.11975 l
458.331935 110.11975 l
458.6073 110.275626 l
459.433393 110.353564 l
459.708757 110.587379 l
459.984121 110.626348 l
460.259486 110.860162 l
460.53485 110.899131 l
461.085579 111.288822 l
461.360943 111.717482 l
462.187036 112.22408 l
462.737765 112.340987 l
463.288493 112.418925 l
464.665315 112.925523 l
465.766772 113.159338 l
466.042137 113.237276 l
466.317501 113.47109 l
466.86823 113.549028 l
467.418958 113.977688 l
467.694323 114.211503 l
468.520416 114.289441 l
469.346509 114.75707 l
469.621873 114.75707 l
469.897237 115.497482 l
470.447966 115.57542 l
470.72333 116.237894 l
470.998694 116.237894 l
471.549423 116.43274 l
472.375516 116.510678 l
473.201609 116.900369 l
474.027702 117.056245 l
474.303066 117.406966 l
474.853795 117.484905 l
475.679888 117.601812 l
475.955252 117.757688 l
476.505981 118.225317 l
477.882803 118.731915 l
478.158167 118.770884 l
478.708896 119.082637 l
480.085717 119.433358 l
480.636446 120.056863 l
480.91181 120.095832 l
481.187175 120.329647 l
481.737903 120.368616 l
482.013268 120.641399 l
482.288632 120.641399 l
482.839361 121.03109 l
483.390089 121.45975 l
483.940818 121.810472 l
484.766911 122.005317 l
485.868368 122.356039 l
486.143733 122.589853 l
486.419097 122.628822 l
486.694461 123.642018 l
487.795919 123.836863 l
488.071283 124.031709 l
488.346647 124.070678 l
488.897376 124.343461 l
489.998833 124.538307 l
490.274198 124.81109 l
491.926384 125.200781 l
492.201748 125.200781 l
492.752477 125.590472 l
493.303205 125.707379 l
493.853934 125.941193 l
494.404663 126.525729 l
495.230756 126.993358 l
495.781484 127.032327 l
497.158306 127.383049 l
497.43367 127.383049 l
498.259763 127.811709 l
498.535128 128.279338 l
498.810492 128.357276 l
499.085856 128.863874 l
499.636585 129.214595 l
499.911949 129.838101 l
500.187313 130.149853 l
501.288771 130.305729 l
501.564135 130.773358 l
504.317778 131.94243 l
504.593143 132.37109 l
505.143871 132.643874 l
507.346786 133.65707 l
507.62215 133.890884 l
507.897515 134.358513 l
508.172879 134.358513 l
508.448243 134.670265 l
508.723608 134.748204 l
508.998972 135.059956 l
509.274336 135.059956 l
509.549701 135.683461 l
510.375794 135.839338 l
510.651158 136.229028 l
510.926522 137.086348 l
511.477251 137.320162 l
512.02798 137.476039 l
512.303344 137.748822 l
512.578708 137.787791 l
513.680166 138.723049 l
514.230894 138.878925 l
515.607716 139.736245 l
515.88308 140.125936 l
516.158445 140.203874 l
516.433809 140.437688 l
518.361359 140.749441 l
518.636724 141.100162 l
519.187452 141.256039 l
519.462817 141.528822 l
519.738181 141.567791 l
520.013545 141.957482 l
520.28891 141.957482 l
520.839638 142.152327 l
521.390367 142.230265 l
521.941096 143.009647 l
522.491824 143.126554 l
523.317917 144.022843 l
523.593282 144.178719 l
524.694739 144.256657 l
524.970103 144.763255 l
526.346925 144.958101 l
526.622289 145.425729 l
527.173018 146.750678 l
527.448382 146.750678 l
527.723747 147.296245 l
528.825204 147.49109 l
529.100568 148.036657 l
529.375933 148.036657 l
529.651297 148.309441 l
529.926661 148.309441 l
531.303483 149.361606 l
531.854211 149.439544 l
532.40494 150.102018 l
533.781762 150.647585 l
534.33249 150.725523 l
534.607855 151.037276 l
534.883219 151.037276 l
535.984676 151.582843 l
536.260041 152.167379 l
536.810769 152.55707 l
537.086134 153.336451 l
537.636862 153.765111 l
537.912227 154.115832 l
538.462955 154.310678 l
539.289048 154.388616 l
539.564413 154.583461 l
539.839777 154.62243 l
540.390506 155.206966 l
541.216599 155.596657 l
541.491963 156.064286 l
541.767327 156.298101 l
542.042692 156.33707 l
542.59342 156.609853 l
542.868785 156.999544 l
543.144149 157.194389 l
543.419513 157.58408 l
544.520971 158.324492 l
544.796335 158.40243 l
545.347064 158.792121 l
545.622428 159.68841 l
545.897792 159.961193 l
546.173157 159.961193 l
546.448521 161.130265 l
546.723885 161.130265 l
547.549978 161.519956 l
547.825343 161.558925 l
548.376071 162.18243 l
548.651436 162.260369 l
549.202164 162.650059 l
549.752893 162.727997 l
550.303622 163.156657 l
550.578986 163.156657 l
551.129715 163.351503 l
551.680443 163.624286 l
552.231172 164.091915 l
552.506536 164.28676 l
552.781901 164.637482 l
553.057265 164.754389 l
553.332629 165.105111 l
553.607994 165.105111 l
555.26018 166.196245 l
555.535544 166.196245 l
555.810908 166.507997 l
556.086273 166.546966 l
556.361637 166.741812 l
556.637001 166.780781 l
557.463094 167.170472 l
557.738459 167.67707 l
558.013823 167.910884 l
558.289187 167.949853 l
558.564552 168.183668 l
558.839916 168.690265 l
559.390645 168.807173 l
559.941373 169.74243 l
560.216738 170.17109 l
560.492102 170.249028 l
561.318195 171.223255 l
561.593559 171.223255 l
562.419652 171.768822 l
562.970381 171.84676 l
563.245745 171.885729 l
563.796474 172.665111 l
564.071838 172.782018 l
564.347202 173.13274 l
565.173295 173.366554 l
565.44866 173.990059 l
565.724024 174.067997 l
566.274753 174.457688 l
566.550117 175.003255 l
567.651574 175.120162 l
568.202303 175.782637 l
568.477667 176.016451 l
568.753032 176.05542 l
569.028396 176.756863 l
569.854489 177.107585 l
570.680582 178.549441 l
571.231311 178.861193 l
571.506675 179.367791 l
571.782039 180.653771 l
572.057404 181.355214 l
572.608132 181.744905 l
573.158861 182.602224 l
573.434225 184.47274 l
573.70959 185.252121 l
574.260318 185.407997 l
574.535683 185.875626 l
574.811047 186.031503 l
575.361776 187.473358 l
575.63714 188.408616 l
575.912504 188.564492 l
576.187869 189.187997 l
576.463233 190.162224 l
576.738597 190.318101 l
577.289326 190.863668 l
577.56469 191.17542 l
577.840055 191.292327 l
578.941512 195.578925 l
579.216876 195.929647 l
579.767605 196.163461 l
580.042969 196.670059 l
580.593698 197.020781 l
580.869062 198.384698 l
581.144427 198.462637 l
581.419791 198.73542 l
581.97052 198.774389 l
583.622706 200.800781 l
584.173434 202.866142 l
584.724163 203.684492 l
584.999527 205.204286 l
585.82562 205.516039 l
586.100985 205.983668 l
586.376349 206.217482 l
586.927078 207.269647 l
587.202442 207.737276 l
588.028535 208.243874 l
588.303899 208.360781 l
588.854628 209.997482 l
589.405357 211.088616 l
589.956085 211.517276 l
590.23145 214.595832 l
590.506814 215.024492 l
590.782178 215.141399 l
591.057543 215.725936 l
591.332907 215.998719 l
591.608271 217.284698 l
591.883635 217.323668 l
592.159 219.73975 l
592.434364 220.59707 l
592.709728 220.98676 l
592.985093 223.130059 l
593.535821 224.571915 l
594.361914 228.702637 l
594.637279 229.092327 l
594.912643 229.170265 l
595.463372 231.586348 l
595.738736 235.093564 l
596.0141 236.262637 l
596.289465 236.379544 l
596.840193 240.237482 l
597.115558 240.393358 l
597.666286 245.77109 l
597.941651 248.810678 l
598.217015 249.356245 l
598.492379 249.395214 l
598.767744 250.057688 l
599.043108 251.109853 l
599.318472 253.097276 l
599.593837 253.564905 l
599.869201 255.084698 l
600.144565 269.074595 l
600.41993 273.828822 l
600.970658 278.349235 l
601.246023 291.55975 l
601.246023 291.55975 l
stroke
grestore
0 setlinecap
gsave
357.1 266.1 260.4 37.54 clipbox
/o {
gsave
newpath
translate
1.0 setlinewidth
1 setlinejoin
0 setlinecap
-1 0 m
1 0 l
0 -1 m
0 1 l

gsave
1.000 0.498 0.055 setrgbcolor
fill
grestore
stroke
grestore
} bind def
276.867 49.8346 o
309.36 63.3179 o
341.853 73.8395 o
374.346 81.8282 o
406.839 92.3888 o
439.332 102.677 o
471.825 116.433 o
504.318 131.942 o
536.811 152.557 o
569.304 176.874 o
grestore
2 setlinecap
0.173 0.627 0.173 setrgbcolor
gsave
357.1 266.1 260.4 37.54 clipbox
276.591477 49.63975 m
276.866842 49.678719 l
277.142206 49.873564 l
277.968299 49.912534 l
278.519028 49.990472 l
279.345121 50.146348 l
279.620485 50.341193 l
280.171214 50.380162 l
280.997307 50.536039 l
281.272671 50.808822 l
281.548035 51.860987 l
281.8234 51.938925 l
282.098764 52.133771 l
282.924857 52.211709 l
283.200221 52.250678 l
283.475586 52.523461 l
284.577043 52.601399 l
284.852407 52.874183 l
285.127772 52.874183 l
285.6785 53.069028 l
286.229229 53.107997 l
287.881415 53.692534 l
288.156779 53.770472 l
288.432143 54.238101 l
288.707508 54.238101 l
289.258236 54.627791 l
289.533601 54.627791 l
290.084329 54.783668 l
290.635058 54.822637 l
290.910422 54.978513 l
291.736515 55.056451 l
292.01188 55.290265 l
292.287244 55.290265 l
293.93943 56.108616 l
295.591616 56.498307 l
295.86698 56.537276 l
296.142345 56.849028 l
296.693073 56.887997 l
297.243802 57.316657 l
300.27281 57.823255 l
301.098903 58.135008 l
301.924996 58.212946 l
302.475724 58.368822 l
303.301817 58.641606 l
303.577182 58.992327 l
304.12791 59.070265 l
304.954003 59.148204 l
305.229368 59.343049 l
307.432282 59.576863 l
307.707647 59.576863 l
307.983011 59.810678 l
308.53374 59.888616 l
309.084468 60.395214 l
309.910561 60.473152 l
310.46129 60.667997 l
311.012019 60.745936 l
311.838112 60.940781 l
312.664205 61.213564 l
313.765662 61.447379 l
314.591755 61.681193 l
315.142484 61.720162 l
315.968577 62.031915 l
316.519305 62.031915 l
316.79467 62.187791 l
317.345398 62.265729 l
318.171491 62.382637 l
318.446855 62.694389 l
318.997584 62.694389 l
319.272948 62.811296 l
319.548313 63.123049 l
321.200499 63.434802 l
321.475863 63.590678 l
321.751227 63.590678 l
322.301956 63.707585 l
323.128049 63.863461 l
323.678778 63.90243 l
323.954142 63.980369 l
324.229506 64.214183 l
325.881692 64.447997 l
326.157057 64.642843 l
328.359971 64.954595 l
328.9107 65.149441 l
329.461429 65.305317 l
329.736793 65.344286 l
330.562886 65.928822 l
330.83825 66.123668 l
331.664343 66.279544 l
331.939708 66.43542 l
333.867258 66.513358 l
335.794808 67.019956 l
336.070173 67.253771 l
336.896266 67.448616 l
337.446994 67.799338 l
337.722359 68.033152 l
338.273087 68.150059 l
338.548452 68.305936 l
338.823816 68.305936 l
339.09918 68.500781 l
341.302095 68.734595 l
342.128188 68.773564 l
342.678917 68.890472 l
343.229645 68.96841 l
343.780374 69.163255 l
344.331103 69.436039 l
344.606467 69.708822 l
345.43256 69.747791 l
345.983289 69.864698 l
346.534017 69.942637 l
347.36011 70.176451 l
347.635474 70.371296 l
347.910839 70.371296 l
348.186203 70.566142 l
349.012296 70.605111 l
349.838389 70.877894 l
350.113753 70.916863 l
350.664482 71.150678 l
352.316668 71.46243 l
352.867397 71.579338 l
355.62104 71.89109 l
355.896404 71.89109 l
356.171769 72.085936 l
356.722497 72.163874 l
357.273226 72.241812 l
357.54859 72.241812 l
358.099319 72.358719 l
358.925412 72.436657 l
360.026869 72.631503 l
361.403691 73.138101 l
361.95442 73.293977 l
362.780513 73.488822 l
363.331241 73.527791 l
363.606606 73.605729 l
363.88197 73.917482 l
364.157334 73.956451 l
364.432699 74.151296 l
364.983427 74.229235 l
365.258792 74.463049 l
365.534156 74.463049 l
366.084885 74.813771 l
366.360249 74.85274 l
366.910978 75.320369 l
368.838528 75.515214 l
369.113892 75.515214 l
370.490714 76.021812 l
372.418264 76.294595 l
372.968993 76.52841 l
375.171908 77.151915 l
375.447272 77.34676 l
375.998001 77.385729 l
377.374822 78.048204 l
377.925551 78.126142 l
378.200915 78.398925 l
378.751644 78.476863 l
380.128465 78.749647 l
382.056016 79.490059 l
382.33138 79.918719 l
383.983566 80.191503 l
384.809659 80.425317 l
385.360388 80.425317 l
385.635752 80.620162 l
385.911116 80.659131 l
386.461845 81.009853 l
388.389395 81.477482 l
389.215488 81.55542 l
389.766217 81.750265 l
391.143039 81.98408 l
391.418403 82.139956 l
391.693767 82.139956 l
391.969132 82.373771 l
392.51986 82.41274 l
393.345953 82.80243 l
393.621318 82.841399 l
393.896682 82.997276 l
394.447411 83.075214 l
394.998139 83.270059 l
395.548868 83.347997 l
396.374961 83.581812 l
399.679333 84.439131 l
399.954697 84.478101 l
400.230062 84.789853 l
402.157612 85.062637 l
402.708341 85.33542 l
403.534434 85.374389 l
404.085162 85.491296 l
404.635891 85.569235 l
404.911255 85.569235 l
405.737348 85.997894 l
406.012713 85.997894 l
406.563441 86.153771 l
409.04172 86.58243 l
409.317084 86.816245 l
409.592449 86.816245 l
410.143177 86.972121 l
410.693906 86.972121 l
411.244635 87.127997 l
411.795363 87.166966 l
412.346092 87.517688 l
413.722914 87.829441 l
414.273642 87.907379 l
415.099735 88.063255 l
415.650464 88.219131 l
416.201193 88.29707 l
416.751921 88.413977 l
417.027286 88.608822 l
418.128743 88.68676 l
418.679472 88.803668 l
419.2302 88.842637 l
419.505565 89.154389 l
420.331658 89.388204 l
420.882386 89.660987 l
421.157751 89.660987 l
422.534572 90.36243 l
423.911394 90.518307 l
424.186758 90.752121 l
426.389673 91.102843 l
426.665037 91.336657 l
426.940402 91.336657 l
427.215766 91.531503 l
427.49113 91.570472 l
427.766495 91.726348 l
428.317223 91.765317 l
429.143316 91.999131 l
429.694045 92.07707 l
430.520138 92.271915 l
431.070867 92.427791 l
431.621595 92.427791 l
431.89696 92.778513 l
432.723053 93.012327 l
432.998417 93.051296 l
433.549146 93.479956 l
434.925967 94.14243 l
435.476696 94.532121 l
436.027425 94.687997 l
437.404246 95.350472 l
438.505704 95.506348 l
438.781068 95.818101 l
439.882525 95.896039 l
441.259347 96.402637 l
441.534711 96.441606 l
441.810075 96.636451 l
442.636168 96.831296 l
442.911533 97.220987 l
444.01299 97.454802 l
444.563719 97.493771 l
445.665176 98.156245 l
445.94054 98.195214 l
446.491269 98.467997 l
446.766633 98.506966 l
447.041998 98.857688 l
447.592726 99.013564 l
448.143455 99.130472 l
448.418819 99.286348 l
448.969548 99.364286 l
450.621734 99.909853 l
450.897098 100.260575 l
451.723191 100.416451 l
452.549284 100.611296 l
453.926106 100.962018 l
455.027563 101.039956 l
455.853656 101.234802 l
456.679749 101.507585 l
458.331935 102.325936 l
458.882664 102.442843 l
459.708757 102.481812 l
459.984121 102.832534 l
462.4624 103.261193 l
462.737765 103.456039 l
463.013129 103.456039 l
463.839222 103.923668 l
464.389951 104.352327 l
464.665315 104.391296 l
464.940679 104.547173 l
465.216044 104.547173 l
465.766772 104.703049 l
466.592865 104.780987 l
466.86823 105.131709 l
467.143594 105.170678 l
467.694323 105.638307 l
469.346509 106.027997 l
469.621873 106.066966 l
470.172601 106.417688 l
470.72333 106.495626 l
471.274059 106.651503 l
471.549423 106.846348 l
472.100152 106.924286 l
473.201609 107.119131 l
473.476973 107.352946 l
473.752338 107.742637 l
474.578431 107.781606 l
475.404524 108.171296 l
475.955252 108.249235 l
477.332074 108.327173 l
478.158167 108.599956 l
478.433531 108.755832 l
478.98426 108.833771 l
479.534989 108.911709 l
479.810353 109.379338 l
480.361082 109.535214 l
480.636446 109.613152 l
480.91181 109.846966 l
481.187175 109.924905 l
481.737903 110.275626 l
482.839361 110.470472 l
483.114725 110.704286 l
483.940818 110.860162 l
484.216182 110.899131 l
484.491547 111.405729 l
485.042275 111.483668 l
485.31764 111.678513 l
485.868368 111.678513 l
486.419097 112.029235 l
486.694461 112.029235 l
487.520554 112.418925 l
487.795919 112.457894 l
488.622012 112.847585 l
488.897376 113.237276 l
489.448105 113.432121 l
489.998833 113.626966 l
490.549562 113.821812 l
491.375655 114.094595 l
492.752477 114.289441 l
494.129298 114.951915 l
496.056849 115.458513 l
496.332213 115.731296 l
496.607577 115.809235 l
496.882942 116.159956 l
498.259763 116.588616 l
499.911949 117.640781 l
500.738042 117.874595 l
501.013406 117.952534 l
501.288771 118.303255 l
501.564135 119.004698 l
503.491685 119.823049 l
503.76705 120.407585 l
504.593143 120.875214 l
505.419236 121.147997 l
506.245329 121.303874 l
507.346786 121.654595 l
507.62215 121.732534 l
507.897515 121.966348 l
508.172879 121.966348 l
508.448243 122.239131 l
508.998972 122.31707 l
510.926522 122.667791 l
512.02798 123.486142 l
512.303344 123.486142 l
512.578708 123.797894 l
513.129437 123.953771 l
514.506259 124.148616 l
515.056987 124.460369 l
515.607716 124.538307 l
516.158445 125.044905 l
516.709173 125.356657 l
517.259902 125.629441 l
517.810631 126.447791 l
518.085995 126.48676 l
518.361359 126.798513 l
518.636724 126.837482 l
518.912088 127.110265 l
519.462817 127.227173 l
519.738181 127.499956 l
520.28891 127.538925 l
521.115003 128.240369 l
521.390367 128.240369 l
521.941096 128.396245 l
523.042553 128.513152 l
524.694739 129.604286 l
525.520832 129.799131 l
525.796196 129.799131 l
526.071561 130.149853 l
526.897654 130.617482 l
527.173018 130.617482 l
527.448382 130.773358 l
527.999111 130.812327 l
528.274475 131.163049 l
528.825204 131.279956 l
529.926661 131.864492 l
530.202026 132.176245 l
530.752754 132.215214 l
531.028118 132.565936 l
531.854211 132.721812 l
532.40494 133.540162 l
532.955669 133.579131 l
533.506397 134.670265 l
534.057126 134.865111 l
534.33249 134.943049 l
534.883219 135.449647 l
535.984676 135.683461 l
536.535405 136.229028 l
536.810769 136.267997 l
537.361498 136.813564 l
537.912227 136.813564 l
538.462955 137.125317 l
539.013684 137.164286 l
539.289048 137.592946 l
540.390506 137.943668 l
540.66587 138.177482 l
540.941234 138.177482 l
541.491963 138.762018 l
542.318056 139.034802 l
542.59342 139.463461 l
543.144149 139.580369 l
543.694878 139.853152 l
545.622428 140.398719 l
545.897792 140.710472 l
546.173157 140.749441 l
546.723885 141.139131 l
546.99925 141.178101 l
547.274614 141.567791 l
547.549978 141.762637 l
547.825343 141.762637 l
548.100707 142.191296 l
548.9268 142.347173 l
549.477529 142.46408 l
550.028257 142.775832 l
551.129715 143.048616 l
551.405079 143.477276 l
551.955808 143.750059 l
552.506536 143.905936 l
553.607994 145.230884 l
553.883358 145.464698 l
554.158722 145.464698 l
554.984815 146.67274 l
555.535544 146.867585 l
555.810908 147.880781 l
556.086273 147.997688 l
556.361637 148.426348 l
556.637001 148.465317 l
556.912366 149.088822 l
557.18773 149.16676 l
557.463094 149.400575 l
558.013823 149.556451 l
558.564552 149.673358 l
558.839916 150.102018 l
559.11528 150.140987 l
559.390645 150.374802 l
559.941373 151.193152 l
560.492102 151.27109 l
560.767466 151.426966 l
561.593559 152.284286 l
561.868923 152.985729 l
562.144288 153.219544 l
562.419652 153.843049 l
562.970381 154.310678 l
563.521109 154.973152 l
564.071838 155.090059 l
564.347202 156.181193 l
564.622567 156.220162 l
564.897931 156.453977 l
565.173295 156.531915 l
565.44866 156.72676 l
565.999388 157.467173 l
566.825481 157.545111 l
567.100846 157.778925 l
567.37621 158.168616 l
567.651574 158.246554 l
567.926939 158.558307 l
568.202303 159.181812 l
569.028396 160.039131 l
569.30376 160.779544 l
570.405218 161.013358 l
570.680582 161.597894 l
570.955946 161.714802 l
571.506675 162.377276 l
571.782039 162.572121 l
572.057404 163.03975 l
572.883497 163.312534 l
573.158861 163.663255 l
573.984954 164.130884 l
574.811047 165.533771 l
575.361776 166.118307 l
575.63714 166.81975 l
575.912504 167.209441 l
576.187869 167.287379 l
576.463233 168.534389 l
576.738597 168.846142 l
577.013962 169.391709 l
577.56469 169.74243 l
577.840055 170.287997 l
578.390783 170.755626 l
578.666148 172.119544 l
578.941512 172.392327 l
579.216876 173.249647 l
579.492241 173.288616 l
580.042969 174.184905 l
580.318334 174.301812 l
580.869062 176.289235 l
581.419791 177.185523 l
581.695155 177.30243 l
581.97052 177.847997 l
582.245884 179.250884 l
582.521248 179.328822 l
582.796613 179.991296 l
583.071977 180.108204 l
583.622706 182.602224 l
583.89807 182.602224 l
584.173434 182.952946 l
584.448799 183.498513 l
584.724163 183.693358 l
585.274892 183.771296 l
585.82562 184.550678 l
586.376349 186.109441 l
586.651713 186.109441 l
586.927078 186.343255 l
587.202442 186.382224 l
587.477806 186.96676 l
587.753171 187.005729 l
588.028535 188.954183 l
588.579264 189.92841 l
589.129992 192.227585 l
589.405357 192.266554 l
589.680721 194.059131 l
589.956085 194.059131 l
590.506814 196.280369 l
590.782178 196.63109 l
591.332907 198.072946 l
591.883635 198.228822 l
592.434364 198.930265 l
592.709728 199.98243 l
593.260457 200.722843 l
593.535821 201.034595 l
593.811186 201.034595 l
594.361914 203.450678 l
595.463372 206.607173 l
595.738736 208.789441 l
596.0141 209.529853 l
596.289465 209.64676 l
596.564829 210.309235 l
596.840193 210.387173 l
597.115558 214.673771 l
597.390922 215.764905 l
597.666286 220.012534 l
597.941651 220.947791 l
598.217015 224.532946 l
598.492379 224.76676 l
598.767744 227.572534 l
599.043108 227.689441 l
599.593837 239.302224 l
600.970658 253.993564 l
601.246023 255.396451 l
601.246023 255.396451 l
stroke
grestore
0 setlinecap
gsave
357.1 266.1 260.4 37.54 clipbox
/o {
gsave
newpath
translate
1.0 setlinewidth
1 setlinejoin
0 setlinecap
-1 -1 m
1 1 l
-1 1 m
1 -1 l

gsave
0.173 0.627 0.173 setrgbcolor
fill
grestore
stroke
grestore
} bind def
277.142 49.8736 o
309.635 60.4342 o
342.128 68.7736 o
374.621 76.9181 o
407.114 86.1927 o
439.607 95.8571 o
472.1 106.924 o
504.593 120.875 o
537.086 136.541 o
569.579 160.819 o
grestore
2 setlinecap
0.839 0.153 0.157 setrgbcolor
gsave
357.1 266.1 260.4 37.54 clipbox
276.591477 52.094802 m
276.866842 52.289647 l
279.069756 52.640369 l
279.895849 52.913152 l
280.721942 52.952121 l
281.548035 53.185936 l
282.098764 53.965317 l
283.200221 54.471915 l
284.301679 54.549853 l
285.127772 54.744698 l
285.6785 54.900575 l
286.229229 54.978513 l
287.055322 55.134389 l
288.156779 55.368204 l
288.432143 55.563049 l
289.808965 55.835832 l
290.635058 56.069647 l
291.461151 56.147585 l
293.113337 56.381399 l
293.388701 56.77109 l
293.93943 56.965936 l
294.214794 56.965936 l
294.765523 57.121812 l
295.591616 57.19975 l
296.142345 57.316657 l
297.794531 57.589441 l
298.345259 57.823255 l
303.577182 58.641606 l
305.504732 59.109235 l
310.185926 59.771709 l
310.46129 59.927585 l
311.562747 60.005523 l
311.838112 60.200369 l
312.38884 60.278307 l
312.664205 60.473152 l
313.490298 60.512121 l
314.041026 60.629028 l
314.316391 60.667997 l
314.867119 60.862843 l
315.693212 61.018719 l
319.272948 61.603255 l
319.823677 61.720162 l
320.925134 61.798101 l
322.57732 61.953977 l
323.128049 62.031915 l
323.678778 62.22676 l
325.881692 62.538513 l
326.432421 62.772327 l
327.809243 62.889235 l
328.9107 62.967173 l
330.012157 63.200987 l
330.83825 63.434802 l
331.664343 63.473771 l
333.316529 63.90243 l
333.867258 63.941399 l
334.417987 64.058307 l
335.24408 64.097276 l
335.794808 64.292121 l
337.446994 64.603874 l
338.823816 65.071503 l
341.302095 65.500162 l
342.128188 65.733977 l
343.780374 65.967791 l
344.055738 66.123668 l
344.331103 66.123668 l
344.606467 66.318513 l
348.461567 66.786142 l
348.736932 67.136863 l
349.28766 67.331709 l
351.490575 67.721399 l
352.041304 67.838307 l
352.592032 67.916245 l
352.867397 68.072121 l
353.418125 68.11109 l
353.968854 68.227997 l
354.794947 68.266966 l
355.896404 68.500781 l
357.823955 68.695626 l
359.476141 68.773564 l
360.577598 68.851503 l
361.403691 68.929441 l
362.229784 69.163255 l
362.780513 69.241193 l
363.606606 69.475008 l
364.432699 69.630884 l
365.258792 69.669853 l
365.534156 69.981606 l
368.012435 70.760987 l
368.287799 70.955832 l
368.838528 71.033771 l
369.389257 71.150678 l
369.939985 71.189647 l
370.490714 71.345523 l
372.1429 71.657276 l
373.519722 72.202843 l
374.07045 72.241812 l
375.447272 72.553564 l
376.824094 72.670472 l
377.374822 72.74841 l
378.751644 72.865317 l
379.577737 72.943255 l
380.128465 73.216039 l
380.40383 73.216039 l
380.679194 73.449853 l
381.780651 73.683668 l
382.33138 73.722637 l
382.606744 73.878513 l
383.708202 73.956451 l
391.143039 74.969647 l
391.418403 75.164492 l
394.172046 75.632121 l
395.548868 75.943874 l
395.824232 75.943874 l
396.374961 76.216657 l
397.751783 76.411503 l
398.302511 76.606348 l
398.85324 76.684286 l
399.403969 76.918101 l
399.679333 76.95707 l
400.230062 77.229853 l
400.78079 77.307791 l
401.606883 77.658513 l
402.708341 77.814389 l
403.259069 78.087173 l
404.635891 78.320987 l
404.911255 78.593771 l
406.563441 78.905523 l
407.11417 79.100369 l
408.490991 79.139338 l
409.04172 79.256245 l
409.317084 79.256245 l
410.143177 79.490059 l
410.96927 79.645936 l
411.795363 79.684905 l
412.346092 79.801812 l
412.896821 79.996657 l
413.172185 80.230472 l
413.998278 80.230472 l
414.273642 80.425317 l
415.099735 80.464286 l
415.650464 80.503255 l
416.201193 80.698101 l
418.954836 81.12676 l
419.780929 81.477482 l
420.056293 81.477482 l
420.607022 81.594389 l
421.433115 81.672327 l
421.708479 81.867173 l
421.983844 81.867173 l
422.259208 82.139956 l
422.534572 82.178925 l
422.809937 82.373771 l
423.911394 82.568616 l
424.462123 82.763461 l
425.56358 83.114183 l
426.114309 83.23109 l
426.389673 83.23109 l
426.940402 83.386966 l
427.49113 83.464905 l
427.766495 83.503874 l
428.041859 83.893564 l
428.317223 83.932534 l
428.592588 84.322224 l
428.867952 84.361193 l
429.969409 84.945729 l
430.244774 84.984698 l
430.520138 85.218513 l
432.172324 85.608204 l
433.549146 85.842018 l
434.099874 86.036863 l
435.201332 86.270678 l
435.75206 86.387585 l
436.302789 86.465523 l
436.578153 86.699338 l
438.230339 87.089028 l
439.056432 87.205936 l
439.331796 87.43975 l
441.259347 87.907379 l
441.534711 88.258101 l
443.462261 88.998513 l
444.563719 89.232327 l
446.215905 89.855832 l
446.491269 89.855832 l
447.041998 90.284492 l
448.418819 90.557276 l
448.694184 90.635214 l
448.969548 90.907997 l
449.520277 91.024905 l
449.795641 91.375626 l
450.897098 91.726348 l
451.723191 91.960162 l
452.27392 92.232946 l
452.824649 92.310884 l
453.100013 92.388822 l
453.375377 92.583668 l
453.926106 92.661606 l
454.752199 92.817482 l
455.027563 92.817482 l
455.302928 93.051296 l
456.129021 93.207173 l
457.230478 93.440987 l
458.6073 94.103461 l
459.158028 94.337276 l
459.433393 94.532121 l
459.984121 94.610059 l
460.810214 94.882843 l
461.636307 95.077688 l
464.389951 95.818101 l
464.940679 96.363668 l
466.86823 96.870265 l
467.143594 96.870265 l
467.694323 97.337894 l
467.969687 97.376863 l
468.520416 97.571709 l
470.998694 97.883461 l
471.274059 98.117276 l
472.926245 98.662843 l
473.476973 98.935626 l
473.752338 98.935626 l
474.027702 99.286348 l
474.303066 99.403255 l
474.578431 99.753977 l
474.853795 99.792946 l
475.679888 100.221606 l
475.955252 100.221606 l
476.505981 100.45542 l
477.332074 100.572327 l
477.882803 101.117894 l
478.708896 101.273771 l
479.259624 101.624492 l
479.810353 101.70243 l
480.636446 101.780369 l
480.91181 101.936245 l
481.187175 101.936245 l
481.462539 102.209028 l
482.563996 102.325936 l
483.114725 102.598719 l
484.216182 102.637688 l
484.491547 102.754595 l
484.766911 103.105317 l
485.042275 103.261193 l
485.593004 103.261193 l
485.868368 103.533977 l
486.694461 103.611915 l
486.969826 104.001606 l
487.520554 104.196451 l
487.795919 104.352327 l
488.346647 104.352327 l
488.622012 104.547173 l
489.723469 104.742018 l
491.100291 105.209647 l
491.651019 105.404492 l
491.926384 105.716245 l
492.477112 105.755214 l
494.404663 106.33975 l
494.955391 106.612534 l
496.332213 107.080162 l
496.607577 107.625729 l
497.43367 107.898513 l
497.984399 108.132327 l
498.259763 108.171296 l
498.810492 108.716863 l
499.085856 109.028616 l
499.911949 109.184492 l
500.462678 109.26243 l
501.013406 109.379338 l
501.288771 109.652121 l
501.839499 109.846966 l
504.042414 111.055008 l
504.317778 111.093977 l
504.593143 111.288822 l
505.143871 112.107173 l
505.6946 112.302018 l
506.245329 112.730678 l
506.796057 112.925523 l
507.071422 112.925523 l
507.346786 113.237276 l
507.897515 113.315214 l
508.172879 113.665936 l
508.448243 113.704905 l
509.274336 114.250472 l
510.375794 114.406348 l
510.651158 115.224698 l
511.201887 115.536451 l
511.752615 115.536451 l
512.02798 115.731296 l
512.303344 115.770265 l
512.578708 116.082018 l
512.854073 116.120987 l
513.129437 116.43274 l
513.404801 116.510678 l
514.230894 117.017276 l
514.506259 117.017276 l
516.433809 118.303255 l
516.709173 118.342224 l
516.984538 118.576039 l
517.535266 118.653977 l
518.085995 118.692946 l
518.361359 118.965729 l
518.636724 119.433358 l
518.912088 119.550265 l
519.187452 119.862018 l
520.013545 120.329647 l
520.839638 120.719338 l
521.390367 120.875214 l
521.665731 121.225936 l
521.941096 121.225936 l
522.491824 121.576657 l
522.767189 121.927379 l
523.042553 121.966348 l
523.317917 122.550884 l
524.14401 122.979544 l
524.970103 123.018513 l
526.346925 123.603049 l
526.897654 124.031709 l
527.448382 124.070678 l
527.999111 124.304492 l
528.274475 124.577276 l
529.100568 124.733152 l
529.651297 124.850059 l
530.202026 125.005936 l
531.028118 125.200781 l
531.303483 125.590472 l
532.955669 126.213977 l
533.781762 126.369853 l
534.883219 126.91542 l
535.433948 127.032327 l
535.709312 127.34408 l
536.810769 127.538925 l
538.73832 128.279338 l
539.013684 128.669028 l
539.289048 128.746966 l
539.564413 129.01975 l
539.839777 129.097688 l
540.390506 129.487379 l
540.941234 129.87707 l
541.216599 129.916039 l
541.491963 130.149853 l
542.042692 130.149853 l
542.318056 130.617482 l
542.59342 130.69542 l
543.144149 131.513771 l
543.419513 131.55274 l
543.694878 132.215214 l
544.245606 132.487997 l
544.520971 132.487997 l
545.071699 132.682843 l
545.622428 132.760781 l
545.897792 132.955626 l
546.173157 133.306348 l
548.376071 134.319544 l
548.651436 134.670265 l
549.202164 134.826142 l
549.477529 135.020987 l
549.752893 135.020987 l
550.303622 135.527585 l
550.85435 135.605523 l
551.405079 135.72243 l
551.680443 135.72243 l
551.955808 136.073152 l
552.231172 136.073152 l
552.506536 136.306966 l
553.057265 137.43707 l
553.883358 138.762018 l
554.158722 138.878925 l
554.434087 139.229647 l
554.984815 139.50243 l
555.535544 140.164905 l
556.086273 140.320781 l
556.361637 141.21707 l
557.463094 141.411915 l
558.289187 141.762637 l
558.564552 141.879544 l
558.839916 142.152327 l
559.390645 142.152327 l
559.941373 142.46408 l
560.216738 143.516245 l
561.04283 143.672121 l
561.318195 144.412534 l
563.245745 145.152946 l
563.796474 145.269853 l
564.071838 145.698513 l
564.347202 145.698513 l
564.622567 146.049235 l
564.897931 146.166142 l
565.173295 146.711709 l
565.44866 146.750678 l
565.724024 147.257276 l
566.274753 147.607997 l
566.825481 148.036657 l
567.37621 148.114595 l
567.651574 148.153564 l
567.926939 148.34841 l
568.202303 148.699131 l
569.028396 149.127791 l
569.30376 149.439544 l
569.579125 149.478513 l
570.680582 150.179956 l
570.955946 150.647585 l
571.231311 152.011503 l
571.506675 152.284286 l
571.782039 153.297482 l
572.332768 154.037894 l
573.158861 154.349647 l
573.70959 155.635626 l
573.984954 155.752534 l
574.260318 156.33707 l
574.535683 156.570884 l
574.811047 157.350265 l
575.086411 157.506142 l
575.361776 158.363461 l
575.912504 158.597276 l
576.187869 158.909028 l
576.463233 158.947997 l
577.013962 159.337688 l
577.289326 159.493564 l
578.390783 160.818513 l
578.666148 161.948616 l
579.216876 161.987585 l
579.767605 162.260369 l
580.869062 164.013977 l
581.144427 164.247791 l
581.419791 164.247791 l
581.97052 164.71542 l
582.521248 166.274183 l
582.796613 166.507997 l
583.071977 167.949853 l
583.622706 168.651296 l
583.89807 169.430678 l
584.448799 169.586554 l
584.724163 170.054183 l
584.999527 171.067379 l
585.274892 172.820987 l
585.550256 173.13274 l
585.82562 173.678307 l
586.100985 173.756245 l
586.376349 173.95109 l
586.651713 173.990059 l
586.927078 174.925317 l
587.477806 175.276039 l
587.753171 175.62676 l
588.028535 175.743668 l
588.303899 176.367173 l
588.854628 179.289853 l
589.129992 179.445729 l
589.405357 179.874389 l
589.680721 180.030265 l
590.506814 181.51109 l
591.057543 181.589028 l
591.332907 182.017688 l
591.608271 183.459544 l
591.883635 183.537482 l
592.159 184.511709 l
592.434364 184.784492 l
592.709728 186.616039 l
592.985093 186.616039 l
593.535821 190.201193 l
594.08655 191.214389 l
594.361914 195.150265 l
594.912643 195.968616 l
595.188007 197.05975 l
595.463372 198.813358 l
595.738736 198.891296 l
596.0141 199.358925 l
596.289465 201.073564 l
596.564829 201.307379 l
596.840193 201.813977 l
597.115558 202.866142 l
597.666286 206.879956 l
597.941651 207.581399 l
598.217015 209.335008 l
598.492379 209.763668 l
598.767744 211.984905 l
599.593837 215.024492 l
599.869201 220.16841 l
600.144565 222.194802 l
600.41993 223.207997 l
600.695294 231.274595 l
600.970658 233.145111 l
601.246023 240.899956 l
601.246023 240.899956 l
stroke
grestore
0 setlinejoin
0 setlinecap
gsave
357.1 266.1 260.4 37.54 clipbox
/o {
gsave
newpath
translate
1.0 setlinewidth
0 setlinejoin
0 setlinecap
-0 -1.414214 m
0.848528 0 l
0 1.414214 l
-0.848528 0 l
cl

gsave
0.839 0.153 0.157 setrgbcolor
fill
grestore
stroke
grestore
} bind def
277.418 52.3286 o
309.911 59.7327 o
342.404 65.7729 o
374.897 72.4756 o
407.39 79.1004 o
439.883 87.5956 o
472.376 98.429 o
504.869 111.756 o
537.361 127.734 o
569.854 149.673 o
grestore
0.800 setlinewidth
2 setlinecap
[] 0 setdash
0.000 setgray
gsave
260.35875 37.54375 m
260.35875 303.65575 l
stroke
grestore
gsave
617.47875 37.54375 m
617.47875 303.65575 l
stroke
grestore
gsave
260.35875 37.54375 m
617.47875 37.54375 l
stroke
grestore
gsave
260.35875 303.65575 m
617.47875 303.65575 l
stroke
grestore
/DejaVuSans findfont
12.000 scalefont
setfont
gsave
308.684375 344.045075 translate
0.000000 rotate
0.000000 0.000000 m /P glyphshow
7.236328 0.000000 m /e glyphshow
14.619141 0.000000 m /r glyphshow
19.552734 0.000000 m /f glyphshow
23.777344 0.000000 m /o glyphshow
31.119141 0.000000 m /r glyphshow
36.052734 0.000000 m /m glyphshow
47.742188 0.000000 m /a glyphshow
55.095703 0.000000 m /n glyphshow
62.701172 0.000000 m /c glyphshow
69.298828 0.000000 m /e glyphshow
76.681641 0.000000 m /space glyphshow
80.496094 0.000000 m /o glyphshow
87.837891 0.000000 m /v glyphshow
94.939453 0.000000 m /e glyphshow
102.322266 0.000000 m /r glyphshow
107.255859 0.000000 m /space glyphshow
111.070312 0.000000 m /q glyphshow
118.687500 0.000000 m /u glyphshow
126.292969 0.000000 m /e glyphshow
133.675781 0.000000 m /r glyphshow
138.609375 0.000000 m /y glyphshow
145.710938 0.000000 m /space glyphshow
149.525391 0.000000 m /i glyphshow
152.859375 0.000000 m /d glyphshow
160.476562 0.000000 m /space glyphshow
164.291016 0.000000 m /parenleft glyphshow
168.972656 0.000000 m /t glyphshow
173.677734 0.000000 m /i glyphshow
177.011719 0.000000 m /m glyphshow
188.701172 0.000000 m /e glyphshow
196.083984 0.000000 m /s glyphshow
202.335938 0.000000 m /space glyphshow
206.150391 0.000000 m /S glyphshow
213.767578 0.000000 m /O glyphshow
223.212891 0.000000 m /R glyphshow
231.550781 0.000000 m /T glyphshow
238.880859 0.000000 m /E glyphshow
246.462891 0.000000 m /D glyphshow
255.703125 0.000000 m /parenright glyphshow
grestore
gsave
7.200000 330.595075 translate
0.000000 rotate
0.000000 0.000000 m /u glyphshow
7.605469 0.000000 m /s glyphshow
13.857422 0.000000 m /e glyphshow
21.240234 0.000000 m /underscore glyphshow
27.240234 0.000000 m /b glyphshow
34.857422 0.000000 m /o glyphshow
42.199219 0.000000 m /u glyphshow
49.804688 0.000000 m /n glyphshow
57.410156 0.000000 m /d glyphshow
65.027344 0.000000 m /equal glyphshow
75.082031 0.000000 m /F glyphshow
81.968750 0.000000 m /a glyphshow
89.322266 0.000000 m /l glyphshow
92.656250 0.000000 m /s glyphshow
98.908203 0.000000 m /e glyphshow
106.291016 0.000000 m /space glyphshow
110.105469 0.000000 m /u glyphshow
117.710938 0.000000 m /s glyphshow
123.962891 0.000000 m /e glyphshow
131.345703 0.000000 m /underscore glyphshow
137.345703 0.000000 m /a glyphshow
144.699219 0.000000 m /n glyphshow
152.304688 0.000000 m /y glyphshow
159.406250 0.000000 m /t glyphshow
164.111328 0.000000 m /i glyphshow
167.445312 0.000000 m /m glyphshow
179.134766 0.000000 m /e glyphshow
186.517578 0.000000 m /equal glyphshow
196.572266 0.000000 m /F glyphshow
203.458984 0.000000 m /a glyphshow
210.812500 0.000000 m /l glyphshow
214.146484 0.000000 m /s glyphshow
220.398438 0.000000 m /e glyphshow
227.781250 0.000000 m /space glyphshow
231.595703 0.000000 m /p glyphshow
239.212891 0.000000 m /e glyphshow
246.595703 0.000000 m /r glyphshow
251.529297 0.000000 m /t glyphshow
256.234375 0.000000 m /u glyphshow
263.839844 0.000000 m /r glyphshow
268.773438 0.000000 m /b glyphshow
276.390625 0.000000 m /a glyphshow
283.744141 0.000000 m /t glyphshow
288.449219 0.000000 m /i glyphshow
291.783203 0.000000 m /o glyphshow
299.125000 0.000000 m /n glyphshow
306.730469 0.000000 m /underscore glyphshow
312.730469 0.000000 m /m glyphshow
324.419922 0.000000 m /o glyphshow
331.761719 0.000000 m /d glyphshow
339.378906 0.000000 m /e glyphshow
346.761719 0.000000 m /equal glyphshow
356.816406 0.000000 m /M glyphshow
367.169922 0.000000 m /U glyphshow
375.953125 0.000000 m /L glyphshow
382.623047 0.000000 m /T glyphshow
389.953125 0.000000 m /I glyphshow
393.492188 0.000000 m /P glyphshow
400.728516 0.000000 m /L glyphshow
407.398438 0.000000 m /Y glyphshow
414.728516 0.000000 m /space glyphshow
418.542969 0.000000 m /p glyphshow
426.160156 0.000000 m /e glyphshow
433.542969 0.000000 m /r glyphshow
438.476562 0.000000 m /t glyphshow
443.181641 0.000000 m /u glyphshow
450.787109 0.000000 m /r glyphshow
455.720703 0.000000 m /b glyphshow
463.337891 0.000000 m /a glyphshow
470.691406 0.000000 m /t glyphshow
475.396484 0.000000 m /i glyphshow
478.730469 0.000000 m /o glyphshow
486.072266 0.000000 m /n glyphshow
493.677734 0.000000 m /underscore glyphshow
499.677734 0.000000 m /r glyphshow
504.611328 0.000000 m /a glyphshow
511.964844 0.000000 m /n glyphshow
519.570312 0.000000 m /g glyphshow
527.187500 0.000000 m /e glyphshow
534.570312 0.000000 m /equal glyphshow
544.625000 0.000000 m /bracketleft glyphshow
549.306641 0.000000 m /three glyphshow
556.941406 0.000000 m /comma glyphshow
560.755859 0.000000 m /three glyphshow
568.390625 0.000000 m /bracketright glyphshow
573.072266 0.000000 m /space glyphshow
576.886719 0.000000 m /a glyphshow
584.240234 0.000000 m /r glyphshow
589.173828 0.000000 m /e glyphshow
596.556641 0.000000 m /a glyphshow
603.910156 0.000000 m /underscore glyphshow
609.910156 0.000000 m /r glyphshow
614.843750 0.000000 m /a glyphshow
622.197266 0.000000 m /d glyphshow
629.814453 0.000000 m /i glyphshow
633.148438 0.000000 m /u glyphshow
640.753906 0.000000 m /s glyphshow
647.005859 0.000000 m /equal glyphshow
657.060547 0.000000 m /bracketleft glyphshow
661.742188 0.000000 m /one glyphshow
669.376953 0.000000 m /five glyphshow
677.011719 0.000000 m /comma glyphshow
680.826172 0.000000 m /one glyphshow
688.460938 0.000000 m /five glyphshow
696.095703 0.000000 m /bracketright glyphshow
700.777344 0.000000 m /space glyphshow
704.591797 0.000000 m /o glyphshow
711.933594 0.000000 m /p glyphshow
719.550781 0.000000 m /t glyphshow
724.255859 0.000000 m /i glyphshow
727.589844 0.000000 m /m glyphshow
739.279297 0.000000 m /a glyphshow
746.632812 0.000000 m /l glyphshow
749.966797 0.000000 m /underscore glyphshow
755.966797 0.000000 m /p glyphshow
763.583984 0.000000 m /a glyphshow
770.937500 0.000000 m /t glyphshow
775.642578 0.000000 m /h glyphshow
783.248047 0.000000 m /underscore glyphshow
789.248047 0.000000 m /r glyphshow
794.181641 0.000000 m /a glyphshow
801.535156 0.000000 m /t glyphshow
806.240234 0.000000 m /i glyphshow
809.574219 0.000000 m /o glyphshow
816.916016 0.000000 m /equal glyphshow
826.970703 0.000000 m /bracketleft glyphshow
831.652344 0.000000 m /zero glyphshow
839.287109 0.000000 m /comma glyphshow
843.101562 0.000000 m /nine glyphshow
850.736328 0.000000 m /five glyphshow
858.371094 0.000000 m /bracketright glyphshow
grestore
1.000 setlinewidth
1 setlinejoin
[] 0 setdash
0.122 0.467 0.706 setrgbcolor
gsave
264.35875 295.562 m
284.35875 295.562 l
stroke
grestore
0 setlinejoin
0 setlinecap
gsave
/o {
gsave
newpath
translate
1.0 setlinewidth
0 setlinejoin
0 setlinecap
0 1 m
-1 -1 l
1 -1 l
cl

gsave
0.122 0.467 0.706 setrgbcolor
fill
grestore
stroke
grestore
} bind def
274.359 295.562 o
grestore
0.000 setgray
/DejaVuSans findfont
10.000 scalefont
setfont
gsave
292.358750 292.062000 translate
0.000000 rotate
0.000000 0.000000 m /A glyphshow
6.840820 0.000000 m /asterisk glyphshow
11.840820 0.000000 m /space glyphshow
15.019531 0.000000 m /D glyphshow
22.719727 0.000000 m /H glyphshow
30.239258 0.000000 m /equal glyphshow
38.618164 0.000000 m /one glyphshow
44.980469 0.000000 m /two glyphshow
grestore
1 setlinejoin
2 setlinecap
1.000 0.498 0.055 setrgbcolor
gsave
264.35875 280.890125 m
284.35875 280.890125 l
stroke
grestore
0 setlinecap
gsave
/o {
gsave
newpath
translate
1.0 setlinewidth
1 setlinejoin
0 setlinecap
-1 0 m
1 0 l
0 -1 m
0 1 l

gsave
1.000 0.498 0.055 setrgbcolor
fill
grestore
stroke
grestore
} bind def
274.359 280.89 o
grestore
0.000 setgray
gsave
292.358750 277.390125 translate
0.000000 rotate
0.000000 0.000000 m /A glyphshow
6.840820 0.000000 m /asterisk glyphshow
11.840820 0.000000 m /space glyphshow
15.019531 0.000000 m /D glyphshow
22.719727 0.000000 m /H glyphshow
30.239258 0.000000 m /equal glyphshow
38.618164 0.000000 m /one glyphshow
44.980469 0.000000 m /eight glyphshow
grestore
2 setlinecap
0.173 0.627 0.173 setrgbcolor
gsave
363.7025 295.562 m
383.7025 295.562 l
stroke
grestore
0 setlinecap
gsave
/o {
gsave
newpath
translate
1.0 setlinewidth
1 setlinejoin
0 setlinecap
-1 -1 m
1 1 l
-1 1 m
1 -1 l

gsave
0.173 0.627 0.173 setrgbcolor
fill
grestore
stroke
grestore
} bind def
373.702 295.562 o
grestore
0.000 setgray
gsave
391.702500 292.062000 translate
0.000000 rotate
0.000000 0.000000 m /A glyphshow
6.840820 0.000000 m /asterisk glyphshow
11.840820 0.000000 m /space glyphshow
15.019531 0.000000 m /D glyphshow
22.719727 0.000000 m /H glyphshow
30.239258 0.000000 m /equal glyphshow
38.618164 0.000000 m /six glyphshow
grestore
2 setlinecap
0.839 0.153 0.157 setrgbcolor
gsave
456.686875 295.562 m
476.686875 295.562 l
stroke
grestore
0 setlinejoin
0 setlinecap
gsave
/o {
gsave
newpath
translate
1.0 setlinewidth
0 setlinejoin
0 setlinecap
-0 -1.414214 m
0.848528 0 l
0 1.414214 l
-0.848528 0 l
cl

gsave
0.839 0.153 0.157 setrgbcolor
fill
grestore
stroke
grestore
} bind def
466.687 295.562 o
grestore
0.000 setgray
gsave
484.686875 292.062000 translate
0.000000 rotate
0.000000 0.000000 m /A glyphshow
6.840820 0.000000 m /asterisk glyphshow
11.840820 0.000000 m /space glyphshow
15.019531 0.000000 m /c glyphshow
20.517578 0.000000 m /a glyphshow
26.645508 0.000000 m /c glyphshow
32.143555 0.000000 m /h glyphshow
38.481445 0.000000 m /e glyphshow
44.633789 0.000000 m /space glyphshow
47.812500 0.000000 m /E glyphshow
54.130859 0.000000 m /S glyphshow
grestore

end
showpage
