LABEL,X,Y
A* DH=12,0,9.0
A* DH=18,0,8.0
A* DH=6,0,7.0
A* cache ES,0,70.0
A* DH=12,1,10.0
A* DH=18,1,12.0
A* DH=6,1,8.0
A* cache ES,1,75.0
A* DH=12,2,15.0
A* DH=18,2,14.0
A* DH=6,2,13.0
A* cache ES,2,76.0
A* DH=12,3,15.0
A* DH=18,3,16.0
A* DH=6,3,14.0
A* cache ES,3,76.0
A* DH=12,4,16.0
A* DH=18,4,16.0
A* DH=6,4,14.0
A* cache ES,4,79.0
A* DH=12,5,17.0
A* DH=18,5,19.0
A* DH=6,5,14.0
A* cache ES,5,80.0
A* DH=12,6,18.0
A* DH=18,6,20.0
A* DH=6,6,14.0
A* cache ES,6,81.0
A* DH=12,7,18.0
A* DH=18,7,20.0
A* DH=6,7,16.0
A* cache ES,7,81.0
A* DH=12,8,19.0
A* DH=18,8,21.0
A* DH=6,8,17.0
A* cache ES,8,83.0
A* DH=12,9,22.0
A* DH=18,9,24.0
A* DH=6,9,18.0
A* cache ES,9,84.0
A* DH=12,10,24.0
A* DH=18,10,28.0
A* DH=6,10,20.0
A* cache ES,10,87.0
A* DH=12,11,30.0
A* DH=18,11,34.0
A* DH=6,11,25.0
A* cache ES,11,89.0
A* DH=12,12,30.0
A* DH=18,12,35.0
A* DH=6,12,25.0
A* cache ES,12,91.0
A* DH=12,13,31.0
A* DH=18,13,37.0
A* DH=6,13,26.0
A* cache ES,13,91.0
A* DH=12,14,34.0
A* DH=18,14,37.0
A* DH=6,14,28.0
A* cache ES,14,92.0
A* DH=12,15,34.0
A* DH=18,15,42.0
A* DH=6,15,29.0
A* cache ES,15,92.0
A* DH=12,16,37.0
A* DH=18,16,42.0
A* DH=6,16,30.0
A* cache ES,16,94.0
A* DH=12,17,42.0
A* DH=18,17,48.0
A* DH=6,17,37.0
A* cache ES,17,94.0
A* DH=12,18,78.0
A* DH=18,18,91.0
A* DH=6,18,64.0
A* cache ES,18,98.0
A* DH=12,19,78.0
A* DH=18,19,92.0
A* DH=6,19,66.0
A* cache ES,19,110.0
A* DH=12,20,79.0
A* DH=18,20,92.0
A* DH=6,20,71.0
A* cache ES,20,118.0
A* DH=12,21,81.0
A* DH=18,21,94.0
A* DH=6,21,71.0
A* cache ES,21,122.0
A* DH=12,22,82.0
A* DH=18,22,99.0
A* DH=6,22,72.0
A* cache ES,22,127.0
A* DH=12,23,83.0
A* DH=18,23,100.0
A* DH=6,23,73.0
A* cache ES,23,130.0
A* DH=12,24,87.0
A* DH=18,24,101.0
A* DH=6,24,74.0
A* cache ES,24,131.0
A* DH=12,25,89.0
A* DH=18,25,104.0
A* DH=6,25,81.0
A* cache ES,25,131.0
A* DH=12,26,92.0
A* DH=18,26,104.0
A* DH=6,26,82.0
A* cache ES,26,132.0
A* DH=12,27,92.0
A* DH=18,27,115.0
A* DH=6,27,82.0
A* cache ES,27,133.0
A* DH=12,28,96.0
A* DH=18,28,115.0
A* DH=6,28,83.0
A* cache ES,28,133.0
A* DH=12,29,99.0
A* DH=18,29,118.0
A* DH=6,29,83.0
A* cache ES,29,134.0
A* DH=12,30,102.0
A* DH=18,30,119.0
A* DH=6,30,90.0
A* cache ES,30,134.0
A* DH=12,31,103.0
A* DH=18,31,119.0
A* DH=6,31,90.0
A* cache ES,31,138.0
A* DH=12,32,105.0
A* DH=18,32,120.0
A* DH=6,32,94.0
A* cache ES,32,141.0
A* DH=12,33,109.0
A* DH=18,33,122.0
A* DH=6,33,95.0
A* cache ES,33,142.0
A* DH=12,34,114.0
A* DH=18,34,125.0
A* DH=6,34,95.0
A* cache ES,34,142.0
A* DH=12,35,114.0
A* DH=18,35,125.0
A* DH=6,35,96.0
A* cache ES,35,144.0
A* DH=12,36,118.0
A* DH=18,36,130.0
A* DH=6,36,99.0
A* cache ES,36,146.0
A* DH=12,37,119.0
A* DH=18,37,131.0
A* DH=6,37,105.0
A* cache ES,37,147.0
A* DH=12,38,121.0
A* DH=18,38,138.0
A* DH=6,38,108.0
A* cache ES,38,148.0
A* DH=12,39,123.0
A* DH=18,39,144.0
A* DH=6,39,108.0
A* cache ES,39,149.0
A* DH=12,40,127.0
A* DH=18,40,145.0
A* DH=6,40,110.0
A* cache ES,40,150.0
A* DH=12,41,129.0
A* DH=18,41,147.0
A* DH=6,41,111.0
A* cache ES,41,152.0
A* DH=12,42,134.0
A* DH=18,42,149.0
A* DH=6,42,113.0
A* cache ES,42,154.0
A* DH=12,43,134.0
A* DH=18,43,156.0
A* DH=6,43,125.0
A* cache ES,43,159.0
A* DH=12,44,136.0
A* DH=18,44,157.0
A* DH=6,44,125.0
A* cache ES,44,160.0
A* DH=12,45,136.0
A* DH=18,45,157.0
A* DH=6,45,132.0
A* cache ES,45,160.0
A* DH=12,46,139.0
A* DH=18,46,159.0
A* DH=6,46,135.0
A* cache ES,46,161.0
A* DH=12,47,139.0
A* DH=18,47,167.0
A* DH=6,47,135.0
A* cache ES,47,162.0
A* DH=12,48,160.0
A* DH=18,48,169.0
A* DH=6,48,138.0
A* cache ES,48,166.0
A* DH=12,49,163.0
A* DH=18,49,178.0
A* DH=6,49,139.0
A* cache ES,49,169.0
A* DH=12,50,165.0
A* DH=18,50,182.0
A* DH=6,50,139.0
A* cache ES,50,171.0
A* DH=12,51,169.0
A* DH=18,51,184.0
A* DH=6,51,140.0
A* cache ES,51,172.0
A* DH=12,52,169.0
A* DH=18,52,187.0
A* DH=6,52,144.0
A* cache ES,52,172.0
A* DH=12,53,169.0
A* DH=18,53,190.0
A* DH=6,53,144.0
A* cache ES,53,173.0
A* DH=12,54,169.0
A* DH=18,54,194.0
A* DH=6,54,146.0
A* cache ES,54,174.0
A* DH=12,55,174.0
A* DH=18,55,195.0
A* DH=6,55,146.0
A* cache ES,55,175.0
A* DH=12,56,176.0
A* DH=18,56,195.0
A* DH=6,56,152.0
A* cache ES,56,176.0
A* DH=12,57,177.0
A* DH=18,57,199.0
A* DH=6,57,152.0
A* cache ES,57,177.0
A* DH=12,58,183.0
A* DH=18,58,207.0
A* DH=6,58,156.0
A* cache ES,58,177.0
A* DH=12,59,184.0
A* DH=18,59,208.0
A* DH=6,59,157.0
A* cache ES,59,180.0
A* DH=12,60,187.0
A* DH=18,60,209.0
A* DH=6,60,161.0
A* cache ES,60,180.0
A* DH=12,61,188.0
A* DH=18,61,212.0
A* DH=6,61,168.0
A* cache ES,61,190.0
A* DH=12,62,189.0
A* DH=18,62,218.0
A* DH=6,62,172.0
A* cache ES,62,194.0
A* DH=12,63,191.0
A* DH=18,63,222.0
A* DH=6,63,173.0
A* cache ES,63,195.0
A* DH=12,64,195.0
A* DH=18,64,228.0
A* DH=6,64,175.0
A* cache ES,64,195.0
A* DH=12,65,204.0
A* DH=18,65,229.0
A* DH=6,65,176.0
A* cache ES,65,198.0
A* DH=12,66,206.0
A* DH=18,66,229.0
A* DH=6,66,178.0
A* cache ES,66,199.0
A* DH=12,67,207.0
A* DH=18,67,235.0
A* DH=6,67,179.0
A* cache ES,67,199.0
A* DH=12,68,210.0
A* DH=18,68,238.0
A* DH=6,68,183.0
A* cache ES,68,200.0
A* DH=12,69,211.0
A* DH=18,69,242.0
A* DH=6,69,183.0
A* cache ES,69,201.0
A* DH=12,70,217.0
A* DH=18,70,242.0
A* DH=6,70,184.0
A* cache ES,70,204.0
A* DH=12,71,218.0
A* DH=18,71,242.0
A* DH=6,71,192.0
A* cache ES,71,204.0
A* DH=12,72,218.0
A* DH=18,72,244.0
A* DH=6,72,193.0
A* cache ES,72,205.0
A* DH=12,73,220.0
A* DH=18,73,245.0
A* DH=6,73,193.0
A* cache ES,73,207.0
A* DH=12,74,232.0
A* DH=18,74,254.0
A* DH=6,74,200.0
A* cache ES,74,208.0
A* DH=12,75,233.0
A* DH=18,75,257.0
A* DH=6,75,204.0
A* cache ES,75,208.0
A* DH=12,76,234.0
A* DH=18,76,260.0
A* DH=6,76,205.0
A* cache ES,76,209.0
A* DH=12,77,235.0
A* DH=18,77,261.0
A* DH=6,77,206.0
A* cache ES,77,211.0
A* DH=12,78,235.0
A* DH=18,78,264.0
A* DH=6,78,206.0
A* cache ES,78,215.0
A* DH=12,79,236.0
A* DH=18,79,267.0
A* DH=6,79,207.0
A* cache ES,79,217.0
A* DH=12,80,237.0
A* DH=18,80,270.0
A* DH=6,80,209.0
A* cache ES,80,218.0
A* DH=12,81,240.0
A* DH=18,81,271.0
A* DH=6,81,209.0
A* cache ES,81,220.0
A* DH=12,82,240.0
A* DH=18,82,274.0
A* DH=6,82,210.0
A* cache ES,82,222.0
A* DH=12,83,240.0
A* DH=18,83,275.0
A* DH=6,83,211.0
A* cache ES,83,222.0
A* DH=12,84,242.0
A* DH=18,84,275.0
A* DH=6,84,211.0
A* cache ES,84,222.0
A* DH=12,85,246.0
A* DH=18,85,278.0
A* DH=6,85,216.0
A* cache ES,85,223.0
A* DH=12,86,247.0
A* DH=18,86,279.0
A* DH=6,86,217.0
A* cache ES,86,225.0
A* DH=12,87,247.0
A* DH=18,87,279.0
A* DH=6,87,220.0
A* cache ES,87,227.0
A* DH=12,88,248.0
A* DH=18,88,281.0
A* DH=6,88,220.0
A* cache ES,88,227.0
A* DH=12,89,249.0
A* DH=18,89,285.0
A* DH=6,89,225.0
A* cache ES,89,228.0
A* DH=12,90,251.0
A* DH=18,90,285.0
A* DH=6,90,225.0
A* cache ES,90,228.0
A* DH=12,91,252.0
A* DH=18,91,289.0
A* DH=6,91,226.0
A* cache ES,91,228.0
A* DH=12,92,252.0
A* DH=18,92,290.0
A* DH=6,92,227.0
A* cache ES,92,230.0
A* DH=12,93,253.0
A* DH=18,93,291.0
A* DH=6,93,228.0
A* cache ES,93,231.0
A* DH=12,94,254.0
A* DH=18,94,295.0
A* DH=6,94,231.0
A* cache ES,94,232.0
A* DH=12,95,254.0
A* DH=18,95,297.0
A* DH=6,95,234.0
A* cache ES,95,232.0
A* DH=12,96,261.0
A* DH=18,96,298.0
A* DH=6,96,234.0
A* cache ES,96,234.0
A* DH=12,97,261.0
A* DH=18,97,300.0
A* DH=6,97,238.0
A* cache ES,97,235.0
A* DH=12,98,266.0
A* DH=18,98,305.0
A* DH=6,98,247.0
A* cache ES,98,238.0
A* DH=12,99,266.0
A* DH=18,99,310.0
A* DH=6,99,247.0
A* cache ES,99,240.0
A* DH=12,100,266.0
A* DH=18,100,312.0
A* DH=6,100,249.0
A* cache ES,100,243.0
A* DH=12,101,271.0
A* DH=18,101,312.0
A* DH=6,101,250.0
A* cache ES,101,245.0
A* DH=12,102,275.0
A* DH=18,102,314.0
A* DH=6,102,251.0
A* cache ES,102,245.0
A* DH=12,103,279.0
A* DH=18,103,315.0
A* DH=6,103,251.0
A* cache ES,103,246.0
A* DH=12,104,280.0
A* DH=18,104,316.0
A* DH=6,104,256.0
A* cache ES,104,249.0
A* DH=12,105,284.0
A* DH=18,105,319.0
A* DH=6,105,257.0
A* cache ES,105,250.0
A* DH=12,106,285.0
A* DH=18,106,322.0
A* DH=6,106,257.0
A* cache ES,106,251.0
A* DH=12,107,285.0
A* DH=18,107,322.0
A* DH=6,107,258.0
A* cache ES,107,253.0
A* DH=12,108,288.0
A* DH=18,108,328.0
A* DH=6,108,258.0
A* cache ES,108,254.0
A* DH=12,109,293.0
A* DH=18,109,331.0
A* DH=6,109,259.0
A* cache ES,109,254.0
A* DH=12,110,298.0
A* DH=18,110,333.0
A* DH=6,110,260.0
A* cache ES,110,254.0
A* DH=12,111,306.0
A* DH=18,111,338.0
A* DH=6,111,262.0
A* cache ES,111,256.0
A* DH=12,112,307.0
A* DH=18,112,339.0
A* DH=6,112,262.0
A* cache ES,112,257.0
A* DH=12,113,309.0
A* DH=18,113,339.0
A* DH=6,113,262.0
A* cache ES,113,259.0
A* DH=12,114,311.0
A* DH=18,114,341.0
A* DH=6,114,268.0
A* cache ES,114,260.0
A* DH=12,115,312.0
A* DH=18,115,343.0
A* DH=6,115,270.0
A* cache ES,115,262.0
A* DH=12,116,315.0
A* DH=18,116,348.0
A* DH=6,116,270.0
A* cache ES,116,263.0
A* DH=12,117,318.0
A* DH=18,117,350.0
A* DH=6,117,278.0
A* cache ES,117,264.0
A* DH=12,118,318.0
A* DH=18,118,352.0
A* DH=6,118,283.0
A* cache ES,118,265.0
A* DH=12,119,322.0
A* DH=18,119,358.0
A* DH=6,119,283.0
A* cache ES,119,265.0
A* DH=12,120,324.0
A* DH=18,120,363.0
A* DH=6,120,284.0
A* cache ES,120,266.0
A* DH=12,121,326.0
A* DH=18,121,363.0
A* DH=6,121,285.0
A* cache ES,121,266.0
A* DH=12,122,328.0
A* DH=18,122,368.0
A* DH=6,122,288.0
A* cache ES,122,267.0
A* DH=12,123,331.0
A* DH=18,123,371.0
A* DH=6,123,290.0
A* cache ES,123,271.0
A* DH=12,124,331.0
A* DH=18,124,373.0
A* DH=6,124,290.0
A* cache ES,124,271.0
A* DH=12,125,334.0
A* DH=18,125,373.0
A* DH=6,125,292.0
A* cache ES,125,272.0
A* DH=12,126,335.0
A* DH=18,126,373.0
A* DH=6,126,293.0
A* cache ES,126,272.0
A* DH=12,127,338.0
A* DH=18,127,375.0
A* DH=6,127,296.0
A* cache ES,127,273.0
A* DH=12,128,338.0
A* DH=18,128,375.0
A* DH=6,128,297.0
A* cache ES,128,278.0
A* DH=12,129,339.0
A* DH=18,129,378.0
A* DH=6,129,300.0
A* cache ES,129,279.0
A* DH=12,130,343.0
A* DH=18,130,380.0
A* DH=6,130,302.0
A* cache ES,130,280.0
A* DH=12,131,343.0
A* DH=18,131,382.0
A* DH=6,131,304.0
A* cache ES,131,285.0
A* DH=12,132,346.0
A* DH=18,132,385.0
A* DH=6,132,305.0
A* cache ES,132,285.0
A* DH=12,133,348.0
A* DH=18,133,385.0
A* DH=6,133,307.0
A* cache ES,133,285.0
A* DH=12,134,350.0
A* DH=18,134,389.0
A* DH=6,134,309.0
A* cache ES,134,286.0
A* DH=12,135,351.0
A* DH=18,135,389.0
A* DH=6,135,310.0
A* cache ES,135,289.0
A* DH=12,136,351.0
A* DH=18,136,394.0
A* DH=6,136,313.0
A* cache ES,136,289.0
A* DH=12,137,352.0
A* DH=18,137,395.0
A* DH=6,137,316.0
A* cache ES,137,290.0
A* DH=12,138,353.0
A* DH=18,138,404.0
A* DH=6,138,316.0
A* cache ES,138,294.0
A* DH=12,139,356.0
A* DH=18,139,406.0
A* DH=6,139,316.0
A* cache ES,139,295.0
A* DH=12,140,357.0
A* DH=18,140,409.0
A* DH=6,140,317.0
A* cache ES,140,297.0
A* DH=12,141,361.0
A* DH=18,141,412.0
A* DH=6,141,320.0
A* cache ES,141,298.0
A* DH=12,142,365.0
A* DH=18,142,413.0
A* DH=6,142,323.0
A* cache ES,142,299.0
A* DH=12,143,370.0
A* DH=18,143,414.0
A* DH=6,143,325.0
A* cache ES,143,300.0
A* DH=12,144,370.0
A* DH=18,144,416.0
A* DH=6,144,325.0
A* cache ES,144,302.0
A* DH=12,145,375.0
A* DH=18,145,421.0
A* DH=6,145,325.0
A* cache ES,145,302.0
A* DH=12,146,376.0
A* DH=18,146,422.0
A* DH=6,146,329.0
A* cache ES,146,303.0
A* DH=12,147,376.0
A* DH=18,147,423.0
A* DH=6,147,329.0
A* cache ES,147,304.0
A* DH=12,148,377.0
A* DH=18,148,431.0
A* DH=6,148,331.0
A* cache ES,148,304.0
A* DH=12,149,377.0
A* DH=18,149,434.0
A* DH=6,149,332.0
A* cache ES,149,304.0
A* DH=12,150,379.0
A* DH=18,150,439.0
A* DH=6,150,333.0
A* cache ES,150,306.0
A* DH=12,151,379.0
A* DH=18,151,439.0
A* DH=6,151,334.0
A* cache ES,151,309.0
A* DH=12,152,379.0
A* DH=18,152,439.0
A* DH=6,152,342.0
A* cache ES,152,309.0
A* DH=12,153,380.0
A* DH=18,153,441.0
A* DH=6,153,342.0
A* cache ES,153,309.0
A* DH=12,154,381.0
A* DH=18,154,442.0
A* DH=6,154,342.0
A* cache ES,154,309.0
A* DH=12,155,387.0
A* DH=18,155,449.0
A* DH=6,155,345.0
A* cache ES,155,314.0
A* DH=12,156,387.0
A* DH=18,156,450.0
A* DH=6,156,353.0
A* cache ES,156,316.0
A* DH=12,157,388.0
A* DH=18,157,453.0
A* DH=6,157,354.0
A* cache ES,157,317.0
A* DH=12,158,389.0
A* DH=18,158,454.0
A* DH=6,158,356.0
A* cache ES,158,317.0
A* DH=12,159,390.0
A* DH=18,159,454.0
A* DH=6,159,356.0
A* cache ES,159,317.0
A* DH=12,160,393.0
A* DH=18,160,455.0
A* DH=6,160,359.0
A* cache ES,160,318.0
A* DH=12,161,393.0
A* DH=18,161,455.0
A* DH=6,161,359.0
A* cache ES,161,319.0
A* DH=12,162,395.0
A* DH=18,162,458.0
A* DH=6,162,361.0
A* cache ES,162,320.0
A* DH=12,163,397.0
A* DH=18,163,458.0
A* DH=6,163,365.0
A* cache ES,163,320.0
A* DH=12,164,399.0
A* DH=18,164,458.0
A* DH=6,164,365.0
A* cache ES,164,321.0
A* DH=12,165,401.0
A* DH=18,165,459.0
A* DH=6,165,368.0
A* cache ES,165,322.0
A* DH=12,166,403.0
A* DH=18,166,460.0
A* DH=6,166,368.0
A* cache ES,166,323.0
A* DH=12,167,410.0
A* DH=18,167,467.0
A* DH=6,167,370.0
A* cache ES,167,323.0
A* DH=12,168,412.0
A* DH=18,168,468.0
A* DH=6,168,371.0
A* cache ES,168,323.0
A* DH=12,169,413.0
A* DH=18,169,469.0
A* DH=6,169,372.0
A* cache ES,169,325.0
A* DH=12,170,414.0
A* DH=18,170,474.0
A* DH=6,170,372.0
A* cache ES,170,329.0
A* DH=12,171,418.0
A* DH=18,171,475.0
A* DH=6,171,373.0
A* cache ES,171,330.0
A* DH=12,172,419.0
A* DH=18,172,476.0
A* DH=6,172,375.0
A* cache ES,172,331.0
A* DH=12,173,427.0
A* DH=18,173,479.0
A* DH=6,173,381.0
A* cache ES,173,331.0
A* DH=12,174,428.0
A* DH=18,174,481.0
A* DH=6,174,382.0
A* cache ES,174,331.0
A* DH=12,175,429.0
A* DH=18,175,484.0
A* DH=6,175,382.0
A* cache ES,175,333.0
A* DH=12,176,429.0
A* DH=18,176,488.0
A* DH=6,176,383.0
A* cache ES,176,334.0
A* DH=12,177,430.0
A* DH=18,177,488.0
A* DH=6,177,384.0
A* cache ES,177,335.0
A* DH=12,178,432.0
A* DH=18,178,492.0
A* DH=6,178,385.0
A* cache ES,178,338.0
A* DH=12,179,435.0
A* DH=18,179,494.0
A* DH=6,179,387.0
A* cache ES,179,338.0
A* DH=12,180,439.0
A* DH=18,180,496.0
A* DH=6,180,392.0
A* cache ES,180,342.0
A* DH=12,181,441.0
A* DH=18,181,499.0
A* DH=6,181,393.0
A* cache ES,181,344.0
A* DH=12,182,441.0
A* DH=18,182,500.0
A* DH=6,182,395.0
A* cache ES,182,345.0
A* DH=12,183,443.0
A* DH=18,183,502.0
A* DH=6,183,395.0
A* cache ES,183,345.0
A* DH=12,184,446.0
A* DH=18,184,504.0
A* DH=6,184,397.0
A* cache ES,184,346.0
A* DH=12,185,447.0
A* DH=18,185,505.0
A* DH=6,185,399.0
A* cache ES,185,346.0
A* DH=12,186,450.0
A* DH=18,186,506.0
A* DH=6,186,399.0
A* cache ES,186,347.0
A* DH=12,187,450.0
A* DH=18,187,508.0
A* DH=6,187,399.0
A* cache ES,187,347.0
A* DH=12,188,450.0
A* DH=18,188,508.0
A* DH=6,188,400.0
A* cache ES,188,347.0
A* DH=12,189,453.0
A* DH=18,189,513.0
A* DH=6,189,404.0
A* cache ES,189,348.0
A* DH=12,190,456.0
A* DH=18,190,514.0
A* DH=6,190,405.0
A* cache ES,190,349.0
A* DH=12,191,457.0
A* DH=18,191,516.0
A* DH=6,191,408.0
A* cache ES,191,350.0
A* DH=12,192,460.0
A* DH=18,192,518.0
A* DH=6,192,409.0
A* cache ES,192,352.0
A* DH=12,193,460.0
A* DH=18,193,523.0
A* DH=6,193,410.0
A* cache ES,193,353.0
A* DH=12,194,464.0
A* DH=18,194,524.0
A* DH=6,194,414.0
A* cache ES,194,355.0
A* DH=12,195,465.0
A* DH=18,195,526.0
A* DH=6,195,416.0
A* cache ES,195,358.0
A* DH=12,196,469.0
A* DH=18,196,527.0
A* DH=6,196,425.0
A* cache ES,196,360.0
A* DH=12,197,474.0
A* DH=18,197,527.0
A* DH=6,197,430.0
A* cache ES,197,361.0
A* DH=12,198,475.0
A* DH=18,198,534.0
A* DH=6,198,431.0
A* cache ES,198,361.0
A* DH=12,199,476.0
A* DH=18,199,539.0
A* DH=6,199,434.0
A* cache ES,199,361.0
A* DH=12,200,477.0
A* DH=18,200,542.0
A* DH=6,200,434.0
A* cache ES,200,362.0
A* DH=12,201,478.0
A* DH=18,201,543.0
A* DH=6,201,438.0
A* cache ES,201,364.0
A* DH=12,202,480.0
A* DH=18,202,546.0
A* DH=6,202,438.0
A* cache ES,202,366.0
A* DH=12,203,482.0
A* DH=18,203,548.0
A* DH=6,203,438.0
A* cache ES,203,369.0
A* DH=12,204,482.0
A* DH=18,204,550.0
A* DH=6,204,439.0
A* cache ES,204,370.0
A* DH=12,205,488.0
A* DH=18,205,560.0
A* DH=6,205,439.0
A* cache ES,205,371.0
A* DH=12,206,491.0
A* DH=18,206,561.0
A* DH=6,206,439.0
A* cache ES,206,373.0
A* DH=12,207,495.0
A* DH=18,207,562.0
A* DH=6,207,440.0
A* cache ES,207,373.0
A* DH=12,208,495.0
A* DH=18,208,565.0
A* DH=6,208,440.0
A* cache ES,208,374.0
A* DH=12,209,497.0
A* DH=18,209,566.0
A* DH=6,209,442.0
A* cache ES,209,376.0
A* DH=12,210,500.0
A* DH=18,210,568.0
A* DH=6,210,445.0
A* cache ES,210,377.0
A* DH=12,211,505.0
A* DH=18,211,569.0
A* DH=6,211,446.0
A* cache ES,211,377.0
A* DH=12,212,508.0
A* DH=18,212,574.0
A* DH=6,212,449.0
A* cache ES,212,377.0
A* DH=12,213,508.0
A* DH=18,213,578.0
A* DH=6,213,451.0
A* cache ES,213,378.0
A* DH=12,214,509.0
A* DH=18,214,583.0
A* DH=6,214,452.0
A* cache ES,214,382.0
A* DH=12,215,511.0
A* DH=18,215,584.0
A* DH=6,215,453.0
A* cache ES,215,383.0
A* DH=12,216,511.0
A* DH=18,216,586.0
A* DH=6,216,459.0
A* cache ES,216,384.0
A* DH=12,217,514.0
A* DH=18,217,587.0
A* DH=6,217,460.0
A* cache ES,217,387.0
A* DH=12,218,515.0
A* DH=18,218,587.0
A* DH=6,218,463.0
A* cache ES,218,387.0
A* DH=12,219,517.0
A* DH=18,219,588.0
A* DH=6,219,464.0
A* cache ES,219,388.0
A* DH=12,220,521.0
A* DH=18,220,588.0
A* DH=6,220,467.0
A* cache ES,220,390.0
A* DH=12,221,521.0
A* DH=18,221,591.0
A* DH=6,221,473.0
A* cache ES,221,391.0
A* DH=12,222,523.0
A* DH=18,222,594.0
A* DH=6,222,479.0
A* cache ES,222,394.0
A* DH=12,223,523.0
A* DH=18,223,595.0
A* DH=6,223,480.0
A* cache ES,223,397.0
A* DH=12,224,527.0
A* DH=18,224,595.0
A* DH=6,224,482.0
A* cache ES,224,399.0
A* DH=12,225,529.0
A* DH=18,225,596.0
A* DH=6,225,486.0
A* cache ES,225,403.0
A* DH=12,226,529.0
A* DH=18,226,597.0
A* DH=6,226,486.0
A* cache ES,226,403.0
A* DH=12,227,530.0
A* DH=18,227,599.0
A* DH=6,227,491.0
A* cache ES,227,404.0
A* DH=12,228,532.0
A* DH=18,228,601.0
A* DH=6,228,492.0
A* cache ES,228,404.0
A* DH=12,229,532.0
A* DH=18,229,607.0
A* DH=6,229,495.0
A* cache ES,229,405.0
A* DH=12,230,533.0
A* DH=18,230,609.0
A* DH=6,230,495.0
A* cache ES,230,408.0
A* DH=12,231,534.0
A* DH=18,231,610.0
A* DH=6,231,495.0
A* cache ES,231,409.0
A* DH=12,232,535.0
A* DH=18,232,610.0
A* DH=6,232,496.0
A* cache ES,232,410.0
A* DH=12,233,538.0
A* DH=18,233,611.0
A* DH=6,233,496.0
A* cache ES,233,410.0
A* DH=12,234,540.0
A* DH=18,234,613.0
A* DH=6,234,496.0
A* cache ES,234,412.0
A* DH=12,235,545.0
A* DH=18,235,619.0
A* DH=6,235,497.0
A* cache ES,235,414.0
A* DH=12,236,547.0
A* DH=18,236,628.0
A* DH=6,236,497.0
A* cache ES,236,417.0
A* DH=12,237,553.0
A* DH=18,237,628.0
A* DH=6,237,497.0
A* cache ES,237,419.0
A* DH=12,238,559.0
A* DH=18,238,629.0
A* DH=6,238,498.0
A* cache ES,238,420.0
A* DH=12,239,562.0
A* DH=18,239,633.0
A* DH=6,239,501.0
A* cache ES,239,421.0
A* DH=12,240,562.0
A* DH=18,240,637.0
A* DH=6,240,501.0
A* cache ES,240,422.0
A* DH=12,241,565.0
A* DH=18,241,642.0
A* DH=6,241,502.0
A* cache ES,241,424.0
A* DH=12,242,565.0
A* DH=18,242,644.0
A* DH=6,242,503.0
A* cache ES,242,424.0
A* DH=12,243,566.0
A* DH=18,243,646.0
A* DH=6,243,507.0
A* cache ES,243,424.0
A* DH=12,244,570.0
A* DH=18,244,646.0
A* DH=6,244,508.0
A* cache ES,244,426.0
A* DH=12,245,573.0
A* DH=18,245,649.0
A* DH=6,245,511.0
A* cache ES,245,430.0
A* DH=12,246,573.0
A* DH=18,246,650.0
A* DH=6,246,515.0
A* cache ES,246,430.0
A* DH=12,247,575.0
A* DH=18,247,657.0
A* DH=6,247,522.0
A* cache ES,247,435.0
A* DH=12,248,576.0
A* DH=18,248,657.0
A* DH=6,248,522.0
A* cache ES,248,436.0
A* DH=12,249,576.0
A* DH=18,249,660.0
A* DH=6,249,523.0
A* cache ES,249,437.0
A* DH=12,250,578.0
A* DH=18,250,662.0
A* DH=6,250,523.0
A* cache ES,250,438.0
A* DH=12,251,578.0
A* DH=18,251,664.0
A* DH=6,251,525.0
A* cache ES,251,439.0
A* DH=12,252,579.0
A* DH=18,252,668.0
A* DH=6,252,526.0
A* cache ES,252,441.0
A* DH=12,253,584.0
A* DH=18,253,668.0
A* DH=6,253,526.0
A* cache ES,253,441.0
A* DH=12,254,586.0
A* DH=18,254,672.0
A* DH=6,254,528.0
A* cache ES,254,442.0
A* DH=12,255,588.0
A* DH=18,255,673.0
A* DH=6,255,530.0
A* cache ES,255,443.0
A* DH=12,256,590.0
A* DH=18,256,675.0
A* DH=6,256,532.0
A* cache ES,256,444.0
A* DH=12,257,591.0
A* DH=18,257,676.0
A* DH=6,257,534.0
A* cache ES,257,445.0
A* DH=12,258,592.0
A* DH=18,258,678.0
A* DH=6,258,539.0
A* cache ES,258,445.0
A* DH=12,259,593.0
A* DH=18,259,679.0
A* DH=6,259,539.0
A* cache ES,259,445.0
A* DH=12,260,593.0
A* DH=18,260,680.0
A* DH=6,260,544.0
A* cache ES,260,446.0
A* DH=12,261,593.0
A* DH=18,261,680.0
A* DH=6,261,544.0
A* cache ES,261,447.0
A* DH=12,262,596.0
A* DH=18,262,680.0
A* DH=6,262,545.0
A* cache ES,262,456.0
A* DH=12,263,597.0
A* DH=18,263,680.0
A* DH=6,263,545.0
A* cache ES,263,460.0
A* DH=12,264,599.0
A* DH=18,264,681.0
A* DH=6,264,548.0
A* cache ES,264,461.0
A* DH=12,265,600.0
A* DH=18,265,682.0
A* DH=6,265,548.0
A* cache ES,265,462.0
A* DH=12,266,600.0
A* DH=18,266,683.0
A* DH=6,266,552.0
A* cache ES,266,462.0
A* DH=12,267,603.0
A* DH=18,267,687.0
A* DH=6,267,553.0
A* cache ES,267,463.0
A* DH=12,268,604.0
A* DH=18,268,688.0
A* DH=6,268,557.0
A* cache ES,268,466.0
A* DH=12,269,605.0
A* DH=18,269,692.0
A* DH=6,269,559.0
A* cache ES,269,468.0
A* DH=12,270,605.0
A* DH=18,270,693.0
A* DH=6,270,560.0
A* cache ES,270,469.0
A* DH=12,271,606.0
A* DH=18,271,695.0
A* DH=6,271,562.0
A* cache ES,271,470.0
A* DH=12,272,607.0
A* DH=18,272,701.0
A* DH=6,272,564.0
A* cache ES,272,471.0
A* DH=12,273,608.0
A* DH=18,273,704.0
A* DH=6,273,564.0
A* cache ES,273,473.0
A* DH=12,274,611.0
A* DH=18,274,704.0
A* DH=6,274,565.0
A* cache ES,274,474.0
A* DH=12,275,615.0
A* DH=18,275,705.0
A* DH=6,275,567.0
A* cache ES,275,474.0
A* DH=12,276,615.0
A* DH=18,276,708.0
A* DH=6,276,570.0
A* cache ES,276,476.0
A* DH=12,277,618.0
A* DH=18,277,710.0
A* DH=6,277,570.0
A* cache ES,277,480.0
A* DH=12,278,619.0
A* DH=18,278,713.0
A* DH=6,278,571.0
A* cache ES,278,480.0
A* DH=12,279,622.0
A* DH=18,279,713.0
A* DH=6,279,574.0
A* cache ES,279,481.0
A* DH=12,280,623.0
A* DH=18,280,715.0
A* DH=6,280,574.0
A* cache ES,280,483.0
A* DH=12,281,627.0
A* DH=18,281,715.0
A* DH=6,281,574.0
A* cache ES,281,484.0
A* DH=12,282,628.0
A* DH=18,282,717.0
A* DH=6,282,575.0
A* cache ES,282,484.0
A* DH=12,283,629.0
A* DH=18,283,717.0
A* DH=6,283,575.0
A* cache ES,283,485.0
A* DH=12,284,631.0
A* DH=18,284,723.0
A* DH=6,284,576.0
A* cache ES,284,485.0
A* DH=12,285,634.0
A* DH=18,285,728.0
A* DH=6,285,576.0
A* cache ES,285,487.0
A* DH=12,286,634.0
A* DH=18,286,728.0
A* DH=6,286,577.0
A* cache ES,286,488.0
A* DH=12,287,636.0
A* DH=18,287,729.0
A* DH=6,287,578.0
A* cache ES,287,491.0
A* DH=12,288,637.0
A* DH=18,288,731.0
A* DH=6,288,578.0
A* cache ES,288,491.0
A* DH=12,289,637.0
A* DH=18,289,733.0
A* DH=6,289,583.0
A* cache ES,289,492.0
A* DH=12,290,637.0
A* DH=18,290,733.0
A* DH=6,290,583.0
A* cache ES,290,492.0
A* DH=12,291,643.0
A* DH=18,291,733.0
A* DH=6,291,585.0
A* cache ES,291,495.0
A* DH=12,292,643.0
A* DH=18,292,734.0
A* DH=6,292,587.0
A* cache ES,292,495.0
A* DH=12,293,643.0
A* DH=18,293,735.0
A* DH=6,293,587.0
A* cache ES,293,495.0
A* DH=12,294,645.0
A* DH=18,294,736.0
A* DH=6,294,587.0
A* cache ES,294,495.0
A* DH=12,295,648.0
A* DH=18,295,737.0
A* DH=6,295,590.0
A* cache ES,295,496.0
A* DH=12,296,651.0
A* DH=18,296,737.0
A* DH=6,296,590.0
A* cache ES,296,496.0
A* DH=12,297,655.0
A* DH=18,297,741.0
A* DH=6,297,590.0
A* cache ES,297,498.0
A* DH=12,298,657.0
A* DH=18,298,741.0
A* DH=6,298,591.0
A* cache ES,298,498.0
A* DH=12,299,661.0
A* DH=18,299,741.0
A* DH=6,299,592.0
A* cache ES,299,498.0
A* DH=12,300,661.0
A* DH=18,300,742.0
A* DH=6,300,593.0
A* cache ES,300,498.0
A* DH=12,301,661.0
A* DH=18,301,744.0
A* DH=6,301,595.0
A* cache ES,301,498.0
A* DH=12,302,665.0
A* DH=18,302,747.0
A* DH=6,302,597.0
A* cache ES,302,499.0
A* DH=12,303,665.0
A* DH=18,303,748.0
A* DH=6,303,597.0
A* cache ES,303,500.0
A* DH=12,304,665.0
A* DH=18,304,751.0
A* DH=6,304,600.0
A* cache ES,304,500.0
A* DH=12,305,665.0
A* DH=18,305,753.0
A* DH=6,305,604.0
A* cache ES,305,500.0
A* DH=12,306,667.0
A* DH=18,306,754.0
A* DH=6,306,605.0
A* cache ES,306,500.0
A* DH=12,307,668.0
A* DH=18,307,754.0
A* DH=6,307,609.0
A* cache ES,307,500.0
A* DH=12,308,669.0
A* DH=18,308,757.0
A* DH=6,308,610.0
A* cache ES,308,502.0
A* DH=12,309,670.0
A* DH=18,309,758.0
A* DH=6,309,611.0
A* cache ES,309,505.0
A* DH=12,310,671.0
A* DH=18,310,759.0
A* DH=6,310,614.0
A* cache ES,310,505.0
A* DH=12,311,676.0
A* DH=18,311,760.0
A* DH=6,311,616.0
A* cache ES,311,508.0
A* DH=12,312,677.0
A* DH=18,312,764.0
A* DH=6,312,618.0
A* cache ES,312,508.0
A* DH=12,313,677.0
A* DH=18,313,767.0
A* DH=6,313,619.0
A* cache ES,313,510.0
A* DH=12,314,679.0
A* DH=18,314,767.0
A* DH=6,314,619.0
A* cache ES,314,513.0
A* DH=12,315,679.0
A* DH=18,315,767.0
A* DH=6,315,620.0
A* cache ES,315,513.0
A* DH=12,316,681.0
A* DH=18,316,770.0
A* DH=6,316,622.0
A* cache ES,316,516.0
A* DH=12,317,681.0
A* DH=18,317,773.0
A* DH=6,317,630.0
A* cache ES,317,518.0
A* DH=12,318,682.0
A* DH=18,318,777.0
A* DH=6,318,631.0
A* cache ES,318,519.0
A* DH=12,319,684.0
A* DH=18,319,777.0
A* DH=6,319,636.0
A* cache ES,319,520.0
A* DH=12,320,686.0
A* DH=18,320,782.0
A* DH=6,320,637.0
A* cache ES,320,520.0
A* DH=12,321,687.0
A* DH=18,321,783.0
A* DH=6,321,638.0
A* cache ES,321,521.0
A* DH=12,322,687.0
A* DH=18,322,785.0
A* DH=6,322,644.0
A* cache ES,322,521.0
A* DH=12,323,691.0
A* DH=18,323,787.0
A* DH=6,323,644.0
A* cache ES,323,529.0
A* DH=12,324,693.0
A* DH=18,324,789.0
A* DH=6,324,650.0
A* cache ES,324,531.0
A* DH=12,325,694.0
A* DH=18,325,790.0
A* DH=6,325,653.0
A* cache ES,325,531.0
A* DH=12,326,694.0
A* DH=18,326,791.0
A* DH=6,326,654.0
A* cache ES,326,536.0
A* DH=12,327,695.0
A* DH=18,327,794.0
A* DH=6,327,660.0
A* cache ES,327,536.0
A* DH=12,328,695.0
A* DH=18,328,795.0
A* DH=6,328,666.0
A* cache ES,328,538.0
A* DH=12,329,696.0
A* DH=18,329,795.0
A* DH=6,329,667.0
A* cache ES,329,543.0
A* DH=12,330,696.0
A* DH=18,330,799.0
A* DH=6,330,669.0
A* cache ES,330,545.0
A* DH=12,331,697.0
A* DH=18,331,800.0
A* DH=6,331,669.0
A* cache ES,331,547.0
A* DH=12,332,701.0
A* DH=18,332,803.0
A* DH=6,332,670.0
A* cache ES,332,549.0
A* DH=12,333,702.0
A* DH=18,333,807.0
A* DH=6,333,671.0
A* cache ES,333,554.0
A* DH=12,334,706.0
A* DH=18,334,807.0
A* DH=6,334,671.0
A* cache ES,334,554.0
A* DH=12,335,707.0
A* DH=18,335,808.0
A* DH=6,335,671.0
A* cache ES,335,556.0
A* DH=12,336,707.0
A* DH=18,336,810.0
A* DH=6,336,671.0
A* cache ES,336,558.0
A* DH=12,337,710.0
A* DH=18,337,811.0
A* DH=6,337,674.0
A* cache ES,337,559.0
A* DH=12,338,711.0
A* DH=18,338,811.0
A* DH=6,338,674.0
A* cache ES,338,559.0
A* DH=12,339,712.0
A* DH=18,339,814.0
A* DH=6,339,680.0
A* cache ES,339,560.0
A* DH=12,340,712.0
A* DH=18,340,814.0
A* DH=6,340,681.0
A* cache ES,340,563.0
A* DH=12,341,717.0
A* DH=18,341,816.0
A* DH=6,341,684.0
A* cache ES,341,564.0
A* DH=12,342,721.0
A* DH=18,342,817.0
A* DH=6,342,685.0
A* cache ES,342,565.0
A* DH=12,343,721.0
A* DH=18,343,819.0
A* DH=6,343,686.0
A* cache ES,343,567.0
A* DH=12,344,721.0
A* DH=18,344,819.0
A* DH=6,344,686.0
A* cache ES,344,568.0
A* DH=12,345,724.0
A* DH=18,345,820.0
A* DH=6,345,687.0
A* cache ES,345,568.0
A* DH=12,346,725.0
A* DH=18,346,821.0
A* DH=6,346,690.0
A* cache ES,346,570.0
A* DH=12,347,725.0
A* DH=18,347,823.0
A* DH=6,347,691.0
A* cache ES,347,572.0
A* DH=12,348,727.0
A* DH=18,348,824.0
A* DH=6,348,691.0
A* cache ES,348,575.0
A* DH=12,349,728.0
A* DH=18,349,824.0
A* DH=6,349,695.0
A* cache ES,349,575.0
A* DH=12,350,733.0
A* DH=18,350,825.0
A* DH=6,350,697.0
A* cache ES,350,580.0
A* DH=12,351,733.0
A* DH=18,351,827.0
A* DH=6,351,699.0
A* cache ES,351,584.0
A* DH=12,352,735.0
A* DH=18,352,828.0
A* DH=6,352,700.0
A* cache ES,352,586.0
A* DH=12,353,735.0
A* DH=18,353,831.0
A* DH=6,353,704.0
A* cache ES,353,586.0
A* DH=12,354,736.0
A* DH=18,354,832.0
A* DH=6,354,705.0
A* cache ES,354,587.0
A* DH=12,355,737.0
A* DH=18,355,833.0
A* DH=6,355,706.0
A* cache ES,355,589.0
A* DH=12,356,741.0
A* DH=18,356,833.0
A* DH=6,356,707.0
A* cache ES,356,590.0
A* DH=12,357,742.0
A* DH=18,357,835.0
A* DH=6,357,711.0
A* cache ES,357,593.0
A* DH=12,358,743.0
A* DH=18,358,840.0
A* DH=6,358,713.0
A* cache ES,358,594.0
A* DH=12,359,746.0
A* DH=18,359,841.0
A* DH=6,359,718.0
A* cache ES,359,595.0
A* DH=12,360,747.0
A* DH=18,360,843.0
A* DH=6,360,718.0
A* cache ES,360,596.0
A* DH=12,361,759.0
A* DH=18,361,844.0
A* DH=6,361,719.0
A* cache ES,361,596.0
A* DH=12,362,763.0
A* DH=18,362,844.0
A* DH=6,362,723.0
A* cache ES,362,597.0
A* DH=12,363,764.0
A* DH=18,363,846.0
A* DH=6,363,725.0
A* cache ES,363,598.0
A* DH=12,364,764.0
A* DH=18,364,848.0
A* DH=6,364,729.0
A* cache ES,364,598.0
A* DH=12,365,766.0
A* DH=18,365,848.0
A* DH=6,365,735.0
A* cache ES,365,598.0
A* DH=12,366,778.0
A* DH=18,366,849.0
A* DH=6,366,736.0
A* cache ES,366,600.0
A* DH=12,367,784.0
A* DH=18,367,849.0
A* DH=6,367,738.0
A* cache ES,367,601.0
A* DH=12,368,784.0
A* DH=18,368,852.0
A* DH=6,368,738.0
A* cache ES,368,602.0
A* DH=12,369,786.0
A* DH=18,369,856.0
A* DH=6,369,745.0
A* cache ES,369,603.0
A* DH=12,370,788.0
A* DH=18,370,864.0
A* DH=6,370,745.0
A* cache ES,370,603.0
A* DH=12,371,789.0
A* DH=18,371,867.0
A* DH=6,371,747.0
A* cache ES,371,603.0
A* DH=12,372,793.0
A* DH=18,372,869.0
A* DH=6,372,748.0
A* cache ES,372,603.0
A* DH=12,373,793.0
A* DH=18,373,872.0
A* DH=6,373,751.0
A* cache ES,373,604.0
A* DH=12,374,795.0
A* DH=18,374,877.0
A* DH=6,374,751.0
A* cache ES,374,605.0
A* DH=12,375,795.0
A* DH=18,375,877.0
A* DH=6,375,753.0
A* cache ES,375,609.0
A* DH=12,376,796.0
A* DH=18,376,878.0
A* DH=6,376,754.0
A* cache ES,376,612.0
A* DH=12,377,796.0
A* DH=18,377,879.0
A* DH=6,377,757.0
A* cache ES,377,612.0
A* DH=12,378,800.0
A* DH=18,378,881.0
A* DH=6,378,757.0
A* cache ES,378,618.0
A* DH=12,379,801.0
A* DH=18,379,881.0
A* DH=6,379,763.0
A* cache ES,379,620.0
A* DH=12,380,804.0
A* DH=18,380,882.0
A* DH=6,380,766.0
A* cache ES,380,621.0
A* DH=12,381,807.0
A* DH=18,381,882.0
A* DH=6,381,766.0
A* cache ES,381,622.0
A* DH=12,382,807.0
A* DH=18,382,884.0
A* DH=6,382,769.0
A* cache ES,382,624.0
A* DH=12,383,809.0
A* DH=18,383,886.0
A* DH=6,383,773.0
A* cache ES,383,624.0
A* DH=12,384,810.0
A* DH=18,384,896.0
A* DH=6,384,784.0
A* cache ES,384,625.0
A* DH=12,385,815.0
A* DH=18,385,900.0
A* DH=6,385,785.0
A* cache ES,385,629.0
A* DH=12,386,816.0
A* DH=18,386,901.0
A* DH=6,386,786.0
A* cache ES,386,629.0
A* DH=12,387,820.0
A* DH=18,387,911.0
A* DH=6,387,786.0
A* cache ES,387,630.0
A* DH=12,388,820.0
A* DH=18,388,913.0
A* DH=6,388,789.0
A* cache ES,388,631.0
A* DH=12,389,825.0
A* DH=18,389,915.0
A* DH=6,389,789.0
A* cache ES,389,631.0
A* DH=12,390,825.0
A* DH=18,390,919.0
A* DH=6,390,791.0
A* cache ES,390,632.0
A* DH=12,391,825.0
A* DH=18,391,920.0
A* DH=6,391,794.0
A* cache ES,391,633.0
A* DH=12,392,826.0
A* DH=18,392,925.0
A* DH=6,392,796.0
A* cache ES,392,633.0
A* DH=12,393,827.0
A* DH=18,393,926.0
A* DH=6,393,797.0
A* cache ES,393,634.0
A* DH=12,394,828.0
A* DH=18,394,928.0
A* DH=6,394,797.0
A* cache ES,394,635.0
A* DH=12,395,831.0
A* DH=18,395,929.0
A* DH=6,395,797.0
A* cache ES,395,637.0
A* DH=12,396,834.0
A* DH=18,396,933.0
A* DH=6,396,802.0
A* cache ES,396,639.0
A* DH=12,397,835.0
A* DH=18,397,933.0
A* DH=6,397,803.0
A* cache ES,397,640.0
A* DH=12,398,835.0
A* DH=18,398,942.0
A* DH=6,398,809.0
A* cache ES,398,640.0
A* DH=12,399,842.0
A* DH=18,399,942.0
A* DH=6,399,812.0
A* cache ES,399,640.0
A* DH=12,400,844.0
A* DH=18,400,942.0
A* DH=6,400,814.0
A* cache ES,400,642.0
A* DH=12,401,849.0
A* DH=18,401,945.0
A* DH=6,401,814.0
A* cache ES,401,643.0
A* DH=12,402,850.0
A* DH=18,402,945.0
A* DH=6,402,818.0
A* cache ES,402,645.0
A* DH=12,403,851.0
A* DH=18,403,947.0
A* DH=6,403,819.0
A* cache ES,403,645.0
A* DH=12,404,854.0
A* DH=18,404,951.0
A* DH=6,404,820.0
A* cache ES,404,646.0
A* DH=12,405,855.0
A* DH=18,405,952.0
A* DH=6,405,824.0
A* cache ES,405,646.0
A* DH=12,406,860.0
A* DH=18,406,955.0
A* DH=6,406,824.0
A* cache ES,406,647.0
A* DH=12,407,860.0
A* DH=18,407,957.0
A* DH=6,407,824.0
A* cache ES,407,647.0
A* DH=12,408,861.0
A* DH=18,408,958.0
A* DH=6,408,825.0
A* cache ES,408,651.0
A* DH=12,409,863.0
A* DH=18,409,960.0
A* DH=6,409,826.0
A* cache ES,409,652.0
A* DH=12,410,865.0
A* DH=18,410,968.0
A* DH=6,410,830.0
A* cache ES,410,652.0
A* DH=12,411,865.0
A* DH=18,411,968.0
A* DH=6,411,831.0
A* cache ES,411,654.0
A* DH=12,412,867.0
A* DH=18,412,969.0
A* DH=6,412,832.0
A* cache ES,412,655.0
A* DH=12,413,867.0
A* DH=18,413,969.0
A* DH=6,413,833.0
A* cache ES,413,655.0
A* DH=12,414,869.0
A* DH=18,414,973.0
A* DH=6,414,836.0
A* cache ES,414,656.0
A* DH=12,415,873.0
A* DH=18,415,976.0
A* DH=6,415,837.0
A* cache ES,415,657.0
A* DH=12,416,873.0
A* DH=18,416,982.0
A* DH=6,416,837.0
A* cache ES,416,657.0
A* DH=12,417,877.0
A* DH=18,417,986.0
A* DH=6,417,841.0
A* cache ES,417,662.0
A* DH=12,418,880.0
A* DH=18,418,986.0
A* DH=6,418,841.0
A* cache ES,418,663.0
A* DH=12,419,883.0
A* DH=18,419,999.0
A* DH=6,419,847.0
A* cache ES,419,666.0
A* DH=12,420,884.0
A* DH=18,420,1000.0
A* DH=6,420,847.0
A* cache ES,420,666.0
A* DH=12,421,886.0
A* DH=18,421,1003.0
A* DH=6,421,848.0
A* cache ES,421,667.0
A* DH=12,422,886.0
A* DH=18,422,1004.0
A* DH=6,422,852.0
A* cache ES,422,667.0
A* DH=12,423,889.0
A* DH=18,423,1005.0
A* DH=6,423,855.0
A* cache ES,423,669.0
A* DH=12,424,890.0
A* DH=18,424,1005.0
A* DH=6,424,858.0
A* cache ES,424,669.0
A* DH=12,425,896.0
A* DH=18,425,1009.0
A* DH=6,425,859.0
A* cache ES,425,672.0
A* DH=12,426,898.0
A* DH=18,426,1010.0
A* DH=6,426,863.0
A* cache ES,426,672.0
A* DH=12,427,906.0
A* DH=18,427,1011.0
A* DH=6,427,863.0
A* cache ES,427,674.0
A* DH=12,428,909.0
A* DH=18,428,1011.0
A* DH=6,428,865.0
A* cache ES,428,676.0
A* DH=12,429,910.0
A* DH=18,429,1015.0
A* DH=6,429,869.0
A* cache ES,429,677.0
A* DH=12,430,911.0
A* DH=18,430,1018.0
A* DH=6,430,870.0
A* cache ES,430,681.0
A* DH=12,431,912.0
A* DH=18,431,1018.0
A* DH=6,431,870.0
A* cache ES,431,682.0
A* DH=12,432,914.0
A* DH=18,432,1018.0
A* DH=6,432,872.0
A* cache ES,432,682.0
A* DH=12,433,914.0
A* DH=18,433,1018.0
A* DH=6,433,875.0
A* cache ES,433,682.0
A* DH=12,434,917.0
A* DH=18,434,1021.0
A* DH=6,434,876.0
A* cache ES,434,686.0
A* DH=12,435,918.0
A* DH=18,435,1022.0
A* DH=6,435,878.0
A* cache ES,435,689.0
A* DH=12,436,918.0
A* DH=18,436,1022.0
A* DH=6,436,880.0
A* cache ES,436,690.0
A* DH=12,437,918.0
A* DH=18,437,1024.0
A* DH=6,437,882.0
A* cache ES,437,692.0
A* DH=12,438,919.0
A* DH=18,438,1024.0
A* DH=6,438,882.0
A* cache ES,438,693.0
A* DH=12,439,919.0
A* DH=18,439,1024.0
A* DH=6,439,887.0
A* cache ES,439,694.0
A* DH=12,440,920.0
A* DH=18,440,1026.0
A* DH=6,440,887.0
A* cache ES,440,694.0
A* DH=12,441,921.0
A* DH=18,441,1027.0
A* DH=6,441,888.0
A* cache ES,441,698.0
A* DH=12,442,921.0
A* DH=18,442,1027.0
A* DH=6,442,894.0
A* cache ES,442,699.0
A* DH=12,443,925.0
A* DH=18,443,1029.0
A* DH=6,443,895.0
A* cache ES,443,699.0
A* DH=12,444,928.0
A* DH=18,444,1031.0
A* DH=6,444,897.0
A* cache ES,444,701.0
A* DH=12,445,933.0
A* DH=18,445,1034.0
A* DH=6,445,898.0
A* cache ES,445,705.0
A* DH=12,446,934.0
A* DH=18,446,1036.0
A* DH=6,446,899.0
A* cache ES,446,707.0
A* DH=12,447,937.0
A* DH=18,447,1038.0
A* DH=6,447,900.0
A* cache ES,447,708.0
A* DH=12,448,942.0
A* DH=18,448,1041.0
A* DH=6,448,901.0
A* cache ES,448,713.0
A* DH=12,449,944.0
A* DH=18,449,1045.0
A* DH=6,449,909.0
A* cache ES,449,715.0
A* DH=12,450,949.0
A* DH=18,450,1047.0
A* DH=6,450,910.0
A* cache ES,450,716.0
A* DH=12,451,952.0
A* DH=18,451,1051.0
A* DH=6,451,910.0
A* cache ES,451,717.0
A* DH=12,452,953.0
A* DH=18,452,1056.0
A* DH=6,452,911.0
A* cache ES,452,721.0
A* DH=12,453,956.0
A* DH=18,453,1064.0
A* DH=6,453,912.0
A* cache ES,453,725.0
A* DH=12,454,958.0
A* DH=18,454,1064.0
A* DH=6,454,914.0
A* cache ES,454,726.0
A* DH=12,455,958.0
A* DH=18,455,1069.0
A* DH=6,455,915.0
A* cache ES,455,727.0
A* DH=12,456,961.0
A* DH=18,456,1076.0
A* DH=6,456,916.0
A* cache ES,456,727.0
A* DH=12,457,961.0
A* DH=18,457,1076.0
A* DH=6,457,920.0
A* cache ES,457,729.0
A* DH=12,458,962.0
A* DH=18,458,1081.0
A* DH=6,458,923.0
A* cache ES,458,730.0
A* DH=12,459,969.0
A* DH=18,459,1085.0
A* DH=6,459,923.0
A* cache ES,459,735.0
A* DH=12,460,971.0
A* DH=18,460,1090.0
A* DH=6,460,924.0
A* cache ES,460,737.0
A* DH=12,461,972.0
A* DH=18,461,1090.0
A* DH=6,461,924.0
A* cache ES,461,738.0
A* DH=12,462,974.0
A* DH=18,462,1090.0
A* DH=6,462,927.0
A* cache ES,462,738.0
A* DH=12,463,975.0
A* DH=18,463,1092.0
A* DH=6,463,927.0
A* cache ES,463,738.0
A* DH=12,464,980.0
A* DH=18,464,1092.0
A* DH=6,464,929.0
A* cache ES,464,741.0
A* DH=12,465,982.0
A* DH=18,465,1094.0
A* DH=6,465,929.0
A* cache ES,465,743.0
A* DH=12,466,985.0
A* DH=18,466,1095.0
A* DH=6,466,929.0
A* cache ES,466,750.0
A* DH=12,467,992.0
A* DH=18,467,1095.0
A* DH=6,467,933.0
A* cache ES,467,751.0
A* DH=12,468,992.0
A* DH=18,468,1099.0
A* DH=6,468,938.0
A* cache ES,468,753.0
A* DH=12,469,993.0
A* DH=18,469,1099.0
A* DH=6,469,940.0
A* cache ES,469,753.0
A* DH=12,470,995.0
A* DH=18,470,1101.0
A* DH=6,470,940.0
A* cache ES,470,755.0
A* DH=12,471,998.0
A* DH=18,471,1102.0
A* DH=6,471,943.0
A* cache ES,471,757.0
A* DH=12,472,1002.0
A* DH=18,472,1104.0
A* DH=6,472,944.0
A* cache ES,472,758.0
A* DH=12,473,1002.0
A* DH=18,473,1104.0
A* DH=6,473,945.0
A* cache ES,473,762.0
A* DH=12,474,1003.0
A* DH=18,474,1106.0
A* DH=6,474,945.0
A* cache ES,474,763.0
A* DH=12,475,1005.0
A* DH=18,475,1107.0
A* DH=6,475,945.0
A* cache ES,475,763.0
A* DH=12,476,1007.0
A* DH=18,476,1107.0
A* DH=6,476,948.0
A* cache ES,476,764.0
A* DH=12,477,1008.0
A* DH=18,477,1109.0
A* DH=6,477,950.0
A* cache ES,477,764.0
A* DH=12,478,1008.0
A* DH=18,478,1109.0
A* DH=6,478,952.0
A* cache ES,478,764.0
A* DH=12,479,1008.0
A* DH=18,479,1114.0
A* DH=6,479,953.0
A* cache ES,479,764.0
A* DH=12,480,1008.0
A* DH=18,480,1119.0
A* DH=6,480,953.0
A* cache ES,480,766.0
A* DH=12,481,1008.0
A* DH=18,481,1122.0
A* DH=6,481,955.0
A* cache ES,481,767.0
A* DH=12,482,1010.0
A* DH=18,482,1123.0
A* DH=6,482,961.0
A* cache ES,482,767.0
A* DH=12,483,1012.0
A* DH=18,483,1123.0
A* DH=6,483,961.0
A* cache ES,483,770.0
A* DH=12,484,1014.0
A* DH=18,484,1124.0
A* DH=6,484,964.0
A* cache ES,484,770.0
A* DH=12,485,1015.0
A* DH=18,485,1125.0
A* DH=6,485,965.0
A* cache ES,485,773.0
A* DH=12,486,1016.0
A* DH=18,486,1128.0
A* DH=6,486,965.0
A* cache ES,486,775.0
A* DH=12,487,1017.0
A* DH=18,487,1129.0
A* DH=6,487,965.0
A* cache ES,487,776.0
A* DH=12,488,1017.0
A* DH=18,488,1129.0
A* DH=6,488,968.0
A* cache ES,488,777.0
A* DH=12,489,1019.0
A* DH=18,489,1131.0
A* DH=6,489,969.0
A* cache ES,489,777.0
A* DH=12,490,1019.0
A* DH=18,490,1132.0
A* DH=6,490,969.0
A* cache ES,490,778.0
A* DH=12,491,1020.0
A* DH=18,491,1133.0
A* DH=6,491,970.0
A* cache ES,491,778.0
A* DH=12,492,1021.0
A* DH=18,492,1146.0
A* DH=6,492,975.0
A* cache ES,492,781.0
A* DH=12,493,1021.0
A* DH=18,493,1148.0
A* DH=6,493,979.0
A* cache ES,493,781.0
A* DH=12,494,1022.0
A* DH=18,494,1157.0
A* DH=6,494,981.0
A* cache ES,494,783.0
A* DH=12,495,1024.0
A* DH=18,495,1158.0
A* DH=6,495,985.0
A* cache ES,495,786.0
A* DH=12,496,1025.0
A* DH=18,496,1166.0
A* DH=6,496,985.0
A* cache ES,496,792.0
A* DH=12,497,1030.0
A* DH=18,497,1168.0
A* DH=6,497,987.0
A* cache ES,497,792.0
A* DH=12,498,1031.0
A* DH=18,498,1169.0
A* DH=6,498,987.0
A* cache ES,498,792.0
A* DH=12,499,1032.0
A* DH=18,499,1176.0
A* DH=6,499,987.0
A* cache ES,499,792.0
A* DH=12,500,1036.0
A* DH=18,500,1178.0
A* DH=6,500,989.0
A* cache ES,500,797.0
A* DH=12,501,1036.0
A* DH=18,501,1179.0
A* DH=6,501,991.0
A* cache ES,501,798.0
A* DH=12,502,1041.0
A* DH=18,502,1184.0
A* DH=6,502,991.0
A* cache ES,502,798.0
A* DH=12,503,1043.0
A* DH=18,503,1184.0
A* DH=6,503,993.0
A* cache ES,503,798.0
A* DH=12,504,1043.0
A* DH=18,504,1184.0
A* DH=6,504,994.0
A* cache ES,504,798.0
A* DH=12,505,1045.0
A* DH=18,505,1187.0
A* DH=6,505,997.0
A* cache ES,505,799.0
A* DH=12,506,1049.0
A* DH=18,506,1187.0
A* DH=6,506,999.0
A* cache ES,506,803.0
A* DH=12,507,1052.0
A* DH=18,507,1188.0
A* DH=6,507,999.0
A* cache ES,507,804.0
A* DH=12,508,1053.0
A* DH=18,508,1189.0
A* DH=6,508,1000.0
A* cache ES,508,805.0
A* DH=12,509,1053.0
A* DH=18,509,1189.0
A* DH=6,509,1002.0
A* cache ES,509,806.0
A* DH=12,510,1058.0
A* DH=18,510,1191.0
A* DH=6,510,1007.0
A* cache ES,510,808.0
A* DH=12,511,1059.0
A* DH=18,511,1197.0
A* DH=6,511,1007.0
A* cache ES,511,809.0
A* DH=12,512,1061.0
A* DH=18,512,1197.0
A* DH=6,512,1008.0
A* cache ES,512,809.0
A* DH=12,513,1063.0
A* DH=18,513,1197.0
A* DH=6,513,1009.0
A* cache ES,513,810.0
A* DH=12,514,1064.0
A* DH=18,514,1199.0
A* DH=6,514,1009.0
A* cache ES,514,811.0
A* DH=12,515,1064.0
A* DH=18,515,1200.0
A* DH=6,515,1011.0
A* cache ES,515,812.0
A* DH=12,516,1065.0
A* DH=18,516,1202.0
A* DH=6,516,1012.0
A* cache ES,516,813.0
A* DH=12,517,1066.0
A* DH=18,517,1202.0
A* DH=6,517,1012.0
A* cache ES,517,815.0
A* DH=12,518,1066.0
A* DH=18,518,1205.0
A* DH=6,518,1013.0
A* cache ES,518,819.0
A* DH=12,519,1067.0
A* DH=18,519,1206.0
A* DH=6,519,1021.0
A* cache ES,519,820.0
A* DH=12,520,1070.0
A* DH=18,520,1209.0
A* DH=6,520,1023.0
A* cache ES,520,824.0
A* DH=12,521,1072.0
A* DH=18,521,1212.0
A* DH=6,521,1026.0
A* cache ES,521,824.0
A* DH=12,522,1074.0
A* DH=18,522,1214.0
A* DH=6,522,1027.0
A* cache ES,522,827.0
A* DH=12,523,1075.0
A* DH=18,523,1217.0
A* DH=6,523,1032.0
A* cache ES,523,827.0
A* DH=12,524,1080.0
A* DH=18,524,1218.0
A* DH=6,524,1034.0
A* cache ES,524,828.0
A* DH=12,525,1081.0
A* DH=18,525,1218.0
A* DH=6,525,1034.0
A* cache ES,525,828.0
A* DH=12,526,1084.0
A* DH=18,526,1219.0
A* DH=6,526,1038.0
A* cache ES,526,829.0
A* DH=12,527,1085.0
A* DH=18,527,1221.0
A* DH=6,527,1039.0
A* cache ES,527,834.0
A* DH=12,528,1086.0
A* DH=18,528,1221.0
A* DH=6,528,1046.0
A* cache ES,528,834.0
A* DH=12,529,1088.0
A* DH=18,529,1222.0
A* DH=6,529,1051.0
A* cache ES,529,841.0
A* DH=12,530,1088.0
A* DH=18,530,1224.0
A* DH=6,530,1052.0
A* cache ES,530,842.0
A* DH=12,531,1092.0
A* DH=18,531,1225.0
A* DH=6,531,1053.0
A* cache ES,531,847.0
A* DH=12,532,1095.0
A* DH=18,532,1230.0
A* DH=6,532,1054.0
A* cache ES,532,848.0
A* DH=12,533,1096.0
A* DH=18,533,1232.0
A* DH=6,533,1054.0
A* cache ES,533,850.0
A* DH=12,534,1098.0
A* DH=18,534,1234.0
A* DH=6,534,1055.0
A* cache ES,534,850.0
A* DH=12,535,1100.0
A* DH=18,535,1235.0
A* DH=6,535,1056.0
A* cache ES,535,852.0
A* DH=12,536,1100.0
A* DH=18,536,1241.0
A* DH=6,536,1062.0
A* cache ES,536,856.0
A* DH=12,537,1101.0
A* DH=18,537,1242.0
A* DH=6,537,1063.0
A* cache ES,537,857.0
A* DH=12,538,1103.0
A* DH=18,538,1245.0
A* DH=6,538,1063.0
A* cache ES,538,860.0
A* DH=12,539,1103.0
A* DH=18,539,1245.0
A* DH=6,539,1065.0
A* cache ES,539,863.0
A* DH=12,540,1103.0
A* DH=18,540,1256.0
A* DH=6,540,1065.0
A* cache ES,540,865.0
A* DH=12,541,1105.0
A* DH=18,541,1257.0
A* DH=6,541,1067.0
A* cache ES,541,866.0
A* DH=12,542,1106.0
A* DH=18,542,1259.0
A* DH=6,542,1069.0
A* cache ES,542,868.0
A* DH=12,543,1111.0
A* DH=18,543,1260.0
A* DH=6,543,1070.0
A* cache ES,543,869.0
A* DH=12,544,1116.0
A* DH=18,544,1261.0
A* DH=6,544,1071.0
A* cache ES,544,869.0
A* DH=12,545,1116.0
A* DH=18,545,1261.0
A* DH=6,545,1077.0
A* cache ES,545,872.0
A* DH=12,546,1117.0
A* DH=18,546,1262.0
A* DH=6,546,1077.0
A* cache ES,546,873.0
A* DH=12,547,1121.0
A* DH=18,547,1265.0
A* DH=6,547,1082.0
A* cache ES,547,873.0
A* DH=12,548,1121.0
A* DH=18,548,1265.0
A* DH=6,548,1083.0
A* cache ES,548,875.0
A* DH=12,549,1121.0
A* DH=18,549,1268.0
A* DH=6,549,1087.0
A* cache ES,549,876.0
A* DH=12,550,1122.0
A* DH=18,550,1270.0
A* DH=6,550,1087.0
A* cache ES,550,886.0
A* DH=12,551,1123.0
A* DH=18,551,1273.0
A* DH=6,551,1088.0
A* cache ES,551,887.0
A* DH=12,552,1125.0
A* DH=18,552,1287.0
A* DH=6,552,1091.0
A* cache ES,552,897.0
A* DH=12,553,1127.0
A* DH=18,553,1288.0
A* DH=6,553,1093.0
A* cache ES,553,898.0
A* DH=12,554,1128.0
A* DH=18,554,1289.0
A* DH=6,554,1094.0
A* cache ES,554,902.0
A* DH=12,555,1129.0
A* DH=18,555,1290.0
A* DH=6,555,1096.0
A* cache ES,555,903.0
A* DH=12,556,1130.0
A* DH=18,556,1295.0
A* DH=6,556,1096.0
A* cache ES,556,911.0
A* DH=12,557,1131.0
A* DH=18,557,1296.0
A* DH=6,557,1097.0
A* cache ES,557,913.0
A* DH=12,558,1132.0
A* DH=18,558,1296.0
A* DH=6,558,1098.0
A* cache ES,558,914.0
A* DH=12,559,1136.0
A* DH=18,559,1298.0
A* DH=6,559,1101.0
A* cache ES,559,920.0
A* DH=12,560,1137.0
A* DH=18,560,1300.0
A* DH=6,560,1104.0
A* cache ES,560,922.0
A* DH=12,561,1137.0
A* DH=18,561,1300.0
A* DH=6,561,1105.0
A* cache ES,561,926.0
A* DH=12,562,1137.0
A* DH=18,562,1301.0
A* DH=6,562,1105.0
A* cache ES,562,927.0
A* DH=12,563,1140.0
A* DH=18,563,1303.0
A* DH=6,563,1105.0
A* cache ES,563,929.0
A* DH=12,564,1145.0
A* DH=18,564,1304.0
A* DH=6,564,1114.0
A* cache ES,564,930.0
A* DH=12,565,1146.0
A* DH=18,565,1305.0
A* DH=6,565,1117.0
A* cache ES,565,930.0
A* DH=12,566,1146.0
A* DH=18,566,1306.0
A* DH=6,566,1120.0
A* cache ES,566,931.0
A* DH=12,567,1147.0
A* DH=18,567,1308.0
A* DH=6,567,1120.0
A* cache ES,567,933.0
A* DH=12,568,1147.0
A* DH=18,568,1310.0
A* DH=6,568,1121.0
A* cache ES,568,934.0
A* DH=12,569,1148.0
A* DH=18,569,1311.0
A* DH=6,569,1128.0
A* cache ES,569,935.0
A* DH=12,570,1152.0
A* DH=18,570,1313.0
A* DH=6,570,1132.0
A* cache ES,570,936.0
A* DH=12,571,1156.0
A* DH=18,571,1314.0
A* DH=6,571,1135.0
A* cache ES,571,940.0
A* DH=12,572,1163.0
A* DH=18,572,1314.0
A* DH=6,572,1137.0
A* cache ES,572,941.0
A* DH=12,573,1169.0
A* DH=18,573,1314.0
A* DH=6,573,1139.0
A* cache ES,573,942.0
A* DH=12,574,1174.0
A* DH=18,574,1315.0
A* DH=6,574,1146.0
A* cache ES,574,943.0
A* DH=12,575,1179.0
A* DH=18,575,1319.0
A* DH=6,575,1149.0
A* cache ES,575,945.0
A* DH=12,576,1179.0
A* DH=18,576,1319.0
A* DH=6,576,1154.0
A* cache ES,576,947.0
A* DH=12,577,1180.0
A* DH=18,577,1323.0
A* DH=6,577,1159.0
A* cache ES,577,949.0
A* DH=12,578,1181.0
A* DH=18,578,1334.0
A* DH=6,578,1160.0
A* cache ES,578,950.0
A* DH=12,579,1183.0
A* DH=18,579,1335.0
A* DH=6,579,1163.0
A* cache ES,579,950.0
A* DH=12,580,1188.0
A* DH=18,580,1335.0
A* DH=6,580,1167.0
A* cache ES,580,952.0
A* DH=12,581,1189.0
A* DH=18,581,1336.0
A* DH=6,581,1170.0
A* cache ES,581,958.0
A* DH=12,582,1191.0
A* DH=18,582,1336.0
A* DH=6,582,1177.0
A* cache ES,582,960.0
A* DH=12,583,1191.0
A* DH=18,583,1338.0
A* DH=6,583,1180.0
A* cache ES,583,964.0
A* DH=12,584,1192.0
A* DH=18,584,1340.0
A* DH=6,584,1180.0
A* cache ES,584,964.0
A* DH=12,585,1193.0
A* DH=18,585,1347.0
A* DH=6,585,1181.0
A* cache ES,585,964.0
A* DH=12,586,1195.0
A* DH=18,586,1353.0
A* DH=6,586,1183.0
A* cache ES,586,966.0
A* DH=12,587,1198.0
A* DH=18,587,1357.0
A* DH=6,587,1184.0
A* cache ES,587,968.0
A* DH=12,588,1199.0
A* DH=18,588,1358.0
A* DH=6,588,1184.0
A* cache ES,588,969.0
A* DH=12,589,1199.0
A* DH=18,589,1363.0
A* DH=6,589,1192.0
A* cache ES,589,970.0
A* DH=12,590,1201.0
A* DH=18,590,1364.0
A* DH=6,590,1192.0
A* cache ES,590,971.0
A* DH=12,591,1205.0
A* DH=18,591,1368.0
A* DH=6,591,1192.0
A* cache ES,591,977.0
A* DH=12,592,1208.0
A* DH=18,592,1369.0
A* DH=6,592,1193.0
A* cache ES,592,979.0
A* DH=12,593,1209.0
A* DH=18,593,1370.0
A* DH=6,593,1194.0
A* cache ES,593,981.0
A* DH=12,594,1210.0
A* DH=18,594,1371.0
A* DH=6,594,1197.0
A* cache ES,594,983.0
A* DH=12,595,1210.0
A* DH=18,595,1374.0
A* DH=6,595,1199.0
A* cache ES,595,985.0
A* DH=12,596,1213.0
A* DH=18,596,1378.0
A* DH=6,596,1201.0
A* cache ES,596,987.0
A* DH=12,597,1214.0
A* DH=18,597,1386.0
A* DH=6,597,1206.0
A* cache ES,597,988.0
A* DH=12,598,1217.0
A* DH=18,598,1391.0
A* DH=6,598,1207.0
A* cache ES,598,989.0
A* DH=12,599,1220.0
A* DH=18,599,1392.0
A* DH=6,599,1208.0
A* cache ES,599,998.0
A* DH=12,600,1222.0
A* DH=18,600,1393.0
A* DH=6,600,1213.0
A* cache ES,600,1001.0
A* DH=12,601,1232.0
A* DH=18,601,1395.0
A* DH=6,601,1214.0
A* cache ES,601,1005.0
A* DH=12,602,1235.0
A* DH=18,602,1395.0
A* DH=6,602,1215.0
A* cache ES,602,1007.0
A* DH=12,603,1236.0
A* DH=18,603,1396.0
A* DH=6,603,1218.0
A* cache ES,603,1009.0
A* DH=12,604,1238.0
A* DH=18,604,1399.0
A* DH=6,604,1228.0
A* cache ES,604,1015.0
A* DH=12,605,1243.0
A* DH=18,605,1399.0
A* DH=6,605,1230.0
A* cache ES,605,1016.0
A* DH=12,606,1248.0
A* DH=18,606,1402.0
A* DH=6,606,1230.0
A* cache ES,606,1017.0
A* DH=12,607,1248.0
A* DH=18,607,1403.0
A* DH=6,607,1233.0
A* cache ES,607,1018.0
A* DH=12,608,1249.0
A* DH=18,608,1406.0
A* DH=6,608,1234.0
A* cache ES,608,1021.0
A* DH=12,609,1259.0
A* DH=18,609,1420.0
A* DH=6,609,1235.0
A* cache ES,609,1022.0
A* DH=12,610,1259.0
A* DH=18,610,1421.0
A* DH=6,610,1235.0
A* cache ES,610,1023.0
A* DH=12,611,1260.0
A* DH=18,611,1421.0
A* DH=6,611,1240.0
A* cache ES,611,1026.0
A* DH=12,612,1261.0
A* DH=18,612,1422.0
A* DH=6,612,1248.0
A* cache ES,612,1027.0
A* DH=12,613,1261.0
A* DH=18,613,1422.0
A* DH=6,613,1250.0
A* cache ES,613,1029.0
A* DH=12,614,1262.0
A* DH=18,614,1422.0
A* DH=6,614,1252.0
A* cache ES,614,1033.0
A* DH=12,615,1262.0
A* DH=18,615,1427.0
A* DH=6,615,1253.0
A* cache ES,615,1036.0
A* DH=12,616,1268.0
A* DH=18,616,1428.0
A* DH=6,616,1258.0
A* cache ES,616,1039.0
A* DH=12,617,1271.0
A* DH=18,617,1428.0
A* DH=6,617,1260.0
A* cache ES,617,1039.0
A* DH=12,618,1272.0
A* DH=18,618,1433.0
A* DH=6,618,1261.0
A* cache ES,618,1046.0
A* DH=12,619,1272.0
A* DH=18,619,1434.0
A* DH=6,619,1270.0
A* cache ES,619,1050.0
A* DH=12,620,1272.0
A* DH=18,620,1435.0
A* DH=6,620,1273.0
A* cache ES,620,1051.0
A* DH=12,621,1276.0
A* DH=18,621,1446.0
A* DH=6,621,1274.0
A* cache ES,621,1054.0
A* DH=12,622,1276.0
A* DH=18,622,1449.0
A* DH=6,622,1275.0
A* cache ES,622,1055.0
A* DH=12,623,1277.0
A* DH=18,623,1449.0
A* DH=6,623,1277.0
A* cache ES,623,1055.0
A* DH=12,624,1279.0
A* DH=18,624,1453.0
A* DH=6,624,1281.0
A* cache ES,624,1057.0
A* DH=12,625,1285.0
A* DH=18,625,1454.0
A* DH=6,625,1281.0
A* cache ES,625,1059.0
A* DH=12,626,1286.0
A* DH=18,626,1458.0
A* DH=6,626,1283.0
A* cache ES,626,1066.0
A* DH=12,627,1291.0
A* DH=18,627,1460.0
A* DH=6,627,1285.0
A* cache ES,627,1068.0
A* DH=12,628,1292.0
A* DH=18,628,1460.0
A* DH=6,628,1287.0
A* cache ES,628,1069.0
A* DH=12,629,1298.0
A* DH=18,629,1460.0
A* DH=6,629,1287.0
A* cache ES,629,1078.0
A* DH=12,630,1299.0
A* DH=18,630,1461.0
A* DH=6,630,1289.0
A* cache ES,630,1081.0
A* DH=12,631,1299.0
A* DH=18,631,1473.0
A* DH=6,631,1291.0
A* cache ES,631,1082.0
A* DH=12,632,1306.0
A* DH=18,632,1474.0
A* DH=6,632,1297.0
A* cache ES,632,1086.0
A* DH=12,633,1312.0
A* DH=18,633,1474.0
A* DH=6,633,1306.0
A* cache ES,633,1087.0
A* DH=12,634,1315.0
A* DH=18,634,1477.0
A* DH=6,634,1308.0
A* cache ES,634,1089.0
A* DH=12,635,1319.0
A* DH=18,635,1477.0
A* DH=6,635,1308.0
A* cache ES,635,1090.0
A* DH=12,636,1320.0
A* DH=18,636,1479.0
A* DH=6,636,1310.0
A* cache ES,636,1093.0
A* DH=12,637,1321.0
A* DH=18,637,1480.0
A* DH=6,637,1311.0
A* cache ES,637,1098.0
A* DH=12,638,1323.0
A* DH=18,638,1491.0
A* DH=6,638,1312.0
A* cache ES,638,1100.0
A* DH=12,639,1328.0
A* DH=18,639,1493.0
A* DH=6,639,1315.0
A* cache ES,639,1100.0
A* DH=12,640,1330.0
A* DH=18,640,1494.0
A* DH=6,640,1317.0
A* cache ES,640,1102.0
A* DH=12,641,1332.0
A* DH=18,641,1494.0
A* DH=6,641,1319.0
A* cache ES,641,1104.0
A* DH=12,642,1337.0
A* DH=18,642,1495.0
A* DH=6,642,1321.0
A* cache ES,642,1109.0
A* DH=12,643,1340.0
A* DH=18,643,1499.0
A* DH=6,643,1321.0
A* cache ES,643,1109.0
A* DH=12,644,1347.0
A* DH=18,644,1499.0
A* DH=6,644,1324.0
A* cache ES,644,1111.0
A* DH=12,645,1347.0
A* DH=18,645,1503.0
A* DH=6,645,1324.0
A* cache ES,645,1113.0
A* DH=12,646,1349.0
A* DH=18,646,1504.0
A* DH=6,646,1324.0
A* cache ES,646,1114.0
A* DH=12,647,1350.0
A* DH=18,647,1506.0
A* DH=6,647,1325.0
A* cache ES,647,1115.0
A* DH=12,648,1358.0
A* DH=18,648,1512.0
A* DH=6,648,1326.0
A* cache ES,648,1115.0
A* DH=12,649,1359.0
A* DH=18,649,1513.0
A* DH=6,649,1327.0
A* cache ES,649,1121.0
A* DH=12,650,1362.0
A* DH=18,650,1517.0
A* DH=6,650,1329.0
A* cache ES,650,1123.0
A* DH=12,651,1363.0
A* DH=18,651,1519.0
A* DH=6,651,1331.0
A* cache ES,651,1124.0
A* DH=12,652,1363.0
A* DH=18,652,1527.0
A* DH=6,652,1333.0
A* cache ES,652,1125.0
A* DH=12,653,1364.0
A* DH=18,653,1531.0
A* DH=6,653,1336.0
A* cache ES,653,1126.0
A* DH=12,654,1365.0
A* DH=18,654,1542.0
A* DH=6,654,1338.0
A* cache ES,654,1126.0
A* DH=12,655,1366.0
A* DH=18,655,1546.0
A* DH=6,655,1342.0
A* cache ES,655,1127.0
A* DH=12,656,1370.0
A* DH=18,656,1548.0
A* DH=6,656,1345.0
A* cache ES,656,1131.0
A* DH=12,657,1371.0
A* DH=18,657,1556.0
A* DH=6,657,1348.0
A* cache ES,657,1135.0
A* DH=12,658,1372.0
A* DH=18,658,1558.0
A* DH=6,658,1351.0
A* cache ES,658,1138.0
A* DH=12,659,1372.0
A* DH=18,659,1559.0
A* DH=6,659,1359.0
A* cache ES,659,1140.0
A* DH=12,660,1372.0
A* DH=18,660,1559.0
A* DH=6,660,1359.0
A* cache ES,660,1144.0
A* DH=12,661,1384.0
A* DH=18,661,1563.0
A* DH=6,661,1361.0
A* cache ES,661,1148.0
A* DH=12,662,1386.0
A* DH=18,662,1563.0
A* DH=6,662,1362.0
A* cache ES,662,1150.0
A* DH=12,663,1388.0
A* DH=18,663,1564.0
A* DH=6,663,1362.0
A* cache ES,663,1154.0
A* DH=12,664,1390.0
A* DH=18,664,1565.0
A* DH=6,664,1362.0
A* cache ES,664,1159.0
A* DH=12,665,1391.0
A* DH=18,665,1571.0
A* DH=6,665,1363.0
A* cache ES,665,1159.0
A* DH=12,666,1394.0
A* DH=18,666,1572.0
A* DH=6,666,1372.0
A* cache ES,666,1161.0
A* DH=12,667,1397.0
A* DH=18,667,1578.0
A* DH=6,667,1373.0
A* cache ES,667,1164.0
A* DH=12,668,1400.0
A* DH=18,668,1579.0
A* DH=6,668,1373.0
A* cache ES,668,1168.0
A* DH=12,669,1404.0
A* DH=18,669,1583.0
A* DH=6,669,1375.0
A* cache ES,669,1168.0
A* DH=12,670,1405.0
A* DH=18,670,1589.0
A* DH=6,670,1376.0
A* cache ES,670,1169.0
A* DH=12,671,1412.0
A* DH=18,671,1600.0
A* DH=6,671,1377.0
A* cache ES,671,1169.0
A* DH=12,672,1413.0
A* DH=18,672,1605.0
A* DH=6,672,1377.0
A* cache ES,672,1173.0
A* DH=12,673,1414.0
A* DH=18,673,1611.0
A* DH=6,673,1379.0
A* cache ES,673,1175.0
A* DH=12,674,1415.0
A* DH=18,674,1613.0
A* DH=6,674,1380.0
A* cache ES,674,1176.0
A* DH=12,675,1417.0
A* DH=18,675,1615.0
A* DH=6,675,1383.0
A* cache ES,675,1178.0
A* DH=12,676,1425.0
A* DH=18,676,1616.0
A* DH=6,676,1388.0
A* cache ES,676,1181.0
A* DH=12,677,1428.0
A* DH=18,677,1616.0
A* DH=6,677,1388.0
A* cache ES,677,1182.0
A* DH=12,678,1429.0
A* DH=18,678,1618.0
A* DH=6,678,1391.0
A* cache ES,678,1186.0
A* DH=12,679,1434.0
A* DH=18,679,1621.0
A* DH=6,679,1393.0
A* cache ES,679,1188.0
A* DH=12,680,1434.0
A* DH=18,680,1623.0
A* DH=6,680,1400.0
A* cache ES,680,1189.0
A* DH=12,681,1438.0
A* DH=18,681,1624.0
A* DH=6,681,1407.0
A* cache ES,681,1190.0
A* DH=12,682,1439.0
A* DH=18,682,1629.0
A* DH=6,682,1411.0
A* cache ES,682,1192.0
A* DH=12,683,1440.0
A* DH=18,683,1631.0
A* DH=6,683,1412.0
A* cache ES,683,1200.0
A* DH=12,684,1447.0
A* DH=18,684,1632.0
A* DH=6,684,1416.0
A* cache ES,684,1206.0
A* DH=12,685,1450.0
A* DH=18,685,1633.0
A* DH=6,685,1416.0
A* cache ES,685,1208.0
A* DH=12,686,1451.0
A* DH=18,686,1634.0
A* DH=6,686,1419.0
A* cache ES,686,1211.0
A* DH=12,687,1456.0
A* DH=18,687,1637.0
A* DH=6,687,1420.0
A* cache ES,687,1211.0
A* DH=12,688,1457.0
A* DH=18,688,1639.0
A* DH=6,688,1420.0
A* cache ES,688,1215.0
A* DH=12,689,1461.0
A* DH=18,689,1645.0
A* DH=6,689,1421.0
A* cache ES,689,1216.0
A* DH=12,690,1465.0
A* DH=18,690,1645.0
A* DH=6,690,1422.0
A* cache ES,690,1218.0
A* DH=12,691,1469.0
A* DH=18,691,1647.0
A* DH=6,691,1431.0
A* cache ES,691,1219.0
A* DH=12,692,1470.0
A* DH=18,692,1651.0
A* DH=6,692,1432.0
A* cache ES,692,1219.0
A* DH=12,693,1470.0
A* DH=18,693,1658.0
A* DH=6,693,1438.0
A* cache ES,693,1225.0
A* DH=12,694,1475.0
A* DH=18,694,1664.0
A* DH=6,694,1444.0
A* cache ES,694,1231.0
A* DH=12,695,1478.0
A* DH=18,695,1664.0
A* DH=6,695,1446.0
A* cache ES,695,1232.0
A* DH=12,696,1479.0
A* DH=18,696,1666.0
A* DH=6,696,1450.0
A* cache ES,696,1236.0
A* DH=12,697,1481.0
A* DH=18,697,1666.0
A* DH=6,697,1451.0
A* cache ES,697,1237.0
A* DH=12,698,1483.0
A* DH=18,698,1670.0
A* DH=6,698,1451.0
A* cache ES,698,1238.0
A* DH=12,699,1484.0
A* DH=18,699,1677.0
A* DH=6,699,1452.0
A* cache ES,699,1239.0
A* DH=12,700,1485.0
A* DH=18,700,1678.0
A* DH=6,700,1454.0
A* cache ES,700,1239.0
A* DH=12,701,1486.0
A* DH=18,701,1678.0
A* DH=6,701,1455.0
A* cache ES,701,1240.0
A* DH=12,702,1487.0
A* DH=18,702,1697.0
A* DH=6,702,1461.0
A* cache ES,702,1241.0
A* DH=12,703,1490.0
A* DH=18,703,1698.0
A* DH=6,703,1464.0
A* cache ES,703,1242.0
A* DH=12,704,1494.0
A* DH=18,704,1699.0
A* DH=6,704,1464.0
A* cache ES,704,1243.0
A* DH=12,705,1498.0
A* DH=18,705,1716.0
A* DH=6,705,1466.0
A* cache ES,705,1245.0
A* DH=12,706,1500.0
A* DH=18,706,1716.0
A* DH=6,706,1467.0
A* cache ES,706,1245.0
A* DH=12,707,1501.0
A* DH=18,707,1719.0
A* DH=6,707,1470.0
A* cache ES,707,1251.0
A* DH=12,708,1502.0
A* DH=18,708,1721.0
A* DH=6,708,1475.0
A* cache ES,708,1253.0
A* DH=12,709,1511.0
A* DH=18,709,1721.0
A* DH=6,709,1475.0
A* cache ES,709,1257.0
A* DH=12,710,1517.0
A* DH=18,710,1721.0
A* DH=6,710,1477.0
A* cache ES,710,1258.0
A* DH=12,711,1518.0
A* DH=18,711,1723.0
A* DH=6,711,1478.0
A* cache ES,711,1259.0
A* DH=12,712,1523.0
A* DH=18,712,1727.0
A* DH=6,712,1480.0
A* cache ES,712,1261.0
A* DH=12,713,1525.0
A* DH=18,713,1729.0
A* DH=6,713,1482.0
A* cache ES,713,1265.0
A* DH=12,714,1526.0
A* DH=18,714,1733.0
A* DH=6,714,1482.0
A* cache ES,714,1270.0
A* DH=12,715,1531.0
A* DH=18,715,1735.0
A* DH=6,715,1488.0
A* cache ES,715,1272.0
A* DH=12,716,1531.0
A* DH=18,716,1737.0
A* DH=6,716,1498.0
A* cache ES,716,1272.0
A* DH=12,717,1535.0
A* DH=18,717,1737.0
A* DH=6,717,1498.0
A* cache ES,717,1281.0
A* DH=12,718,1536.0
A* DH=18,718,1746.0
A* DH=6,718,1498.0
A* cache ES,718,1284.0
A* DH=12,719,1538.0
A* DH=18,719,1746.0
A* DH=6,719,1499.0
A* cache ES,719,1293.0
A* DH=12,720,1539.0
A* DH=18,720,1748.0
A* DH=6,720,1503.0
A* cache ES,720,1294.0
A* DH=12,721,1540.0
A* DH=18,721,1749.0
A* DH=6,721,1504.0
A* cache ES,721,1298.0
A* DH=12,722,1541.0
A* DH=18,722,1750.0
A* DH=6,722,1509.0
A* cache ES,722,1303.0
A* DH=12,723,1543.0
A* DH=18,723,1751.0
A* DH=6,723,1511.0
A* cache ES,723,1305.0
A* DH=12,724,1548.0
A* DH=18,724,1755.0
A* DH=6,724,1511.0
A* cache ES,724,1305.0
A* DH=12,725,1549.0
A* DH=18,725,1763.0
A* DH=6,725,1511.0
A* cache ES,725,1309.0
A* DH=12,726,1552.0
A* DH=18,726,1767.0
A* DH=6,726,1511.0
A* cache ES,726,1311.0
A* DH=12,727,1553.0
A* DH=18,727,1770.0
A* DH=6,727,1511.0
A* cache ES,727,1312.0
A* DH=12,728,1558.0
A* DH=18,728,1772.0
A* DH=6,728,1512.0
A* cache ES,728,1313.0
A* DH=12,729,1564.0
A* DH=18,729,1775.0
A* DH=6,729,1513.0
A* cache ES,729,1314.0
A* DH=12,730,1564.0
A* DH=18,730,1777.0
A* DH=6,730,1515.0
A* cache ES,730,1322.0
A* DH=12,731,1575.0
A* DH=18,731,1780.0
A* DH=6,731,1519.0
A* cache ES,731,1328.0
A* DH=12,732,1576.0
A* DH=18,732,1781.0
A* DH=6,732,1520.0
A* cache ES,732,1329.0
A* DH=12,733,1577.0
A* DH=18,733,1786.0
A* DH=6,733,1524.0
A* cache ES,733,1330.0
A* DH=12,734,1578.0
A* DH=18,734,1789.0
A* DH=6,734,1524.0
A* cache ES,734,1332.0
A* DH=12,735,1578.0
A* DH=18,735,1791.0
A* DH=6,735,1526.0
A* cache ES,735,1338.0
A* DH=12,736,1584.0
A* DH=18,736,1793.0
A* DH=6,736,1527.0
A* cache ES,736,1341.0
A* DH=12,737,1588.0
A* DH=18,737,1794.0
A* DH=6,737,1528.0
A* cache ES,737,1343.0
A* DH=12,738,1592.0
A* DH=18,738,1797.0
A* DH=6,738,1540.0
A* cache ES,738,1343.0
A* DH=12,739,1594.0
A* DH=18,739,1798.0
A* DH=6,739,1541.0
A* cache ES,739,1343.0
A* DH=12,740,1596.0
A* DH=18,740,1806.0
A* DH=6,740,1544.0
A* cache ES,740,1344.0
A* DH=12,741,1599.0
A* DH=18,741,1814.0
A* DH=6,741,1546.0
A* cache ES,741,1345.0
A* DH=12,742,1600.0
A* DH=18,742,1815.0
A* DH=6,742,1552.0
A* cache ES,742,1349.0
A* DH=12,743,1601.0
A* DH=18,743,1821.0
A* DH=6,743,1554.0
A* cache ES,743,1349.0
A* DH=12,744,1602.0
A* DH=18,744,1822.0
A* DH=6,744,1559.0
A* cache ES,744,1356.0
A* DH=12,745,1609.0
A* DH=18,745,1822.0
A* DH=6,745,1563.0
A* cache ES,745,1357.0
A* DH=12,746,1610.0
A* DH=18,746,1829.0
A* DH=6,746,1564.0
A* cache ES,746,1358.0
A* DH=12,747,1611.0
A* DH=18,747,1829.0
A* DH=6,747,1564.0
A* cache ES,747,1359.0
A* DH=12,748,1618.0
A* DH=18,748,1835.0
A* DH=6,748,1564.0
A* cache ES,748,1359.0
A* DH=12,749,1622.0
A* DH=18,749,1839.0
A* DH=6,749,1568.0
A* cache ES,749,1364.0
A* DH=12,750,1624.0
A* DH=18,750,1843.0
A* DH=6,750,1574.0
A* cache ES,750,1366.0
A* DH=12,751,1625.0
A* DH=18,751,1850.0
A* DH=6,751,1576.0
A* cache ES,751,1366.0
A* DH=12,752,1626.0
A* DH=18,752,1856.0
A* DH=6,752,1577.0
A* cache ES,752,1367.0
A* DH=12,753,1626.0
A* DH=18,753,1859.0
A* DH=6,753,1578.0
A* cache ES,753,1367.0
A* DH=12,754,1632.0
A* DH=18,754,1860.0
A* DH=6,754,1579.0
A* cache ES,754,1367.0
A* DH=12,755,1638.0
A* DH=18,755,1860.0
A* DH=6,755,1592.0
A* cache ES,755,1370.0
A* DH=12,756,1639.0
A* DH=18,756,1864.0
A* DH=6,756,1593.0
A* cache ES,756,1379.0
A* DH=12,757,1641.0
A* DH=18,757,1866.0
A* DH=6,757,1594.0
A* cache ES,757,1383.0
A* DH=12,758,1641.0
A* DH=18,758,1867.0
A* DH=6,758,1599.0
A* cache ES,758,1383.0
A* DH=12,759,1642.0
A* DH=18,759,1871.0
A* DH=6,759,1599.0
A* cache ES,759,1383.0
A* DH=12,760,1643.0
A* DH=18,760,1873.0
A* DH=6,760,1599.0
A* cache ES,760,1390.0
A* DH=12,761,1645.0
A* DH=18,761,1879.0
A* DH=6,761,1604.0
A* cache ES,761,1390.0
A* DH=12,762,1646.0
A* DH=18,762,1880.0
A* DH=6,762,1608.0
A* cache ES,762,1390.0
A* DH=12,763,1654.0
A* DH=18,763,1906.0
A* DH=6,763,1608.0
A* cache ES,763,1392.0
A* DH=12,764,1659.0
A* DH=18,764,1907.0
A* DH=6,764,1612.0
A* cache ES,764,1402.0
A* DH=12,765,1660.0
A* DH=18,765,1909.0
A* DH=6,765,1618.0
A* cache ES,765,1404.0
A* DH=12,766,1662.0
A* DH=18,766,1911.0
A* DH=6,766,1618.0
A* cache ES,766,1407.0
A* DH=12,767,1667.0
A* DH=18,767,1911.0
A* DH=6,767,1619.0
A* cache ES,767,1411.0
A* DH=12,768,1669.0
A* DH=18,768,1916.0
A* DH=6,768,1623.0
A* cache ES,768,1411.0
A* DH=12,769,1669.0
A* DH=18,769,1917.0
A* DH=6,769,1624.0
A* cache ES,769,1411.0
A* DH=12,770,1671.0
A* DH=18,770,1921.0
A* DH=6,770,1629.0
A* cache ES,770,1416.0
A* DH=12,771,1681.0
A* DH=18,771,1924.0
A* DH=6,771,1639.0
A* cache ES,771,1417.0
A* DH=12,772,1686.0
A* DH=18,772,1925.0
A* DH=6,772,1643.0
A* cache ES,772,1419.0
A* DH=12,773,1690.0
A* DH=18,773,1928.0
A* DH=6,773,1644.0
A* cache ES,773,1421.0
A* DH=12,774,1691.0
A* DH=18,774,1928.0
A* DH=6,774,1646.0
A* cache ES,774,1421.0
A* DH=12,775,1692.0
A* DH=18,775,1929.0
A* DH=6,775,1649.0
A* cache ES,775,1424.0
A* DH=12,776,1692.0
A* DH=18,776,1936.0
A* DH=6,776,1653.0
A* cache ES,776,1424.0
A* DH=12,777,1699.0
A* DH=18,777,1938.0
A* DH=6,777,1654.0
A* cache ES,777,1428.0
A* DH=12,778,1699.0
A* DH=18,778,1938.0
A* DH=6,778,1657.0
A* cache ES,778,1430.0
A* DH=12,779,1707.0
A* DH=18,779,1941.0
A* DH=6,779,1657.0
A* cache ES,779,1433.0
A* DH=12,780,1708.0
A* DH=18,780,1944.0
A* DH=6,780,1661.0
A* cache ES,780,1435.0
A* DH=12,781,1709.0
A* DH=18,781,1945.0
A* DH=6,781,1662.0
A* cache ES,781,1438.0
A* DH=12,782,1709.0
A* DH=18,782,1946.0
A* DH=6,782,1662.0
A* cache ES,782,1446.0
A* DH=12,783,1715.0
A* DH=18,783,1946.0
A* DH=6,783,1663.0
A* cache ES,783,1446.0
A* DH=12,784,1718.0
A* DH=18,784,1953.0
A* DH=6,784,1664.0
A* cache ES,784,1447.0
A* DH=12,785,1718.0
A* DH=18,785,1956.0
A* DH=6,785,1666.0
A* cache ES,785,1449.0
A* DH=12,786,1724.0
A* DH=18,786,1957.0
A* DH=6,786,1670.0
A* cache ES,786,1450.0
A* DH=12,787,1726.0
A* DH=18,787,1959.0
A* DH=6,787,1671.0
A* cache ES,787,1452.0
A* DH=12,788,1729.0
A* DH=18,788,1962.0
A* DH=6,788,1677.0
A* cache ES,788,1454.0
A* DH=12,789,1733.0
A* DH=18,789,1965.0
A* DH=6,789,1681.0
A* cache ES,789,1456.0
A* DH=12,790,1734.0
A* DH=18,790,1974.0
A* DH=6,790,1683.0
A* cache ES,790,1459.0
A* DH=12,791,1735.0
A* DH=18,791,1980.0
A* DH=6,791,1685.0
A* cache ES,791,1462.0
A* DH=12,792,1737.0
A* DH=18,792,1984.0
A* DH=6,792,1687.0
A* cache ES,792,1467.0
A* DH=12,793,1738.0
A* DH=18,793,1989.0
A* DH=6,793,1690.0
A* cache ES,793,1469.0
A* DH=12,794,1740.0
A* DH=18,794,1992.0
A* DH=6,794,1690.0
A* cache ES,794,1472.0
A* DH=12,795,1744.0
A* DH=18,795,1992.0
A* DH=6,795,1692.0
A* cache ES,795,1475.0
A* DH=12,796,1749.0
A* DH=18,796,1993.0
A* DH=6,796,1695.0
A* cache ES,796,1476.0
A* DH=12,797,1750.0
A* DH=18,797,1995.0
A* DH=6,797,1696.0
A* cache ES,797,1479.0
A* DH=12,798,1759.0
A* DH=18,798,1998.0
A* DH=6,798,1703.0
A* cache ES,798,1481.0
A* DH=12,799,1761.0
A* DH=18,799,1998.0
A* DH=6,799,1705.0
A* cache ES,799,1495.0
A* DH=12,800,1766.0
A* DH=18,800,2001.0
A* DH=6,800,1714.0
A* cache ES,800,1497.0
A* DH=12,801,1767.0
A* DH=18,801,2002.0
A* DH=6,801,1716.0
A* cache ES,801,1501.0
A* DH=12,802,1771.0
A* DH=18,802,2002.0
A* DH=6,802,1717.0
A* cache ES,802,1502.0
A* DH=12,803,1773.0
A* DH=18,803,2005.0
A* DH=6,803,1720.0
A* cache ES,803,1506.0
A* DH=12,804,1780.0
A* DH=18,804,2007.0
A* DH=6,804,1722.0
A* cache ES,804,1508.0
A* DH=12,805,1781.0
A* DH=18,805,2013.0
A* DH=6,805,1725.0
A* cache ES,805,1509.0
A* DH=12,806,1784.0
A* DH=18,806,2025.0
A* DH=6,806,1730.0
A* cache ES,806,1515.0
A* DH=12,807,1787.0
A* DH=18,807,2027.0
A* DH=6,807,1734.0
A* cache ES,807,1523.0
A* DH=12,808,1794.0
A* DH=18,808,2040.0
A* DH=6,808,1739.0
A* cache ES,808,1531.0
A* DH=12,809,1796.0
A* DH=18,809,2045.0
A* DH=6,809,1742.0
A* cache ES,809,1533.0
A* DH=12,810,1797.0
A* DH=18,810,2049.0
A* DH=6,810,1749.0
A* cache ES,810,1533.0
A* DH=12,811,1799.0
A* DH=18,811,2065.0
A* DH=6,811,1752.0
A* cache ES,811,1535.0
A* DH=12,812,1801.0
A* DH=18,812,2073.0
A* DH=6,812,1755.0
A* cache ES,812,1535.0
A* DH=12,813,1804.0
A* DH=18,813,2074.0
A* DH=6,813,1757.0
A* cache ES,813,1537.0
A* DH=12,814,1808.0
A* DH=18,814,2074.0
A* DH=6,814,1758.0
A* cache ES,814,1539.0
A* DH=12,815,1809.0
A* DH=18,815,2075.0
A* DH=6,815,1760.0
A* cache ES,815,1540.0
A* DH=12,816,1811.0
A* DH=18,816,2077.0
A* DH=6,816,1769.0
A* cache ES,816,1547.0
A* DH=12,817,1811.0
A* DH=18,817,2089.0
A* DH=6,817,1787.0
A* cache ES,817,1549.0
A* DH=12,818,1817.0
A* DH=18,818,2092.0
A* DH=6,818,1790.0
A* cache ES,818,1552.0
A* DH=12,819,1820.0
A* DH=18,819,2097.0
A* DH=6,819,1790.0
A* cache ES,819,1556.0
A* DH=12,820,1822.0
A* DH=18,820,2098.0
A* DH=6,820,1798.0
A* cache ES,820,1562.0
A* DH=12,821,1831.0
A* DH=18,821,2102.0
A* DH=6,821,1800.0
A* cache ES,821,1566.0
A* DH=12,822,1836.0
A* DH=18,822,2104.0
A* DH=6,822,1803.0
A* cache ES,822,1566.0
A* DH=12,823,1839.0
A* DH=18,823,2105.0
A* DH=6,823,1807.0
A* cache ES,823,1575.0
A* DH=12,824,1845.0
A* DH=18,824,2110.0
A* DH=6,824,1808.0
A* cache ES,824,1576.0
A* DH=12,825,1845.0
A* DH=18,825,2114.0
A* DH=6,825,1823.0
A* cache ES,825,1578.0
A* DH=12,826,1850.0
A* DH=18,826,2116.0
A* DH=6,826,1828.0
A* cache ES,826,1583.0
A* DH=12,827,1867.0
A* DH=18,827,2119.0
A* DH=6,827,1830.0
A* cache ES,827,1584.0
A* DH=12,828,1876.0
A* DH=18,828,2130.0
A* DH=6,828,1835.0
A* cache ES,828,1589.0
A* DH=12,829,1877.0
A* DH=18,829,2135.0
A* DH=6,829,1838.0
A* cache ES,829,1601.0
A* DH=12,830,1879.0
A* DH=18,830,2137.0
A* DH=6,830,1838.0
A* cache ES,830,1610.0
A* DH=12,831,1883.0
A* DH=18,831,2140.0
A* DH=6,831,1842.0
A* cache ES,831,1612.0
A* DH=12,832,1886.0
A* DH=18,832,2140.0
A* DH=6,832,1843.0
A* cache ES,832,1615.0
A* DH=12,833,1898.0
A* DH=18,833,2149.0
A* DH=6,833,1843.0
A* cache ES,833,1621.0
A* DH=12,834,1903.0
A* DH=18,834,2151.0
A* DH=6,834,1846.0
A* cache ES,834,1626.0
A* DH=12,835,1904.0
A* DH=18,835,2154.0
A* DH=6,835,1849.0
A* cache ES,835,1629.0
A* DH=12,836,1905.0
A* DH=18,836,2156.0
A* DH=6,836,1850.0
A* cache ES,836,1631.0
A* DH=12,837,1916.0
A* DH=18,837,2157.0
A* DH=6,837,1854.0
A* cache ES,837,1631.0
A* DH=12,838,1923.0
A* DH=18,838,2163.0
A* DH=6,838,1855.0
A* cache ES,838,1639.0
A* DH=12,839,1923.0
A* DH=18,839,2169.0
A* DH=6,839,1857.0
A* cache ES,839,1640.0
A* DH=12,840,1933.0
A* DH=18,840,2181.0
A* DH=6,840,1863.0
A* cache ES,840,1641.0
A* DH=12,841,1934.0
A* DH=18,841,2181.0
A* DH=6,841,1863.0
A* cache ES,841,1650.0
A* DH=12,842,1939.0
A* DH=18,842,2189.0
A* DH=6,842,1870.0
A* cache ES,842,1651.0
A* DH=12,843,1941.0
A* DH=18,843,2191.0
A* DH=6,843,1872.0
A* cache ES,843,1656.0
A* DH=12,844,1942.0
A* DH=18,844,2199.0
A* DH=6,844,1872.0
A* cache ES,844,1660.0
A* DH=12,845,1948.0
A* DH=18,845,2199.0
A* DH=6,845,1873.0
A* cache ES,845,1665.0
A* DH=12,846,1955.0
A* DH=18,846,2215.0
A* DH=6,846,1873.0
A* cache ES,846,1666.0
A* DH=12,847,1955.0
A* DH=18,847,2217.0
A* DH=6,847,1874.0
A* cache ES,847,1667.0
A* DH=12,848,1957.0
A* DH=18,848,2219.0
A* DH=6,848,1877.0
A* cache ES,848,1669.0
A* DH=12,849,1966.0
A* DH=18,849,2219.0
A* DH=6,849,1878.0
A* cache ES,849,1669.0
A* DH=12,850,1974.0
A* DH=18,850,2229.0
A* DH=6,850,1878.0
A* cache ES,850,1690.0
A* DH=12,851,1975.0
A* DH=18,851,2251.0
A* DH=6,851,1881.0
A* cache ES,851,1695.0
A* DH=12,852,1975.0
A* DH=18,852,2255.0
A* DH=6,852,1886.0
A* cache ES,852,1698.0
A* DH=12,853,1980.0
A* DH=18,853,2257.0
A* DH=6,853,1892.0
A* cache ES,853,1698.0
A* DH=12,854,1983.0
A* DH=18,854,2258.0
A* DH=6,854,1896.0
A* cache ES,854,1698.0
A* DH=12,855,1983.0
A* DH=18,855,2261.0
A* DH=6,855,1902.0
A* cache ES,855,1703.0
A* DH=12,856,1991.0
A* DH=18,856,2268.0
A* DH=6,856,1902.0
A* cache ES,856,1704.0
A* DH=12,857,1994.0
A* DH=18,857,2269.0
A* DH=6,857,1910.0
A* cache ES,857,1712.0
A* DH=12,858,1994.0
A* DH=18,858,2276.0
A* DH=6,858,1913.0
A* cache ES,858,1713.0
A* DH=12,859,1997.0
A* DH=18,859,2279.0
A* DH=6,859,1914.0
A* cache ES,859,1721.0
A* DH=12,860,1998.0
A* DH=18,860,2291.0
A* DH=6,860,1915.0
A* cache ES,860,1723.0
A* DH=12,861,2001.0
A* DH=18,861,2293.0
A* DH=6,861,1916.0
A* cache ES,861,1728.0
A* DH=12,862,2010.0
A* DH=18,862,2294.0
A* DH=6,862,1916.0
A* cache ES,862,1735.0
A* DH=12,863,2011.0
A* DH=18,863,2297.0
A* DH=6,863,1919.0
A* cache ES,863,1736.0
A* DH=12,864,2011.0
A* DH=18,864,2301.0
A* DH=6,864,1919.0
A* cache ES,864,1736.0
A* DH=12,865,2014.0
A* DH=18,865,2307.0
A* DH=6,865,1924.0
A* cache ES,865,1741.0
A* DH=12,866,2023.0
A* DH=18,866,2310.0
A* DH=6,866,1927.0
A* cache ES,866,1743.0
A* DH=12,867,2023.0
A* DH=18,867,2312.0
A* DH=6,867,1929.0
A* cache ES,867,1750.0
A* DH=12,868,2024.0
A* DH=18,868,2319.0
A* DH=6,868,1929.0
A* cache ES,868,1753.0
A* DH=12,869,2030.0
A* DH=18,869,2329.0
A* DH=6,869,1937.0
A* cache ES,869,1758.0
A* DH=12,870,2036.0
A* DH=18,870,2331.0
A* DH=6,870,1942.0
A* cache ES,870,1768.0
A* DH=12,871,2042.0
A* DH=18,871,2337.0
A* DH=6,871,1947.0
A* cache ES,871,1769.0
A* DH=12,872,2043.0
A* DH=18,872,2338.0
A* DH=6,872,1950.0
A* cache ES,872,1770.0
A* DH=12,873,2047.0
A* DH=18,873,2339.0
A* DH=6,873,1953.0
A* cache ES,873,1776.0
A* DH=12,874,2049.0
A* DH=18,874,2340.0
A* DH=6,874,1957.0
A* cache ES,874,1778.0
A* DH=12,875,2059.0
A* DH=18,875,2341.0
A* DH=6,875,1966.0
A* cache ES,875,1778.0
A* DH=12,876,2061.0
A* DH=18,876,2342.0
A* DH=6,876,1978.0
A* cache ES,876,1779.0
A* DH=12,877,2066.0
A* DH=18,877,2345.0
A* DH=6,877,1979.0
A* cache ES,877,1779.0
A* DH=12,878,2076.0
A* DH=18,878,2345.0
A* DH=6,878,1987.0
A* cache ES,878,1786.0
A* DH=12,879,2081.0
A* DH=18,879,2354.0
A* DH=6,879,1988.0
A* cache ES,879,1798.0
A* DH=12,880,2086.0
A* DH=18,880,2355.0
A* DH=6,880,1995.0
A* cache ES,880,1801.0
A* DH=12,881,2088.0
A* DH=18,881,2358.0
A* DH=6,881,1996.0
A* cache ES,881,1809.0
A* DH=12,882,2090.0
A* DH=18,882,2365.0
A* DH=6,882,1998.0
A* cache ES,882,1812.0
A* DH=12,883,2090.0
A* DH=18,883,2366.0
A* DH=6,883,2005.0
A* cache ES,883,1812.0
A* DH=12,884,2102.0
A* DH=18,884,2376.0
A* DH=6,884,2006.0
A* cache ES,884,1821.0
A* DH=12,885,2104.0
A* DH=18,885,2376.0
A* DH=6,885,2006.0
A* cache ES,885,1825.0
A* DH=12,886,2108.0
A* DH=18,886,2379.0
A* DH=6,886,2013.0
A* cache ES,886,1827.0
A* DH=12,887,2109.0
A* DH=18,887,2381.0
A* DH=6,887,2023.0
A* cache ES,887,1831.0
A* DH=12,888,2109.0
A* DH=18,888,2381.0
A* DH=6,888,2024.0
A* cache ES,888,1832.0
A* DH=12,889,2110.0
A* DH=18,889,2383.0
A* DH=6,889,2024.0
A* cache ES,889,1835.0
A* DH=12,890,2116.0
A* DH=18,890,2393.0
A* DH=6,890,2027.0
A* cache ES,890,1844.0
A* DH=12,891,2123.0
A* DH=18,891,2403.0
A* DH=6,891,2028.0
A* cache ES,891,1844.0
A* DH=12,892,2126.0
A* DH=18,892,2405.0
A* DH=6,892,2029.0
A* cache ES,892,1847.0
A* DH=12,893,2130.0
A* DH=18,893,2406.0
A* DH=6,893,2029.0
A* cache ES,893,1853.0
A* DH=12,894,2134.0
A* DH=18,894,2415.0
A* DH=6,894,2031.0
A* cache ES,894,1862.0
A* DH=12,895,2138.0
A* DH=18,895,2427.0
A* DH=6,895,2031.0
A* cache ES,895,1863.0
A* DH=12,896,2141.0
A* DH=18,896,2429.0
A* DH=6,896,2036.0
A* cache ES,896,1878.0
A* DH=12,897,2145.0
A* DH=18,897,2433.0
A* DH=6,897,2043.0
A* cache ES,897,1882.0
A* DH=12,898,2150.0
A* DH=18,898,2433.0
A* DH=6,898,2048.0
A* cache ES,898,1887.0
A* DH=12,899,2150.0
A* DH=18,899,2434.0
A* DH=6,899,2052.0
A* cache ES,899,1889.0
A* DH=12,900,2159.0
A* DH=18,900,2434.0
A* DH=6,900,2056.0
A* cache ES,900,1889.0
A* DH=12,901,2162.0
A* DH=18,901,2435.0
A* DH=6,901,2059.0
A* cache ES,901,1890.0
A* DH=12,902,2171.0
A* DH=18,902,2448.0
A* DH=6,902,2061.0
A* cache ES,902,1890.0
A* DH=12,903,2175.0
A* DH=18,903,2449.0
A* DH=6,903,2061.0
A* cache ES,903,1893.0
A* DH=12,904,2188.0
A* DH=18,904,2451.0
A* DH=6,904,2064.0
A* cache ES,904,1896.0
A* DH=12,905,2189.0
A* DH=18,905,2452.0
A* DH=6,905,2064.0
A* cache ES,905,1900.0
A* DH=12,906,2193.0
A* DH=18,906,2453.0
A* DH=6,906,2073.0
A* cache ES,906,1901.0
A* DH=12,907,2193.0
A* DH=18,907,2453.0
A* DH=6,907,2077.0
A* cache ES,907,1905.0
A* DH=12,908,2193.0
A* DH=18,908,2465.0
A* DH=6,908,2083.0
A* cache ES,908,1912.0
A* DH=12,909,2195.0
A* DH=18,909,2483.0
A* DH=6,909,2085.0
A* cache ES,909,1916.0
A* DH=12,910,2196.0
A* DH=18,910,2499.0
A* DH=6,910,2085.0
A* cache ES,910,1916.0
A* DH=12,911,2196.0
A* DH=18,911,2499.0
A* DH=6,911,2089.0
A* cache ES,911,1917.0
A* DH=12,912,2198.0
A* DH=18,912,2513.0
A* DH=6,912,2089.0
A* cache ES,912,1920.0
A* DH=12,913,2200.0
A* DH=18,913,2514.0
A* DH=6,913,2090.0
A* cache ES,913,1923.0
A* DH=12,914,2203.0
A* DH=18,914,2517.0
A* DH=6,914,2099.0
A* cache ES,914,1930.0
A* DH=12,915,2207.0
A* DH=18,915,2517.0
A* DH=6,915,2100.0
A* cache ES,915,1932.0
A* DH=12,916,2210.0
A* DH=18,916,2518.0
A* DH=6,916,2102.0
A* cache ES,916,1934.0
A* DH=12,917,2210.0
A* DH=18,917,2532.0
A* DH=6,917,2105.0
A* cache ES,917,1934.0
A* DH=12,918,2213.0
A* DH=18,918,2532.0
A* DH=6,918,2106.0
A* cache ES,918,1935.0
A* DH=12,919,2218.0
A* DH=18,919,2539.0
A* DH=6,919,2111.0
A* cache ES,919,1937.0
A* DH=12,920,2228.0
A* DH=18,920,2539.0
A* DH=6,920,2117.0
A* cache ES,920,1940.0
A* DH=12,921,2236.0
A* DH=18,921,2545.0
A* DH=6,921,2125.0
A* cache ES,921,1941.0
A* DH=12,922,2244.0
A* DH=18,922,2553.0
A* DH=6,922,2126.0
A* cache ES,922,1942.0
A* DH=12,923,2248.0
A* DH=18,923,2560.0
A* DH=6,923,2126.0
A* cache ES,923,1942.0
A* DH=12,924,2251.0
A* DH=18,924,2561.0
A* DH=6,924,2135.0
A* cache ES,924,1946.0
A* DH=12,925,2253.0
A* DH=18,925,2566.0
A* DH=6,925,2136.0
A* cache ES,925,1956.0
A* DH=12,926,2254.0
A* DH=18,926,2567.0
A* DH=6,926,2137.0
A* cache ES,926,1959.0
A* DH=12,927,2262.0
A* DH=18,927,2568.0
A* DH=6,927,2139.0
A* cache ES,927,1960.0
A* DH=12,928,2265.0
A* DH=18,928,2577.0
A* DH=6,928,2151.0
A* cache ES,928,1968.0
A* DH=12,929,2265.0
A* DH=18,929,2585.0
A* DH=6,929,2160.0
A* cache ES,929,1969.0
A* DH=12,930,2274.0
A* DH=18,930,2588.0
A* DH=6,930,2160.0
A* cache ES,930,1971.0
A* DH=12,931,2280.0
A* DH=18,931,2594.0
A* DH=6,931,2161.0
A* cache ES,931,1972.0
A* DH=12,932,2299.0
A* DH=18,932,2597.0
A* DH=6,932,2175.0
A* cache ES,932,1973.0
A* DH=12,933,2302.0
A* DH=18,933,2599.0
A* DH=6,933,2189.0
A* cache ES,933,1975.0
A* DH=12,934,2310.0
A* DH=18,934,2599.0
A* DH=6,934,2193.0
A* cache ES,934,1976.0
A* DH=12,935,2316.0
A* DH=18,935,2599.0
A* DH=6,935,2194.0
A* cache ES,935,1980.0
A* DH=12,936,2320.0
A* DH=18,936,2601.0
A* DH=6,936,2196.0
A* cache ES,936,1981.0
A* DH=12,937,2328.0
A* DH=18,937,2609.0
A* DH=6,937,2203.0
A* cache ES,937,1988.0
A* DH=12,938,2332.0
A* DH=18,938,2609.0
A* DH=6,938,2209.0
A* cache ES,938,1990.0
A* DH=12,939,2334.0
A* DH=18,939,2612.0
A* DH=6,939,2210.0
A* cache ES,939,1992.0
A* DH=12,940,2337.0
A* DH=18,940,2617.0
A* DH=6,940,2213.0
A* cache ES,940,1993.0
A* DH=12,941,2341.0
A* DH=18,941,2618.0
A* DH=6,941,2214.0
A* cache ES,941,2001.0
A* DH=12,942,2342.0
A* DH=18,942,2623.0
A* DH=6,942,2215.0
A* cache ES,942,2002.0
A* DH=12,943,2346.0
A* DH=18,943,2638.0
A* DH=6,943,2224.0
A* cache ES,943,2003.0
A* DH=12,944,2348.0
A* DH=18,944,2645.0
A* DH=6,944,2229.0
A* cache ES,944,2006.0
A* DH=12,945,2350.0
A* DH=18,945,2648.0
A* DH=6,945,2230.0
A* cache ES,945,2006.0
A* DH=12,946,2351.0
A* DH=18,946,2668.0
A* DH=6,946,2237.0
A* cache ES,946,2009.0
A* DH=12,947,2356.0
A* DH=18,947,2672.0
A* DH=6,947,2244.0
A* cache ES,947,2011.0
A* DH=12,948,2356.0
A* DH=18,948,2679.0
A* DH=6,948,2244.0
A* cache ES,948,2012.0
A* DH=12,949,2366.0
A* DH=18,949,2688.0
A* DH=6,949,2244.0
A* cache ES,949,2018.0
A* DH=12,950,2374.0
A* DH=18,950,2692.0
A* DH=6,950,2249.0
A* cache ES,950,2020.0
A* DH=12,951,2374.0
A* DH=18,951,2693.0
A* DH=6,951,2252.0
A* cache ES,951,2021.0
A* DH=12,952,2389.0
A* DH=18,952,2694.0
A* DH=6,952,2252.0
A* cache ES,952,2025.0
A* DH=12,953,2389.0
A* DH=18,953,2694.0
A* DH=6,953,2253.0
A* cache ES,953,2035.0
A* DH=12,954,2391.0
A* DH=18,954,2695.0
A* DH=6,954,2264.0
A* cache ES,954,2037.0
A* DH=12,955,2399.0
A* DH=18,955,2700.0
A* DH=6,955,2266.0
A* cache ES,955,2044.0
A* DH=12,956,2409.0
A* DH=18,956,2701.0
A* DH=6,956,2269.0
A* cache ES,956,2046.0
A* DH=12,957,2410.0
A* DH=18,957,2709.0
A* DH=6,957,2272.0
A* cache ES,957,2053.0
A* DH=12,958,2411.0
A* DH=18,958,2716.0
A* DH=6,958,2273.0
A* cache ES,958,2056.0
A* DH=12,959,2413.0
A* DH=18,959,2720.0
A* DH=6,959,2279.0
A* cache ES,959,2062.0
A* DH=12,960,2419.0
A* DH=18,960,2726.0
A* DH=6,960,2279.0
A* cache ES,960,2066.0
A* DH=12,961,2430.0
A* DH=18,961,2726.0
A* DH=6,961,2288.0
A* cache ES,961,2067.0
A* DH=12,962,2433.0
A* DH=18,962,2738.0
A* DH=6,962,2294.0
A* cache ES,962,2073.0
A* DH=12,963,2437.0
A* DH=18,963,2744.0
A* DH=6,963,2296.0
A* cache ES,963,2073.0
A* DH=12,964,2437.0
A* DH=18,964,2745.0
A* DH=6,964,2298.0
A* cache ES,964,2073.0
A* DH=12,965,2447.0
A* DH=18,965,2749.0
A* DH=6,965,2301.0
A* cache ES,965,2085.0
A* DH=12,966,2448.0
A* DH=18,966,2752.0
A* DH=6,966,2312.0
A* cache ES,966,2087.0
A* DH=12,967,2450.0
A* DH=18,967,2762.0
A* DH=6,967,2313.0
A* cache ES,967,2099.0
A* DH=12,968,2453.0
A* DH=18,968,2767.0
A* DH=6,968,2315.0
A* cache ES,968,2108.0
A* DH=12,969,2454.0
A* DH=18,969,2777.0
A* DH=6,969,2320.0
A* cache ES,969,2109.0
A* DH=12,970,2459.0
A* DH=18,970,2782.0
A* DH=6,970,2322.0
A* cache ES,970,2126.0
A* DH=12,971,2462.0
A* DH=18,971,2790.0
A* DH=6,971,2324.0
A* cache ES,971,2130.0
A* DH=12,972,2464.0
A* DH=18,972,2793.0
A* DH=6,972,2327.0
A* cache ES,972,2133.0
A* DH=12,973,2470.0
A* DH=18,973,2796.0
A* DH=6,973,2330.0
A* cache ES,973,2133.0
A* DH=12,974,2475.0
A* DH=18,974,2798.0
A* DH=6,974,2331.0
A* cache ES,974,2137.0
A* DH=12,975,2478.0
A* DH=18,975,2803.0
A* DH=6,975,2333.0
A* cache ES,975,2138.0
A* DH=12,976,2496.0
A* DH=18,976,2808.0
A* DH=6,976,2335.0
A* cache ES,976,2139.0
A* DH=12,977,2498.0
A* DH=18,977,2831.0
A* DH=6,977,2336.0
A* cache ES,977,2140.0
A* DH=12,978,2503.0
A* DH=18,978,2838.0
A* DH=6,978,2344.0
A* cache ES,978,2145.0
A* DH=12,979,2504.0
A* DH=18,979,2838.0
A* DH=6,979,2345.0
A* cache ES,979,2154.0
A* DH=12,980,2506.0
A* DH=18,980,2868.0
A* DH=6,980,2350.0
A* cache ES,980,2157.0
A* DH=12,981,2509.0
A* DH=18,981,2868.0
A* DH=6,981,2355.0
A* cache ES,981,2157.0
A* DH=12,982,2513.0
A* DH=18,982,2872.0
A* DH=6,982,2356.0
A* cache ES,982,2161.0
A* DH=12,983,2518.0
A* DH=18,983,2874.0
A* DH=6,983,2366.0
A* cache ES,983,2168.0
A* DH=12,984,2525.0
A* DH=18,984,2878.0
A* DH=6,984,2371.0
A* cache ES,984,2168.0
A* DH=12,985,2535.0
A* DH=18,985,2879.0
A* DH=6,985,2371.0
A* cache ES,985,2171.0
A* DH=12,986,2544.0
A* DH=18,986,2888.0
A* DH=6,986,2382.0
A* cache ES,986,2173.0
A* DH=12,987,2550.0
A* DH=18,987,2895.0
A* DH=6,987,2384.0
A* cache ES,987,2180.0
A* DH=12,988,2552.0
A* DH=18,988,2897.0
A* DH=6,988,2384.0
A* cache ES,988,2189.0
A* DH=12,989,2553.0
A* DH=18,989,2904.0
A* DH=6,989,2386.0
A* cache ES,989,2191.0
A* DH=12,990,2557.0
A* DH=18,990,2907.0
A* DH=6,990,2387.0
A* cache ES,990,2193.0
A* DH=12,991,2562.0
A* DH=18,991,2907.0
A* DH=6,991,2389.0
A* cache ES,991,2198.0
A* DH=12,992,2565.0
A* DH=18,992,2909.0
A* DH=6,992,2394.0
A* cache ES,992,2198.0
A* DH=12,993,2566.0
A* DH=18,993,2914.0
A* DH=6,993,2397.0
A* cache ES,993,2206.0
A* DH=12,994,2567.0
A* DH=18,994,2920.0
A* DH=6,994,2399.0
A* cache ES,994,2211.0
A* DH=12,995,2567.0
A* DH=18,995,2920.0
A* DH=6,995,2401.0
A* cache ES,995,2211.0
A* DH=12,996,2570.0
A* DH=18,996,2924.0
A* DH=6,996,2401.0
A* cache ES,996,2213.0
A* DH=12,997,2571.0
A* DH=18,997,2925.0
A* DH=6,997,2404.0
A* cache ES,997,2216.0
A* DH=12,998,2573.0
A* DH=18,998,2928.0
A* DH=6,998,2415.0
A* cache ES,998,2216.0
A* DH=12,999,2576.0
A* DH=18,999,2932.0
A* DH=6,999,2420.0
A* cache ES,999,2216.0
A* DH=12,1000,2592.0
A* DH=18,1000,2940.0
A* DH=6,1000,2422.0
A* cache ES,1000,2225.0
A* DH=12,1001,2599.0
A* DH=18,1001,2944.0
A* DH=6,1001,2423.0
A* cache ES,1001,2225.0
A* DH=12,1002,2602.0
A* DH=18,1002,2949.0
A* DH=6,1002,2426.0
A* cache ES,1002,2231.0
A* DH=12,1003,2609.0
A* DH=18,1003,2958.0
A* DH=6,1003,2435.0
A* cache ES,1003,2248.0
A* DH=12,1004,2615.0
A* DH=18,1004,2961.0
A* DH=6,1004,2441.0
A* cache ES,1004,2260.0
A* DH=12,1005,2618.0
A* DH=18,1005,2970.0
A* DH=6,1005,2453.0
A* cache ES,1005,2273.0
A* DH=12,1006,2626.0
A* DH=18,1006,2970.0
A* DH=6,1006,2460.0
A* cache ES,1006,2282.0
A* DH=12,1007,2635.0
A* DH=18,1007,2975.0
A* DH=6,1007,2466.0
A* cache ES,1007,2294.0
A* DH=12,1008,2638.0
A* DH=18,1008,2978.0
A* DH=6,1008,2466.0
A* cache ES,1008,2297.0
A* DH=12,1009,2640.0
A* DH=18,1009,2983.0
A* DH=6,1009,2476.0
A* cache ES,1009,2306.0
A* DH=12,1010,2641.0
A* DH=18,1010,2993.0
A* DH=6,1010,2486.0
A* cache ES,1010,2309.0
A* DH=12,1011,2644.0
A* DH=18,1011,2994.0
A* DH=6,1011,2497.0
A* cache ES,1011,2313.0
A* DH=12,1012,2651.0
A* DH=18,1012,2998.0
A* DH=6,1012,2500.0
A* cache ES,1012,2322.0
A* DH=12,1013,2653.0
A* DH=18,1013,2998.0
A* DH=6,1013,2502.0
A* cache ES,1013,2330.0
A* DH=12,1014,2662.0
A* DH=18,1014,3006.0
A* DH=6,1014,2528.0
A* cache ES,1014,2332.0
A* DH=12,1015,2662.0
A* DH=18,1015,3007.0
A* DH=6,1015,2531.0
A* cache ES,1015,2334.0
A* DH=12,1016,2667.0
A* DH=18,1016,3012.0
A* DH=6,1016,2542.0
A* cache ES,1016,2357.0
A* DH=12,1017,2667.0
A* DH=18,1017,3013.0
A* DH=6,1017,2543.0
A* cache ES,1017,2358.0
A* DH=12,1018,2674.0
A* DH=18,1018,3017.0
A* DH=6,1018,2559.0
A* cache ES,1018,2358.0
A* DH=12,1019,2679.0
A* DH=18,1019,3023.0
A* DH=6,1019,2561.0
A* cache ES,1019,2359.0
A* DH=12,1020,2686.0
A* DH=18,1020,3023.0
A* DH=6,1020,2567.0
A* cache ES,1020,2362.0
A* DH=12,1021,2693.0
A* DH=18,1021,3036.0
A* DH=6,1021,2568.0
A* cache ES,1021,2366.0
A* DH=12,1022,2694.0
A* DH=18,1022,3042.0
A* DH=6,1022,2571.0
A* cache ES,1022,2370.0
A* DH=12,1023,2700.0
A* DH=18,1023,3043.0
A* DH=6,1023,2574.0
A* cache ES,1023,2371.0
A* DH=12,1024,2701.0
A* DH=18,1024,3049.0
A* DH=6,1024,2574.0
A* cache ES,1024,2374.0
A* DH=12,1025,2710.0
A* DH=18,1025,3062.0
A* DH=6,1025,2585.0
A* cache ES,1025,2381.0
A* DH=12,1026,2715.0
A* DH=18,1026,3063.0
A* DH=6,1026,2586.0
A* cache ES,1026,2381.0
A* DH=12,1027,2716.0
A* DH=18,1027,3065.0
A* DH=6,1027,2592.0
A* cache ES,1027,2381.0
A* DH=12,1028,2716.0
A* DH=18,1028,3079.0
A* DH=6,1028,2602.0
A* cache ES,1028,2384.0
A* DH=12,1029,2719.0
A* DH=18,1029,3089.0
A* DH=6,1029,2613.0
A* cache ES,1029,2389.0
A* DH=12,1030,2719.0
A* DH=18,1030,3100.0
A* DH=6,1030,2613.0
A* cache ES,1030,2416.0
A* DH=12,1031,2720.0
A* DH=18,1031,3102.0
A* DH=6,1031,2615.0
A* cache ES,1031,2417.0
A* DH=12,1032,2725.0
A* DH=18,1032,3110.0
A* DH=6,1032,2619.0
A* cache ES,1032,2418.0
A* DH=12,1033,2726.0
A* DH=18,1033,3118.0
A* DH=6,1033,2627.0
A* cache ES,1033,2420.0
A* DH=12,1034,2740.0
A* DH=18,1034,3127.0
A* DH=6,1034,2632.0
A* cache ES,1034,2439.0
A* DH=12,1035,2741.0
A* DH=18,1035,3127.0
A* DH=6,1035,2641.0
A* cache ES,1035,2442.0
A* DH=12,1036,2746.0
A* DH=18,1036,3132.0
A* DH=6,1036,2659.0
A* cache ES,1036,2447.0
A* DH=12,1037,2750.0
A* DH=18,1037,3134.0
A* DH=6,1037,2665.0
A* cache ES,1037,2447.0
A* DH=12,1038,2751.0
A* DH=18,1038,3141.0
A* DH=6,1038,2681.0
A* cache ES,1038,2449.0
A* DH=12,1039,2758.0
A* DH=18,1039,3143.0
A* DH=6,1039,2686.0
A* cache ES,1039,2452.0
A* DH=12,1040,2760.0
A* DH=18,1040,3143.0
A* DH=6,1040,2693.0
A* cache ES,1040,2456.0
A* DH=12,1041,2762.0
A* DH=18,1041,3144.0
A* DH=6,1041,2701.0
A* cache ES,1041,2458.0
A* DH=12,1042,2777.0
A* DH=18,1042,3155.0
A* DH=6,1042,2710.0
A* cache ES,1042,2459.0
A* DH=12,1043,2779.0
A* DH=18,1043,3164.0
A* DH=6,1043,2712.0
A* cache ES,1043,2461.0
A* DH=12,1044,2786.0
A* DH=18,1044,3167.0
A* DH=6,1044,2713.0
A* cache ES,1044,2472.0
A* DH=12,1045,2790.0
A* DH=18,1045,3176.0
A* DH=6,1045,2741.0
A* cache ES,1045,2472.0
A* DH=12,1046,2805.0
A* DH=18,1046,3178.0
A* DH=6,1046,2742.0
A* cache ES,1046,2481.0
A* DH=12,1047,2807.0
A* DH=18,1047,3178.0
A* DH=6,1047,2748.0
A* cache ES,1047,2484.0
A* DH=12,1048,2812.0
A* DH=18,1048,3182.0
A* DH=6,1048,2750.0
A* cache ES,1048,2498.0
A* DH=12,1049,2815.0
A* DH=18,1049,3198.0
A* DH=6,1049,2755.0
A* cache ES,1049,2499.0
A* DH=12,1050,2817.0
A* DH=18,1050,3200.0
A* DH=6,1050,2766.0
A* cache ES,1050,2512.0
A* DH=12,1051,2831.0
A* DH=18,1051,3206.0
A* DH=6,1051,2774.0
A* cache ES,1051,2515.0
A* DH=12,1052,2846.0
A* DH=18,1052,3210.0
A* DH=6,1052,2774.0
A* cache ES,1052,2521.0
A* DH=12,1053,2849.0
A* DH=18,1053,3224.0
A* DH=6,1053,2776.0
A* cache ES,1053,2528.0
A* DH=12,1054,2856.0
A* DH=18,1054,3225.0
A* DH=6,1054,2776.0
A* cache ES,1054,2532.0
A* DH=12,1055,2861.0
A* DH=18,1055,3226.0
A* DH=6,1055,2782.0
A* cache ES,1055,2534.0
A* DH=12,1056,2866.0
A* DH=18,1056,3226.0
A* DH=6,1056,2792.0
A* cache ES,1056,2534.0
A* DH=12,1057,2872.0
A* DH=18,1057,3227.0
A* DH=6,1057,2794.0
A* cache ES,1057,2535.0
A* DH=12,1058,2882.0
A* DH=18,1058,3237.0
A* DH=6,1058,2802.0
A* cache ES,1058,2540.0
A* DH=12,1059,2891.0
A* DH=18,1059,3244.0
A* DH=6,1059,2818.0
A* cache ES,1059,2549.0
A* DH=12,1060,2898.0
A* DH=18,1060,3250.0
A* DH=6,1060,2825.0
A* cache ES,1060,2552.0
A* DH=12,1061,2902.0
A* DH=18,1061,3251.0
A* DH=6,1061,2828.0
A* cache ES,1061,2557.0
A* DH=12,1062,2903.0
A* DH=18,1062,3269.0
A* DH=6,1062,2840.0
A* cache ES,1062,2560.0
A* DH=12,1063,2920.0
A* DH=18,1063,3272.0
A* DH=6,1063,2859.0
A* cache ES,1063,2568.0
A* DH=12,1064,2924.0
A* DH=18,1064,3272.0
A* DH=6,1064,2860.0
A* cache ES,1064,2569.0
A* DH=12,1065,2929.0
A* DH=18,1065,3278.0
A* DH=6,1065,2860.0
A* cache ES,1065,2574.0
A* DH=12,1066,2939.0
A* DH=18,1066,3290.0
A* DH=6,1066,2863.0
A* cache ES,1066,2580.0
A* DH=12,1067,2963.0
A* DH=18,1067,3297.0
A* DH=6,1067,2865.0
A* cache ES,1067,2583.0
A* DH=12,1068,2963.0
A* DH=18,1068,3315.0
A* DH=6,1068,2880.0
A* cache ES,1068,2587.0
A* DH=12,1069,2973.0
A* DH=18,1069,3319.0
A* DH=6,1069,2883.0
A* cache ES,1069,2599.0
A* DH=12,1070,2974.0
A* DH=18,1070,3323.0
A* DH=6,1070,2893.0
A* cache ES,1070,2634.0
A* DH=12,1071,2984.0
A* DH=18,1071,3336.0
A* DH=6,1071,2900.0
A* cache ES,1071,2641.0
A* DH=12,1072,3005.0
A* DH=18,1072,3369.0
A* DH=6,1072,2905.0
A* cache ES,1072,2667.0
A* DH=12,1073,3021.0
A* DH=18,1073,3387.0
A* DH=6,1073,2917.0
A* cache ES,1073,2679.0
A* DH=12,1074,3022.0
A* DH=18,1074,3393.0
A* DH=6,1074,2920.0
A* cache ES,1074,2686.0
A* DH=12,1075,3024.0
A* DH=18,1075,3397.0
A* DH=6,1075,2924.0
A* cache ES,1075,2689.0
A* DH=12,1076,3082.0
A* DH=18,1076,3409.0
A* DH=6,1076,2924.0
A* cache ES,1076,2689.0
A* DH=12,1077,3089.0
A* DH=18,1077,3419.0
A* DH=6,1077,2933.0
A* cache ES,1077,2694.0
A* DH=12,1078,3096.0
A* DH=18,1078,3467.0
A* DH=6,1078,2936.0
A* cache ES,1078,2714.0
A* DH=12,1079,3096.0
A* DH=18,1079,3487.0
A* DH=6,1079,2937.0
A* cache ES,1079,2727.0
A* DH=12,1080,3097.0
A* DH=18,1080,3488.0
A* DH=6,1080,2945.0
A* cache ES,1080,2730.0
A* DH=12,1081,3100.0
A* DH=18,1081,3491.0
A* DH=6,1081,2959.0
A* cache ES,1081,2745.0
A* DH=12,1082,3100.0
A* DH=18,1082,3503.0
A* DH=6,1082,2974.0
A* cache ES,1082,2751.0
A* DH=12,1083,3105.0
A* DH=18,1083,3507.0
A* DH=6,1083,2981.0
A* cache ES,1083,2771.0
A* DH=12,1084,3112.0
A* DH=18,1084,3523.0
A* DH=6,1084,2989.0
A* cache ES,1084,2775.0
A* DH=12,1085,3117.0
A* DH=18,1085,3544.0
A* DH=6,1085,2996.0
A* cache ES,1085,2797.0
A* DH=12,1086,3117.0
A* DH=18,1086,3568.0
A* DH=6,1086,3014.0
A* cache ES,1086,2799.0
A* DH=12,1087,3123.0
A* DH=18,1087,3572.0
A* DH=6,1087,3024.0
A* cache ES,1087,2803.0
A* DH=12,1088,3135.0
A* DH=18,1088,3588.0
A* DH=6,1088,3026.0
A* cache ES,1088,2811.0
A* DH=12,1089,3155.0
A* DH=18,1089,3613.0
A* DH=6,1089,3058.0
A* cache ES,1089,2812.0
A* DH=12,1090,3160.0
A* DH=18,1090,3617.0
A* DH=6,1090,3066.0
A* cache ES,1090,2818.0
A* DH=12,1091,3168.0
A* DH=18,1091,3626.0
A* DH=6,1091,3080.0
A* cache ES,1091,2822.0
A* DH=12,1092,3169.0
A* DH=18,1092,3631.0
A* DH=6,1092,3083.0
A* cache ES,1092,2826.0
A* DH=12,1093,3177.0
A* DH=18,1093,3639.0
A* DH=6,1093,3089.0
A* cache ES,1093,2835.0
A* DH=12,1094,3200.0
A* DH=18,1094,3642.0
A* DH=6,1094,3103.0
A* cache ES,1094,2845.0
A* DH=12,1095,3219.0
A* DH=18,1095,3672.0
A* DH=6,1095,3108.0
A* cache ES,1095,2852.0
A* DH=12,1096,3220.0
A* DH=18,1096,3692.0
A* DH=6,1096,3115.0
A* cache ES,1096,2860.0
A* DH=12,1097,3225.0
A* DH=18,1097,3723.0
A* DH=6,1097,3150.0
A* cache ES,1097,2889.0
A* DH=12,1098,3238.0
A* DH=18,1098,3752.0
A* DH=6,1098,3157.0
A* cache ES,1098,2890.0
A* DH=12,1099,3254.0
A* DH=18,1099,3761.0
A* DH=6,1099,3179.0
A* cache ES,1099,2890.0
A* DH=12,1100,3255.0
A* DH=18,1100,3765.0
A* DH=6,1100,3180.0
A* cache ES,1100,2895.0
A* DH=12,1101,3256.0
A* DH=18,1101,3767.0
A* DH=6,1101,3193.0
A* cache ES,1101,2897.0
A* DH=12,1102,3258.0
A* DH=18,1102,3780.0
A* DH=6,1102,3203.0
A* cache ES,1102,2909.0
A* DH=12,1103,3267.0
A* DH=18,1103,3783.0
A* DH=6,1103,3206.0
A* cache ES,1103,2918.0
A* DH=12,1104,3275.0
A* DH=18,1104,3789.0
A* DH=6,1104,3231.0
A* cache ES,1104,2938.0
A* DH=12,1105,3281.0
A* DH=18,1105,3824.0
A* DH=6,1105,3257.0
A* cache ES,1105,2942.0
A* DH=12,1106,3287.0
A* DH=18,1106,3826.0
A* DH=6,1106,3269.0
A* cache ES,1106,2948.0
A* DH=12,1107,3296.0
A* DH=18,1107,3833.0
A* DH=6,1107,3280.0
A* cache ES,1107,2948.0
A* DH=12,1108,3297.0
A* DH=18,1108,3833.0
A* DH=6,1108,3283.0
A* cache ES,1108,2953.0
A* DH=12,1109,3312.0
A* DH=18,1109,3834.0
A* DH=6,1109,3297.0
A* cache ES,1109,2960.0
A* DH=12,1110,3319.0
A* DH=18,1110,3842.0
A* DH=6,1110,3333.0
A* cache ES,1110,2980.0
A* DH=12,1111,3322.0
A* DH=18,1111,3846.0
A* DH=6,1111,3335.0
A* cache ES,1111,3000.0
A* DH=12,1112,3346.0
A* DH=18,1112,3860.0
A* DH=6,1112,3352.0
A* cache ES,1112,3006.0
A* DH=12,1113,3356.0
A* DH=18,1113,3867.0
A* DH=6,1113,3355.0
A* cache ES,1113,3043.0
A* DH=12,1114,3386.0
A* DH=18,1114,3872.0
A* DH=6,1114,3393.0
A* cache ES,1114,3050.0
A* DH=12,1115,3400.0
A* DH=18,1115,3886.0
A* DH=6,1115,3419.0
A* cache ES,1115,3061.0
A* DH=12,1116,3402.0
A* DH=18,1116,3916.0
A* DH=6,1116,3419.0
A* cache ES,1116,3081.0
A* DH=12,1117,3405.0
A* DH=18,1117,3939.0
A* DH=6,1117,3428.0
A* cache ES,1117,3083.0
A* DH=12,1118,3420.0
A* DH=18,1118,3949.0
A* DH=6,1118,3442.0
A* cache ES,1118,3085.0
A* DH=12,1119,3429.0
A* DH=18,1119,3960.0
A* DH=6,1119,3447.0
A* cache ES,1119,3097.0
A* DH=12,1120,3434.0
A* DH=18,1120,3999.0
A* DH=6,1120,3448.0
A* cache ES,1120,3123.0
A* DH=12,1121,3437.0
A* DH=18,1121,4001.0
A* DH=6,1121,3449.0
A* cache ES,1121,3168.0
A* DH=12,1122,3438.0
A* DH=18,1122,4003.0
A* DH=6,1122,3458.0
A* cache ES,1122,3176.0
A* DH=12,1123,3441.0
A* DH=18,1123,4007.0
A* DH=6,1123,3469.0
A* cache ES,1123,3190.0
A* DH=12,1124,3460.0
A* DH=18,1124,4019.0
A* DH=6,1124,3493.0
A* cache ES,1124,3192.0
A* DH=12,1125,3477.0
A* DH=18,1125,4025.0
A* DH=6,1125,3509.0
A* cache ES,1125,3197.0
A* DH=12,1126,3482.0
A* DH=18,1126,4042.0
A* DH=6,1126,3509.0
A* cache ES,1126,3198.0
A* DH=12,1127,3531.0
A* DH=18,1127,4052.0
A* DH=6,1127,3515.0
A* cache ES,1127,3222.0
A* DH=12,1128,3544.0
A* DH=18,1128,4064.0
A* DH=6,1128,3516.0
A* cache ES,1128,3226.0
A* DH=12,1129,3552.0
A* DH=18,1129,4069.0
A* DH=6,1129,3531.0
A* cache ES,1129,3231.0
A* DH=12,1130,3560.0
A* DH=18,1130,4073.0
A* DH=6,1130,3532.0
A* cache ES,1130,3240.0
A* DH=12,1131,3568.0
A* DH=18,1131,4077.0
A* DH=6,1131,3582.0
A* cache ES,1131,3243.0
A* DH=12,1132,3571.0
A* DH=18,1132,4080.0
A* DH=6,1132,3598.0
A* cache ES,1132,3259.0
A* DH=12,1133,3580.0
A* DH=18,1133,4102.0
A* DH=6,1133,3607.0
A* cache ES,1133,3297.0
A* DH=12,1134,3592.0
A* DH=18,1134,4122.0
A* DH=6,1134,3642.0
A* cache ES,1134,3334.0
A* DH=12,1135,3645.0
A* DH=18,1135,4136.0
A* DH=6,1135,3666.0
A* cache ES,1135,3338.0
A* DH=12,1136,3687.0
A* DH=18,1136,4150.0
A* DH=6,1136,3667.0
A* cache ES,1136,3349.0
A* DH=12,1137,3744.0
A* DH=18,1137,4155.0
A* DH=6,1137,3713.0
A* cache ES,1137,3353.0
A* DH=12,1138,3775.0
A* DH=18,1138,4161.0
A* DH=6,1138,3713.0
A* cache ES,1138,3366.0
A* DH=12,1139,3779.0
A* DH=18,1139,4240.0
A* DH=6,1139,3748.0
A* cache ES,1139,3383.0
A* DH=12,1140,3787.0
A* DH=18,1140,4251.0
A* DH=6,1140,3770.0
A* cache ES,1140,3391.0
A* DH=12,1141,3803.0
A* DH=18,1141,4254.0
A* DH=6,1141,3779.0
A* cache ES,1141,3392.0
A* DH=12,1142,3838.0
A* DH=18,1142,4269.0
A* DH=6,1142,3798.0
A* cache ES,1142,3393.0
A* DH=12,1143,3880.0
A* DH=18,1143,4276.0
A* DH=6,1143,3816.0
A* cache ES,1143,3404.0
A* DH=12,1144,3882.0
A* DH=18,1144,4309.0
A* DH=6,1144,3817.0
A* cache ES,1144,3441.0
A* DH=12,1145,3898.0
A* DH=18,1145,4310.0
A* DH=6,1145,3820.0
A* cache ES,1145,3443.0
A* DH=12,1146,3910.0
A* DH=18,1146,4372.0
A* DH=6,1146,3829.0
A* cache ES,1146,3468.0
A* DH=12,1147,3934.0
A* DH=18,1147,4394.0
A* DH=6,1147,3838.0
A* cache ES,1147,3475.0
A* DH=12,1148,3952.0
A* DH=18,1148,4404.0
A* DH=6,1148,3865.0
A* cache ES,1148,3522.0
A* DH=12,1149,3956.0
A* DH=18,1149,4459.0
A* DH=6,1149,3876.0
A* cache ES,1149,3522.0
A* DH=12,1150,3989.0
A* DH=18,1150,4475.0
A* DH=6,1150,3884.0
A* cache ES,1150,3564.0
A* DH=12,1151,4004.0
A* DH=18,1151,4496.0
A* DH=6,1151,3892.0
A* cache ES,1151,3614.0
A* DH=12,1152,4044.0
A* DH=18,1152,4531.0
A* DH=6,1152,3892.0
A* cache ES,1152,3630.0
A* DH=12,1153,4052.0
A* DH=18,1153,4577.0
A* DH=6,1153,3927.0
A* cache ES,1153,3640.0
A* DH=12,1154,4064.0
A* DH=18,1154,4602.0
A* DH=6,1154,3954.0
A* cache ES,1154,3741.0
A* DH=12,1155,4091.0
A* DH=18,1155,4612.0
A* DH=6,1155,3973.0
A* cache ES,1155,3754.0
A* DH=12,1156,4109.0
A* DH=18,1156,4614.0
A* DH=6,1156,3990.0
A* cache ES,1156,3762.0
A* DH=12,1157,4125.0
A* DH=18,1157,4645.0
A* DH=6,1157,4009.0
A* cache ES,1157,3790.0
A* DH=12,1158,4133.0
A* DH=18,1158,4676.0
A* DH=6,1158,4035.0
A* cache ES,1158,3835.0
A* DH=12,1159,4162.0
A* DH=18,1159,4766.0
A* DH=6,1159,4091.0
A* cache ES,1159,3837.0
A* DH=12,1160,4196.0
A* DH=18,1160,4796.0
A* DH=6,1160,4110.0
A* cache ES,1160,3849.0
A* DH=12,1161,4211.0
A* DH=18,1161,4799.0
A* DH=6,1161,4113.0
A* cache ES,1161,3893.0
A* DH=12,1162,4329.0
A* DH=18,1162,4851.0
A* DH=6,1162,4130.0
A* cache ES,1162,3899.0
A* DH=12,1163,4336.0
A* DH=18,1163,4898.0
A* DH=6,1163,4132.0
A* cache ES,1163,3912.0
A* DH=12,1164,4434.0
A* DH=18,1164,4902.0
A* DH=6,1164,4242.0
A* cache ES,1164,3939.0
A* DH=12,1165,4464.0
A* DH=18,1165,4987.0
A* DH=6,1165,4270.0
A* cache ES,1165,3996.0
A* DH=12,1166,4490.0
A* DH=18,1166,5040.0
A* DH=6,1166,4379.0
A* cache ES,1166,4042.0
A* DH=12,1167,4501.0
A* DH=18,1167,5118.0
A* DH=6,1167,4403.0
A* cache ES,1167,4060.0
A* DH=12,1168,4513.0
A* DH=18,1168,5132.0
A* DH=6,1168,4495.0
A* cache ES,1168,4105.0
A* DH=12,1169,4562.0
A* DH=18,1169,5133.0
A* DH=6,1169,4501.0
A* cache ES,1169,4116.0
A* DH=12,1170,4578.0
A* DH=18,1170,5150.0
A* DH=6,1170,4573.0
A* cache ES,1170,4173.0
A* DH=12,1171,4586.0
A* DH=18,1171,5177.0
A* DH=6,1171,4576.0
A* cache ES,1171,4203.0
A* DH=12,1172,4660.0
A* DH=18,1172,5228.0
A* DH=6,1172,4746.0
A* cache ES,1172,4230.0
A* DH=12,1173,4694.0
A* DH=18,1173,5240.0
A* DH=6,1173,4874.0
A* cache ES,1173,4251.0
A* DH=12,1174,5019.0
A* DH=18,1174,5279.0
A* DH=6,1174,4949.0
A* cache ES,1174,4383.0
A* DH=12,1175,5063.0
A* DH=18,1175,5638.0
A* DH=6,1175,5036.0
A* cache ES,1175,4435.0
A* DH=12,1176,5093.0
A* DH=18,1176,5760.0
A* DH=6,1176,5072.0
A* cache ES,1176,4461.0
A* DH=12,1177,5150.0
A* DH=18,1177,5830.0
A* DH=6,1177,5176.0
A* cache ES,1177,4668.0
A* DH=12,1178,5237.0
A* DH=18,1178,5876.0
A* DH=6,1178,5251.0
A* cache ES,1178,4716.0
A* DH=12,1179,5267.0
A* DH=18,1179,6215.0
A* DH=6,1179,5287.0
A* cache ES,1179,4915.0
