%!PS-Adobe-3.0 EPSF-3.0
%%Title: /home/koldar/git/UNIBS_dynamicPathFinding/DynamicPathFindingTestsCockpit/build.optimal/images/0004|ar#[15,15]@mp#dustwallowkeys.map@opr#[0,95]@pk#RANDOM_RATIO_AREA@pm#MULTIPLY@pr#[3,3]@sf#dustwallowkeys.map.scen@ua#False@ub#False|image_infos:image_type#single_time_over_query|.eps
%%Creator: matplotlib version 3.0.2, http://matplotlib.org/
%%CreationDate: Fri Feb 22 23:49:56 2019
%%Orientation: portrait
%%BoundingBox: -132 215 744 576
%%EndComments
%%BeginProlog
/mpldict 8 dict def
mpldict begin
/m { moveto } bind def
/l { lineto } bind def
/r { rlineto } bind def
/c { curveto } bind def
/cl { closepath } bind def
/box {
m
1 index 0 r
0 exch r
neg 0 r
cl
} bind def
/clipbox {
box
clip
newpath
} bind def
%!PS-Adobe-3.0 Resource-Font
%%Title: DejaVu Sans
%%Copyright: Copyright (c) 2003 by Bitstream, Inc. All Rights Reserved. Copyright (c) 2006 by Tavmjong Bah. All Rights Reserved. DejaVu changes are in public domain 
%%Creator: Converted from TrueType to type 3 by PPR
25 dict begin
/_d{bind def}bind def
/_m{moveto}_d
/_l{lineto}_d
/_cl{closepath eofill}_d
/_c{curveto}_d
/_sc{7 -1 roll{setcachedevice}{pop pop pop pop pop pop}ifelse}_d
/_e{exec}_d
/FontName /DejaVuSans def
/PaintType 0 def
/FontMatrix[.001 0 0 .001 0 0]def
/FontBBox[-1021 -463 1793 1232]def
/FontType 3 def
/Encoding [ /space /numbersign /parenleft /parenright /asterisk /comma /zero /one /two /three /four /five /six /seven /eight /nine /equal /A /D /E /F /H /I /L /M /O /P /Q /R /S /T /U /Y /bracketleft /bracketright /underscore /a /b /c /d /e /f /g /h /i /l /m /n /o /p /q /r /s /t /u /v /y ] def
/FontInfo 10 dict dup begin
/FamilyName (DejaVu Sans) def
/FullName (DejaVu Sans) def
/Notice (Copyright (c) 2003 by Bitstream, Inc. All Rights Reserved. Copyright (c) 2006 by Tavmjong Bah. All Rights Reserved. DejaVu changes are in public domain ) def
/Weight (Book) def
/Version (Version 2.35) def
/ItalicAngle 0.0 def
/isFixedPitch false def
/UnderlinePosition -130 def
/UnderlineThickness 90 def
end readonly def
/CharStrings 58 dict dup begin
/.notdef 0 def
/space{318 0 0 0 0 0 _sc
}_d
/numbersign{{838 0 77 0 761 718 _sc
511 440 _m
369 440 _l
328 277 _l
471 277 _l
511 440 _l
438 718 _m
387 515 _l
530 515 _l
581 718 _l
659 718 _l
609 515 _l
761 515 _l
761 440 _l
590 440 _l
550 277 _l
705 277 _l
705 202 _l
531 202 _l
480 0 _l
402 0 _l
452 202 _l
309 202 _l
259 0 _l
180 0 _l
231 202 _l
77 202 _l
77 277 _l
249 277 _l
290 440 _l
133 440 _l
}_e{133 515 _l
309 515 _l
359 718 _l
438 718 _l
_cl}_e}_d
/parenleft{390 0 86 -131 310 759 _sc
310 759 _m
266 683 234 609 213 536 _c
191 463 181 389 181 314 _c
181 238 191 164 213 91 _c
234 17 266 -56 310 -131 _c
232 -131 _l
183 -54 146 20 122 94 _c
98 168 86 241 86 314 _c
86 386 98 459 122 533 _c
146 607 182 682 232 759 _c
310 759 _l
_cl}_d
/parenright{390 0 80 -131 304 759 _sc
80 759 _m
158 759 _l
206 682 243 607 267 533 _c
291 459 304 386 304 314 _c
304 241 291 168 267 94 _c
243 20 206 -54 158 -131 _c
80 -131 _l
123 -56 155 17 177 91 _c
198 164 209 238 209 314 _c
209 389 198 463 177 536 _c
155 609 123 683 80 759 _c
_cl}_d
/asterisk{500 0 30 286 470 742 _sc
470 609 _m
295 514 _l
470 419 _l
442 371 _l
278 470 _l
278 286 _l
222 286 _l
222 470 _l
58 371 _l
30 419 _l
205 514 _l
30 609 _l
58 657 _l
222 558 _l
222 742 _l
278 742 _l
278 558 _l
442 657 _l
470 609 _l
_cl}_d
/comma{318 0 77 -115 220 124 _sc
117 124 _m
220 124 _l
220 40 _l
140 -115 _l
77 -115 _l
117 40 _l
117 124 _l
_cl}_d
/zero{636 0 66 -13 570 742 _sc
318 664 _m
267 664 229 639 203 589 _c
177 539 165 464 165 364 _c
165 264 177 189 203 139 _c
229 89 267 64 318 64 _c
369 64 407 89 433 139 _c
458 189 471 264 471 364 _c
471 464 458 539 433 589 _c
407 639 369 664 318 664 _c
318 742 _m
399 742 461 709 505 645 _c
548 580 570 486 570 364 _c
570 241 548 147 505 83 _c
461 19 399 -13 318 -13 _c
236 -13 173 19 130 83 _c
87 147 66 241 66 364 _c
66 486 87 580 130 645 _c
173 709 236 742 318 742 _c
_cl}_d
/one{636 0 110 0 544 729 _sc
124 83 _m
285 83 _l
285 639 _l
110 604 _l
110 694 _l
284 729 _l
383 729 _l
383 83 _l
544 83 _l
544 0 _l
124 0 _l
124 83 _l
_cl}_d
/two{{636 0 73 0 536 742 _sc
192 83 _m
536 83 _l
536 0 _l
73 0 _l
73 83 _l
110 121 161 173 226 239 _c
290 304 331 346 348 365 _c
380 400 402 430 414 455 _c
426 479 433 504 433 528 _c
433 566 419 598 392 622 _c
365 646 330 659 286 659 _c
255 659 222 653 188 643 _c
154 632 117 616 78 594 _c
78 694 _l
118 710 155 722 189 730 _c
223 738 255 742 284 742 _c
}_e{359 742 419 723 464 685 _c
509 647 532 597 532 534 _c
532 504 526 475 515 449 _c
504 422 484 390 454 354 _c
446 344 420 317 376 272 _c
332 227 271 164 192 83 _c
_cl}_e}_d
/three{{636 0 76 -13 556 742 _sc
406 393 _m
453 383 490 362 516 330 _c
542 298 556 258 556 212 _c
556 140 531 84 482 45 _c
432 6 362 -13 271 -13 _c
240 -13 208 -10 176 -4 _c
144 1 110 10 76 22 _c
76 117 _l
103 101 133 89 166 81 _c
198 73 232 69 268 69 _c
330 69 377 81 409 105 _c
441 129 458 165 458 212 _c
458 254 443 288 413 312 _c
383 336 341 349 287 349 _c
}_e{202 349 _l
202 430 _l
291 430 _l
339 430 376 439 402 459 _c
428 478 441 506 441 543 _c
441 580 427 609 401 629 _c
374 649 336 659 287 659 _c
260 659 231 656 200 650 _c
169 644 135 635 98 623 _c
98 711 _l
135 721 170 729 203 734 _c
235 739 266 742 296 742 _c
370 742 429 725 473 691 _c
517 657 539 611 539 553 _c
539 513 527 479 504 451 _c
481 423 448 403 406 393 _c
_cl}_e}_d
/four{636 0 49 0 580 729 _sc
378 643 _m
129 254 _l
378 254 _l
378 643 _l
352 729 _m
476 729 _l
476 254 _l
580 254 _l
580 172 _l
476 172 _l
476 0 _l
378 0 _l
378 172 _l
49 172 _l
49 267 _l
352 729 _l
_cl}_d
/five{{636 0 77 -13 549 729 _sc
108 729 _m
495 729 _l
495 646 _l
198 646 _l
198 467 _l
212 472 227 476 241 478 _c
255 480 270 482 284 482 _c
365 482 429 459 477 415 _c
525 370 549 310 549 234 _c
549 155 524 94 475 51 _c
426 8 357 -13 269 -13 _c
238 -13 207 -10 175 -6 _c
143 -1 111 6 77 17 _c
77 116 _l
106 100 136 88 168 80 _c
199 72 232 69 267 69 _c
}_e{323 69 368 83 401 113 _c
433 143 450 183 450 234 _c
450 284 433 324 401 354 _c
368 384 323 399 267 399 _c
241 399 214 396 188 390 _c
162 384 135 375 108 363 _c
108 729 _l
_cl}_e}_d
/six{{636 0 70 -13 573 742 _sc
330 404 _m
286 404 251 388 225 358 _c
199 328 186 286 186 234 _c
186 181 199 139 225 109 _c
251 79 286 64 330 64 _c
374 64 409 79 435 109 _c
461 139 474 181 474 234 _c
474 286 461 328 435 358 _c
409 388 374 404 330 404 _c
526 713 _m
526 623 _l
501 635 476 644 451 650 _c
425 656 400 659 376 659 _c
310 659 260 637 226 593 _c
}_e{192 549 172 482 168 394 _c
187 422 211 444 240 459 _c
269 474 301 482 336 482 _c
409 482 467 459 509 415 _c
551 371 573 310 573 234 _c
573 159 550 99 506 54 _c
462 9 403 -13 330 -13 _c
246 -13 181 19 137 83 _c
92 147 70 241 70 364 _c
70 479 97 571 152 639 _c
206 707 280 742 372 742 _c
396 742 421 739 447 735 _c
472 730 498 723 526 713 _c
_cl}_e}_d
/seven{636 0 82 0 551 729 _sc
82 729 _m
551 729 _l
551 687 _l
286 0 _l
183 0 _l
432 646 _l
82 646 _l
82 729 _l
_cl}_d
/eight{{636 0 68 -13 568 742 _sc
318 346 _m
271 346 234 333 207 308 _c
180 283 167 249 167 205 _c
167 161 180 126 207 101 _c
234 76 271 64 318 64 _c
364 64 401 76 428 102 _c
455 127 469 161 469 205 _c
469 249 455 283 429 308 _c
402 333 365 346 318 346 _c
219 388 _m
177 398 144 418 120 447 _c
96 476 85 511 85 553 _c
85 611 105 657 147 691 _c
188 725 245 742 318 742 _c
}_e{390 742 447 725 489 691 _c
530 657 551 611 551 553 _c
551 511 539 476 515 447 _c
491 418 459 398 417 388 _c
464 377 501 355 528 323 _c
554 291 568 251 568 205 _c
568 134 546 80 503 43 _c
459 5 398 -13 318 -13 _c
237 -13 175 5 132 43 _c
89 80 68 134 68 205 _c
68 251 81 291 108 323 _c
134 355 171 377 219 388 _c
183 544 _m
183 506 194 476 218 455 _c
}_e{242 434 275 424 318 424 _c
360 424 393 434 417 455 _c
441 476 453 506 453 544 _c
453 582 441 611 417 632 _c
393 653 360 664 318 664 _c
275 664 242 653 218 632 _c
194 611 183 582 183 544 _c
_cl}_e}_d
/nine{{636 0 63 -13 566 742 _sc
110 15 _m
110 105 _l
134 93 159 84 185 78 _c
210 72 235 69 260 69 _c
324 69 374 90 408 134 _c
442 178 462 244 468 334 _c
448 306 424 284 396 269 _c
367 254 335 247 300 247 _c
226 247 168 269 126 313 _c
84 357 63 417 63 494 _c
63 568 85 628 129 674 _c
173 719 232 742 306 742 _c
390 742 455 709 499 645 _c
543 580 566 486 566 364 _c
}_e{566 248 538 157 484 89 _c
429 21 356 -13 264 -13 _c
239 -13 214 -10 189 -6 _c
163 -2 137 5 110 15 _c
306 324 _m
350 324 385 339 411 369 _c
437 399 450 441 450 494 _c
450 546 437 588 411 618 _c
385 648 350 664 306 664 _c
262 664 227 648 201 618 _c
175 588 162 546 162 494 _c
162 441 175 399 201 369 _c
227 339 262 324 306 324 _c
_cl}_e}_d
/equal{838 0 106 172 732 454 _sc
106 454 _m
732 454 _l
732 372 _l
106 372 _l
106 454 _l
106 255 _m
732 255 _l
732 172 _l
106 172 _l
106 255 _l
_cl}_d
/A{684 0 8 0 676 729 _sc
342 632 _m
208 269 _l
476 269 _l
342 632 _l
286 729 _m
398 729 _l
676 0 _l
573 0 _l
507 187 _l
178 187 _l
112 0 _l
8 0 _l
286 729 _l
_cl}_d
/D{770 0 98 0 711 729 _sc
197 648 _m
197 81 _l
316 81 _l
416 81 490 103 537 149 _c
583 195 607 267 607 365 _c
607 463 583 534 537 580 _c
490 625 416 648 316 648 _c
197 648 _l
98 729 _m
301 729 _l
442 729 546 699 612 641 _c
678 582 711 490 711 365 _c
711 239 677 147 611 88 _c
545 29 441 0 301 0 _c
98 0 _l
98 729 _l
_cl}_d
/E{632 0 98 0 568 729 _sc
98 729 _m
559 729 _l
559 646 _l
197 646 _l
197 430 _l
544 430 _l
544 347 _l
197 347 _l
197 83 _l
568 83 _l
568 0 _l
98 0 _l
98 729 _l
_cl}_d
/F{575 0 98 0 517 729 _sc
98 729 _m
517 729 _l
517 646 _l
197 646 _l
197 431 _l
486 431 _l
486 348 _l
197 348 _l
197 0 _l
98 0 _l
98 729 _l
_cl}_d
/H{752 0 98 0 654 729 _sc
98 729 _m
197 729 _l
197 430 _l
555 430 _l
555 729 _l
654 729 _l
654 0 _l
555 0 _l
555 347 _l
197 347 _l
197 0 _l
98 0 _l
98 729 _l
_cl}_d
/I{295 0 98 0 197 729 _sc
98 729 _m
197 729 _l
197 0 _l
98 0 _l
98 729 _l
_cl}_d
/L{557 0 98 0 552 729 _sc
98 729 _m
197 729 _l
197 83 _l
552 83 _l
552 0 _l
98 0 _l
98 729 _l
_cl}_d
/M{863 0 98 0 765 729 _sc
98 729 _m
245 729 _l
431 233 _l
618 729 _l
765 729 _l
765 0 _l
669 0 _l
669 640 _l
481 140 _l
382 140 _l
194 640 _l
194 0 _l
98 0 _l
98 729 _l
_cl}_d
/O{787 0 56 -13 731 742 _sc
394 662 _m
322 662 265 635 223 582 _c
181 528 160 456 160 364 _c
160 272 181 199 223 146 _c
265 92 322 66 394 66 _c
465 66 522 92 564 146 _c
606 199 627 272 627 364 _c
627 456 606 528 564 582 _c
522 635 465 662 394 662 _c
394 742 _m
496 742 577 707 639 639 _c
700 571 731 479 731 364 _c
731 248 700 157 639 89 _c
577 21 496 -13 394 -13 _c
291 -13 209 21 148 89 _c
86 157 56 248 56 364 _c
56 479 86 571 148 639 _c
209 707 291 742 394 742 _c
_cl}_d
/P{603 0 98 0 569 729 _sc
197 648 _m
197 374 _l
321 374 _l
367 374 402 385 427 409 _c
452 433 465 467 465 511 _c
465 555 452 588 427 612 _c
402 636 367 648 321 648 _c
197 648 _l
98 729 _m
321 729 _l
402 729 464 710 506 673 _c
548 636 569 582 569 511 _c
569 439 548 384 506 348 _c
464 311 402 293 321 293 _c
197 293 _l
197 0 _l
98 0 _l
98 729 _l
_cl}_d
/Q{{787 0 56 -128 731 742 _sc
394 662 _m
322 662 265 635 223 582 _c
181 528 160 456 160 364 _c
160 272 181 199 223 146 _c
265 92 322 66 394 66 _c
465 66 522 92 564 146 _c
606 199 627 272 627 364 _c
627 456 606 528 564 582 _c
522 635 465 662 394 662 _c
532 13 _m
662 -128 _l
543 -128 _l
435 -11 _l
424 -11 416 -12 410 -12 _c
404 -12 399 -13 394 -13 _c
291 -13 209 21 148 89 _c
}_e{86 157 56 248 56 364 _c
56 479 86 571 148 639 _c
209 707 291 742 394 742 _c
496 742 577 707 639 639 _c
700 571 731 479 731 364 _c
731 279 714 206 680 146 _c
646 86 596 41 532 13 _c
_cl}_e}_d
/R{{695 0 98 0 666 729 _sc
444 342 _m
465 334 486 319 506 296 _c
526 272 546 240 566 199 _c
666 0 _l
560 0 _l
467 187 _l
443 235 419 268 397 284 _c
374 300 343 308 304 308 _c
197 308 _l
197 0 _l
98 0 _l
98 729 _l
321 729 _l
404 729 466 711 507 677 _c
548 642 569 589 569 519 _c
569 473 558 434 537 404 _c
515 374 484 353 444 342 _c
197 648 _m
197 389 _l
321 389 _l
}_e{368 389 404 400 428 422 _c
452 444 465 476 465 519 _c
465 561 452 593 428 615 _c
404 637 368 648 321 648 _c
197 648 _l
_cl}_e}_d
/S{{635 0 66 -13 579 742 _sc
535 705 _m
535 609 _l
497 627 462 640 429 649 _c
395 657 363 662 333 662 _c
279 662 237 651 208 631 _c
179 610 165 580 165 542 _c
165 510 174 485 194 469 _c
213 452 250 439 304 429 _c
364 417 _l
437 403 491 378 526 343 _c
561 307 579 260 579 201 _c
579 130 555 77 508 41 _c
460 5 391 -13 300 -13 _c
265 -13 228 -9 189 -2 _c
}_e{150 5 110 16 69 32 _c
69 134 _l
109 111 148 94 186 83 _c
224 71 262 66 300 66 _c
356 66 399 77 430 99 _c
460 121 476 152 476 194 _c
476 230 465 258 443 278 _c
421 298 385 313 335 323 _c
275 335 _l
201 349 148 372 115 404 _c
82 435 66 478 66 534 _c
66 598 88 649 134 686 _c
179 723 242 742 322 742 _c
356 742 390 739 426 733 _c
461 727 497 717 535 705 _c
}_e{_cl}_e}_d
/T{611 0 -2 0 614 729 _sc
-2 729 _m
614 729 _l
614 646 _l
355 646 _l
355 0 _l
256 0 _l
256 646 _l
-2 646 _l
-2 729 _l
_cl}_d
/U{732 0 87 -13 645 729 _sc
87 729 _m
186 729 _l
186 286 _l
186 208 200 151 228 117 _c
256 83 302 66 366 66 _c
429 66 475 83 503 117 _c
531 151 546 208 546 286 _c
546 729 _l
645 729 _l
645 274 _l
645 178 621 107 574 59 _c
527 11 458 -13 366 -13 _c
274 -13 204 11 157 59 _c
110 107 87 178 87 274 _c
87 729 _l
_cl}_d
/Y{611 0 -1 0 613 729 _sc
-1 729 _m
104 729 _l
306 429 _l
507 729 _l
613 729 _l
355 347 _l
355 0 _l
256 0 _l
256 347 _l
-1 729 _l
_cl}_d
/bracketleft{390 0 86 -131 293 760 _sc
86 760 _m
293 760 _l
293 690 _l
176 690 _l
176 -61 _l
293 -61 _l
293 -131 _l
86 -131 _l
86 760 _l
_cl}_d
/bracketright{390 0 97 -131 304 760 _sc
304 760 _m
304 -131 _l
97 -131 _l
97 -61 _l
214 -61 _l
214 690 _l
97 690 _l
97 760 _l
304 760 _l
_cl}_d
/underscore{500 0 -9 -235 510 -165 _sc
510 -165 _m
510 -235 _l
-9 -235 _l
-9 -165 _l
510 -165 _l
_cl}_d
/a{{613 0 60 -13 522 560 _sc
343 275 _m
270 275 220 266 192 250 _c
164 233 150 205 150 165 _c
150 133 160 107 181 89 _c
202 70 231 61 267 61 _c
317 61 357 78 387 114 _c
417 149 432 196 432 255 _c
432 275 _l
343 275 _l
522 312 _m
522 0 _l
432 0 _l
432 83 _l
411 49 385 25 355 10 _c
325 -5 287 -13 243 -13 _c
187 -13 142 2 109 33 _c
76 64 60 106 60 159 _c
}_e{60 220 80 266 122 298 _c
163 329 224 345 306 345 _c
432 345 _l
432 354 _l
432 395 418 427 391 450 _c
364 472 326 484 277 484 _c
245 484 215 480 185 472 _c
155 464 127 453 100 439 _c
100 522 _l
132 534 164 544 195 550 _c
226 556 256 560 286 560 _c
365 560 424 539 463 498 _c
502 457 522 395 522 312 _c
_cl}_e}_d
/b{{635 0 91 -13 580 760 _sc
487 273 _m
487 339 473 390 446 428 _c
418 466 381 485 334 485 _c
286 485 249 466 222 428 _c
194 390 181 339 181 273 _c
181 207 194 155 222 117 _c
249 79 286 61 334 61 _c
381 61 418 79 446 117 _c
473 155 487 207 487 273 _c
181 464 _m
199 496 223 520 252 536 _c
281 552 316 560 356 560 _c
422 560 476 533 518 481 _c
559 428 580 359 580 273 _c
}_e{580 187 559 117 518 65 _c
476 13 422 -13 356 -13 _c
316 -13 281 -5 252 10 _c
223 25 199 49 181 82 _c
181 0 _l
91 0 _l
91 760 _l
181 760 _l
181 464 _l
_cl}_e}_d
/c{{550 0 55 -13 488 560 _sc
488 526 _m
488 442 _l
462 456 437 466 411 473 _c
385 480 360 484 334 484 _c
276 484 230 465 198 428 _c
166 391 150 339 150 273 _c
150 206 166 154 198 117 _c
230 80 276 62 334 62 _c
360 62 385 65 411 72 _c
437 79 462 90 488 104 _c
488 21 _l
462 9 436 0 410 -5 _c
383 -10 354 -13 324 -13 _c
242 -13 176 12 128 64 _c
}_e{79 115 55 185 55 273 _c
55 362 79 432 128 483 _c
177 534 244 560 330 560 _c
358 560 385 557 411 551 _c
437 545 463 537 488 526 _c
_cl}_e}_d
/d{{635 0 55 -13 544 760 _sc
454 464 _m
454 760 _l
544 760 _l
544 0 _l
454 0 _l
454 82 _l
435 49 411 25 382 10 _c
353 -5 319 -13 279 -13 _c
213 -13 159 13 117 65 _c
75 117 55 187 55 273 _c
55 359 75 428 117 481 _c
159 533 213 560 279 560 _c
319 560 353 552 382 536 _c
411 520 435 496 454 464 _c
148 273 _m
148 207 161 155 188 117 _c
215 79 253 61 301 61 _c
}_e{348 61 385 79 413 117 _c
440 155 454 207 454 273 _c
454 339 440 390 413 428 _c
385 466 348 485 301 485 _c
253 485 215 466 188 428 _c
161 390 148 339 148 273 _c
_cl}_e}_d
/e{{615 0 55 -13 562 560 _sc
562 296 _m
562 252 _l
149 252 _l
153 190 171 142 205 110 _c
238 78 284 62 344 62 _c
378 62 412 66 444 74 _c
476 82 509 95 541 113 _c
541 28 _l
509 14 476 3 442 -3 _c
408 -9 373 -13 339 -13 _c
251 -13 182 12 131 62 _c
80 112 55 181 55 268 _c
55 357 79 428 127 481 _c
175 533 241 560 323 560 _c
397 560 455 536 498 489 _c
}_e{540 441 562 377 562 296 _c
472 322 _m
471 371 457 410 431 440 _c
404 469 368 484 324 484 _c
274 484 234 469 204 441 _c
174 413 156 373 152 322 _c
472 322 _l
_cl}_e}_d
/f{352 0 23 0 371 760 _sc
371 760 _m
371 685 _l
285 685 _l
253 685 230 678 218 665 _c
205 652 199 629 199 595 _c
199 547 _l
347 547 _l
347 477 _l
199 477 _l
199 0 _l
109 0 _l
109 477 _l
23 477 _l
23 547 _l
109 547 _l
109 585 _l
109 645 123 690 151 718 _c
179 746 224 760 286 760 _c
371 760 _l
_cl}_d
/g{{635 0 55 -207 544 560 _sc
454 280 _m
454 344 440 395 414 431 _c
387 467 349 485 301 485 _c
253 485 215 467 188 431 _c
161 395 148 344 148 280 _c
148 215 161 165 188 129 _c
215 93 253 75 301 75 _c
349 75 387 93 414 129 _c
440 165 454 215 454 280 _c
544 68 _m
544 -24 523 -93 482 -139 _c
440 -184 377 -207 292 -207 _c
260 -207 231 -204 203 -200 _c
175 -195 147 -188 121 -178 _c
}_e{121 -91 _l
147 -105 173 -115 199 -122 _c
225 -129 251 -133 278 -133 _c
336 -133 380 -117 410 -87 _c
439 -56 454 -10 454 52 _c
454 96 _l
435 64 411 40 382 24 _c
353 8 319 0 279 0 _c
211 0 157 25 116 76 _c
75 127 55 195 55 280 _c
55 364 75 432 116 483 _c
157 534 211 560 279 560 _c
319 560 353 552 382 536 _c
411 520 435 496 454 464 _c
454 547 _l
544 547 _l
}_e{544 68 _l
_cl}_e}_d
/h{634 0 91 0 549 760 _sc
549 330 _m
549 0 _l
459 0 _l
459 327 _l
459 379 448 417 428 443 _c
408 469 378 482 338 482 _c
289 482 251 466 223 435 _c
195 404 181 362 181 309 _c
181 0 _l
91 0 _l
91 760 _l
181 760 _l
181 462 _l
202 494 227 519 257 535 _c
286 551 320 560 358 560 _c
420 560 468 540 500 501 _c
532 462 549 405 549 330 _c
_cl}_d
/i{278 0 94 0 184 760 _sc
94 547 _m
184 547 _l
184 0 _l
94 0 _l
94 547 _l
94 760 _m
184 760 _l
184 646 _l
94 646 _l
94 760 _l
_cl}_d
/l{278 0 94 0 184 760 _sc
94 760 _m
184 760 _l
184 0 _l
94 0 _l
94 760 _l
_cl}_d
/m{{974 0 91 0 889 560 _sc
520 442 _m
542 482 569 511 600 531 _c
631 550 668 560 711 560 _c
767 560 811 540 842 500 _c
873 460 889 403 889 330 _c
889 0 _l
799 0 _l
799 327 _l
799 379 789 418 771 444 _c
752 469 724 482 686 482 _c
639 482 602 466 575 435 _c
548 404 535 362 535 309 _c
535 0 _l
445 0 _l
445 327 _l
445 379 435 418 417 444 _c
398 469 369 482 331 482 _c
}_e{285 482 248 466 221 435 _c
194 404 181 362 181 309 _c
181 0 _l
91 0 _l
91 547 _l
181 547 _l
181 462 _l
201 495 226 520 255 536 _c
283 552 317 560 357 560 _c
397 560 430 550 458 530 _c
486 510 506 480 520 442 _c
_cl}_e}_d
/n{634 0 91 0 549 560 _sc
549 330 _m
549 0 _l
459 0 _l
459 327 _l
459 379 448 417 428 443 _c
408 469 378 482 338 482 _c
289 482 251 466 223 435 _c
195 404 181 362 181 309 _c
181 0 _l
91 0 _l
91 547 _l
181 547 _l
181 462 _l
202 494 227 519 257 535 _c
286 551 320 560 358 560 _c
420 560 468 540 500 501 _c
532 462 549 405 549 330 _c
_cl}_d
/o{612 0 55 -13 557 560 _sc
306 484 _m
258 484 220 465 192 427 _c
164 389 150 338 150 273 _c
150 207 163 156 191 118 _c
219 80 257 62 306 62 _c
354 62 392 80 420 118 _c
448 156 462 207 462 273 _c
462 337 448 389 420 427 _c
392 465 354 484 306 484 _c
306 560 _m
384 560 445 534 490 484 _c
534 433 557 363 557 273 _c
557 183 534 113 490 63 _c
445 12 384 -13 306 -13 _c
227 -13 165 12 121 63 _c
77 113 55 183 55 273 _c
55 363 77 433 121 484 _c
165 534 227 560 306 560 _c
_cl}_d
/p{{635 0 91 -207 580 560 _sc
181 82 _m
181 -207 _l
91 -207 _l
91 547 _l
181 547 _l
181 464 _l
199 496 223 520 252 536 _c
281 552 316 560 356 560 _c
422 560 476 533 518 481 _c
559 428 580 359 580 273 _c
580 187 559 117 518 65 _c
476 13 422 -13 356 -13 _c
316 -13 281 -5 252 10 _c
223 25 199 49 181 82 _c
487 273 _m
487 339 473 390 446 428 _c
418 466 381 485 334 485 _c
}_e{286 485 249 466 222 428 _c
194 390 181 339 181 273 _c
181 207 194 155 222 117 _c
249 79 286 61 334 61 _c
381 61 418 79 446 117 _c
473 155 487 207 487 273 _c
_cl}_e}_d
/q{{635 0 55 -207 544 560 _sc
148 273 _m
148 207 161 155 188 117 _c
215 79 253 61 301 61 _c
348 61 385 79 413 117 _c
440 155 454 207 454 273 _c
454 339 440 390 413 428 _c
385 466 348 485 301 485 _c
253 485 215 466 188 428 _c
161 390 148 339 148 273 _c
454 82 _m
435 49 411 25 382 10 _c
353 -5 319 -13 279 -13 _c
213 -13 159 13 117 65 _c
75 117 55 187 55 273 _c
}_e{55 359 75 428 117 481 _c
159 533 213 560 279 560 _c
319 560 353 552 382 536 _c
411 520 435 496 454 464 _c
454 547 _l
544 547 _l
544 -207 _l
454 -207 _l
454 82 _l
_cl}_e}_d
/r{411 0 91 0 411 560 _sc
411 463 _m
401 469 390 473 378 476 _c
366 478 353 480 339 480 _c
288 480 249 463 222 430 _c
194 397 181 350 181 288 _c
181 0 _l
91 0 _l
91 547 _l
181 547 _l
181 462 _l
199 495 224 520 254 536 _c
284 552 321 560 365 560 _c
371 560 378 559 386 559 _c
393 558 401 557 411 555 _c
411 463 _l
_cl}_d
/s{{521 0 54 -13 472 560 _sc
443 531 _m
443 446 _l
417 458 391 468 364 475 _c
336 481 308 485 279 485 _c
234 485 200 478 178 464 _c
156 450 145 430 145 403 _c
145 382 153 366 169 354 _c
185 342 217 330 265 320 _c
296 313 _l
360 299 405 279 432 255 _c
458 230 472 195 472 151 _c
472 100 452 60 412 31 _c
372 1 316 -13 246 -13 _c
216 -13 186 -10 154 -5 _c
}_e{122 0 89 8 54 20 _c
54 113 _l
87 95 120 82 152 74 _c
184 65 216 61 248 61 _c
290 61 323 68 346 82 _c
368 96 380 117 380 144 _c
380 168 371 187 355 200 _c
339 213 303 226 247 238 _c
216 245 _l
160 257 119 275 95 299 _c
70 323 58 356 58 399 _c
58 450 76 490 112 518 _c
148 546 200 560 268 560 _c
301 560 332 557 362 552 _c
391 547 418 540 443 531 _c
}_e{_cl}_e}_d
/t{392 0 27 0 368 702 _sc
183 702 _m
183 547 _l
368 547 _l
368 477 _l
183 477 _l
183 180 _l
183 135 189 106 201 94 _c
213 81 238 75 276 75 _c
368 75 _l
368 0 _l
276 0 _l
206 0 158 13 132 39 _c
106 65 93 112 93 180 _c
93 477 _l
27 477 _l
27 547 _l
93 547 _l
93 702 _l
183 702 _l
_cl}_d
/u{634 0 85 -13 543 560 _sc
85 216 _m
85 547 _l
175 547 _l
175 219 _l
175 167 185 129 205 103 _c
225 77 255 64 296 64 _c
344 64 383 79 411 110 _c
439 141 453 183 453 237 _c
453 547 _l
543 547 _l
543 0 _l
453 0 _l
453 84 _l
431 50 405 26 377 10 _c
348 -5 315 -13 277 -13 _c
214 -13 166 6 134 45 _c
101 83 85 140 85 216 _c
311 560 _m
311 560 _l
_cl}_d
/v{592 0 30 0 562 547 _sc
30 547 _m
125 547 _l
296 88 _l
467 547 _l
562 547 _l
357 0 _l
235 0 _l
30 547 _l
_cl}_d
/y{592 0 30 -207 562 547 _sc
322 -50 _m
296 -114 271 -157 247 -177 _c
223 -197 191 -207 151 -207 _c
79 -207 _l
79 -132 _l
132 -132 _l
156 -132 175 -126 189 -114 _c
203 -102 218 -75 235 -31 _c
251 9 _l
30 547 _l
125 547 _l
296 119 _l
467 547 _l
562 547 _l
322 -50 _l
_cl}_d
end readonly def

/BuildGlyph
 {exch begin
 CharStrings exch
 2 copy known not{pop /.notdef}if
 true 3 1 roll get exec
 end}_d

/BuildChar {
 1 index /Encoding get exch get
 1 index /BuildGlyph get exec
}_d

FontName currentdict end definefont pop
end
%%EndProlog
mpldict begin
-132.919 215.979 translate
877.837 360.042 0 0 clipbox
gsave
-0 0 m
877.8375 0 l
877.8375 360.04195 l
-0 360.04195 l
cl
1.000 setgray
fill
grestore
gsave
260.35875 37.54375 m
617.47875 37.54375 l
617.47875 303.65575 l
260.35875 303.65575 l
cl
1.000 setgray
fill
grestore
0.800 setlinewidth
1 setlinejoin
2 setlinecap
[] 0 setdash
0.690 setgray
gsave
357.1 266.1 260.4 37.54 clipbox
276.591477 37.54375 m
276.591477 303.65575 l
stroke
grestore
0 setlinecap
0.000 setgray
gsave
/o {
gsave
newpath
translate
0.8 setlinewidth
1 setlinejoin
0 setlinecap
0 0 m
0 -3.5 l

gsave
0.000 setgray
fill
grestore
stroke
grestore
} bind def
276.591 37.5438 o
grestore
/DejaVuSans findfont
10.000 scalefont
setfont
gsave
273.411790 22.950000 translate
0.000000 rotate
0.000000 0.000000 m /zero glyphshow
grestore
2 setlinecap
0.690 setgray
gsave
357.1 266.1 260.4 37.54 clipbox
324.645732 37.54375 m
324.645732 303.65575 l
stroke
grestore
0 setlinecap
0.000 setgray
gsave
/o {
gsave
newpath
translate
0.8 setlinewidth
1 setlinejoin
0 setlinecap
0 0 m
0 -3.5 l

gsave
0.000 setgray
fill
grestore
stroke
grestore
} bind def
324.646 37.5438 o
grestore
gsave
315.106670 22.950000 translate
0.000000 rotate
0.000000 0.000000 m /two glyphshow
6.362305 0.000000 m /five glyphshow
12.724609 0.000000 m /zero glyphshow
grestore
2 setlinecap
0.690 setgray
gsave
357.1 266.1 260.4 37.54 clipbox
372.699987 37.54375 m
372.699987 303.65575 l
stroke
grestore
0 setlinecap
0.000 setgray
gsave
/o {
gsave
newpath
translate
0.8 setlinewidth
1 setlinejoin
0 setlinecap
0 0 m
0 -3.5 l

gsave
0.000 setgray
fill
grestore
stroke
grestore
} bind def
372.7 37.5438 o
grestore
gsave
363.160924 22.950000 translate
0.000000 rotate
0.000000 0.000000 m /five glyphshow
6.362305 0.000000 m /zero glyphshow
12.724609 0.000000 m /zero glyphshow
grestore
2 setlinecap
0.690 setgray
gsave
357.1 266.1 260.4 37.54 clipbox
420.754242 37.54375 m
420.754242 303.65575 l
stroke
grestore
0 setlinecap
0.000 setgray
gsave
/o {
gsave
newpath
translate
0.8 setlinewidth
1 setlinejoin
0 setlinecap
0 0 m
0 -3.5 l

gsave
0.000 setgray
fill
grestore
stroke
grestore
} bind def
420.754 37.5438 o
grestore
gsave
411.215179 22.950000 translate
0.000000 rotate
0.000000 0.000000 m /seven glyphshow
6.362305 0.000000 m /five glyphshow
12.724609 0.000000 m /zero glyphshow
grestore
2 setlinecap
0.690 setgray
gsave
357.1 266.1 260.4 37.54 clipbox
468.808496 37.54375 m
468.808496 303.65575 l
stroke
grestore
0 setlinecap
0.000 setgray
gsave
/o {
gsave
newpath
translate
0.8 setlinewidth
1 setlinejoin
0 setlinecap
0 0 m
0 -3.5 l

gsave
0.000 setgray
fill
grestore
stroke
grestore
} bind def
468.808 37.5438 o
grestore
gsave
456.089746 22.950000 translate
0.000000 rotate
0.000000 0.000000 m /one glyphshow
6.362305 0.000000 m /zero glyphshow
12.724609 0.000000 m /zero glyphshow
19.086914 0.000000 m /zero glyphshow
grestore
2 setlinecap
0.690 setgray
gsave
357.1 266.1 260.4 37.54 clipbox
516.862751 37.54375 m
516.862751 303.65575 l
stroke
grestore
0 setlinecap
0.000 setgray
gsave
/o {
gsave
newpath
translate
0.8 setlinewidth
1 setlinejoin
0 setlinecap
0 0 m
0 -3.5 l

gsave
0.000 setgray
fill
grestore
stroke
grestore
} bind def
516.863 37.5438 o
grestore
gsave
504.144001 22.950000 translate
0.000000 rotate
0.000000 0.000000 m /one glyphshow
6.362305 0.000000 m /two glyphshow
12.724609 0.000000 m /five glyphshow
19.086914 0.000000 m /zero glyphshow
grestore
2 setlinecap
0.690 setgray
gsave
357.1 266.1 260.4 37.54 clipbox
564.917006 37.54375 m
564.917006 303.65575 l
stroke
grestore
0 setlinecap
0.000 setgray
gsave
/o {
gsave
newpath
translate
0.8 setlinewidth
1 setlinejoin
0 setlinecap
0 0 m
0 -3.5 l

gsave
0.000 setgray
fill
grestore
stroke
grestore
} bind def
564.917 37.5438 o
grestore
gsave
552.198256 22.950000 translate
0.000000 rotate
0.000000 0.000000 m /one glyphshow
6.362305 0.000000 m /five glyphshow
12.724609 0.000000 m /zero glyphshow
19.086914 0.000000 m /zero glyphshow
grestore
2 setlinecap
0.690 setgray
gsave
357.1 266.1 260.4 37.54 clipbox
612.971261 37.54375 m
612.971261 303.65575 l
stroke
grestore
0 setlinecap
0.000 setgray
gsave
/o {
gsave
newpath
translate
0.8 setlinewidth
1 setlinejoin
0 setlinecap
0 0 m
0 -3.5 l

gsave
0.000 setgray
fill
grestore
stroke
grestore
} bind def
612.971 37.5438 o
grestore
gsave
600.252511 22.950000 translate
0.000000 rotate
0.000000 0.000000 m /one glyphshow
6.362305 0.000000 m /seven glyphshow
12.724609 0.000000 m /five glyphshow
19.086914 0.000000 m /zero glyphshow
grestore
gsave
407.785938 9.278125 translate
0.000000 rotate
0.000000 0.000000 m /Q glyphshow
7.871094 0.000000 m /u glyphshow
14.208984 0.000000 m /e glyphshow
20.361328 0.000000 m /r glyphshow
24.472656 0.000000 m /y glyphshow
30.390625 0.000000 m /space glyphshow
33.569336 0.000000 m /I glyphshow
36.518555 0.000000 m /d glyphshow
42.866211 0.000000 m /space glyphshow
46.044922 0.000000 m /bracketleft glyphshow
49.946289 0.000000 m /numbersign glyphshow
58.325195 0.000000 m /bracketright glyphshow
grestore
2 setlinecap
0.690 setgray
gsave
357.1 266.1 260.4 37.54 clipbox
260.35875 49.435072 m
617.47875 49.435072 l
stroke
grestore
0 setlinecap
0.000 setgray
gsave
/o {
gsave
newpath
translate
0.8 setlinewidth
1 setlinejoin
0 setlinecap
0 0 m
-3.5 0 l

gsave
0.000 setgray
fill
grestore
stroke
grestore
} bind def
260.359 49.4351 o
grestore
gsave
246.999375 45.638197 translate
0.000000 rotate
0.000000 0.000000 m /zero glyphshow
grestore
2 setlinecap
0.690 setgray
gsave
357.1 266.1 260.4 37.54 clipbox
260.35875 99.356656 m
617.47875 99.356656 l
stroke
grestore
0 setlinecap
0.000 setgray
gsave
/o {
gsave
newpath
translate
0.8 setlinewidth
1 setlinejoin
0 setlinecap
0 0 m
-3.5 0 l

gsave
0.000 setgray
fill
grestore
stroke
grestore
} bind def
260.359 99.3567 o
grestore
gsave
221.561875 95.559781 translate
0.000000 rotate
0.000000 0.000000 m /one glyphshow
6.362305 0.000000 m /zero glyphshow
12.724609 0.000000 m /zero glyphshow
19.086914 0.000000 m /zero glyphshow
25.449219 0.000000 m /zero glyphshow
grestore
2 setlinecap
0.690 setgray
gsave
357.1 266.1 260.4 37.54 clipbox
260.35875 149.278241 m
617.47875 149.278241 l
stroke
grestore
0 setlinecap
0.000 setgray
gsave
/o {
gsave
newpath
translate
0.8 setlinewidth
1 setlinejoin
0 setlinecap
0 0 m
-3.5 0 l

gsave
0.000 setgray
fill
grestore
stroke
grestore
} bind def
260.359 149.278 o
grestore
gsave
221.561875 145.481366 translate
0.000000 rotate
0.000000 0.000000 m /two glyphshow
6.362305 0.000000 m /zero glyphshow
12.724609 0.000000 m /zero glyphshow
19.086914 0.000000 m /zero glyphshow
25.449219 0.000000 m /zero glyphshow
grestore
2 setlinecap
0.690 setgray
gsave
357.1 266.1 260.4 37.54 clipbox
260.35875 199.199826 m
617.47875 199.199826 l
stroke
grestore
0 setlinecap
0.000 setgray
gsave
/o {
gsave
newpath
translate
0.8 setlinewidth
1 setlinejoin
0 setlinecap
0 0 m
-3.5 0 l

gsave
0.000 setgray
fill
grestore
stroke
grestore
} bind def
260.359 199.2 o
grestore
gsave
221.561875 195.402951 translate
0.000000 rotate
0.000000 0.000000 m /three glyphshow
6.362305 0.000000 m /zero glyphshow
12.724609 0.000000 m /zero glyphshow
19.086914 0.000000 m /zero glyphshow
25.449219 0.000000 m /zero glyphshow
grestore
2 setlinecap
0.690 setgray
gsave
357.1 266.1 260.4 37.54 clipbox
260.35875 249.121411 m
617.47875 249.121411 l
stroke
grestore
0 setlinecap
0.000 setgray
gsave
/o {
gsave
newpath
translate
0.8 setlinewidth
1 setlinejoin
0 setlinecap
0 0 m
-3.5 0 l

gsave
0.000 setgray
fill
grestore
stroke
grestore
} bind def
260.359 249.121 o
grestore
gsave
221.561875 245.324536 translate
0.000000 rotate
0.000000 0.000000 m /four glyphshow
6.362305 0.000000 m /zero glyphshow
12.724609 0.000000 m /zero glyphshow
19.086914 0.000000 m /zero glyphshow
25.449219 0.000000 m /zero glyphshow
grestore
2 setlinecap
0.690 setgray
gsave
357.1 266.1 260.4 37.54 clipbox
260.35875 299.042996 m
617.47875 299.042996 l
stroke
grestore
0 setlinecap
0.000 setgray
gsave
/o {
gsave
newpath
translate
0.8 setlinewidth
1 setlinejoin
0 setlinecap
0 0 m
-3.5 0 l

gsave
0.000 setgray
fill
grestore
stroke
grestore
} bind def
260.359 299.043 o
grestore
gsave
221.561875 295.246121 translate
0.000000 rotate
0.000000 0.000000 m /five glyphshow
6.362305 0.000000 m /zero glyphshow
12.724609 0.000000 m /zero glyphshow
19.086914 0.000000 m /zero glyphshow
25.449219 0.000000 m /zero glyphshow
grestore
gsave
204.293125 127.716938 translate
90.000000 rotate
0.000000 0.000000 m /t glyphshow
3.920898 0.000000 m /i glyphshow
6.699219 0.000000 m /m glyphshow
16.440430 0.000000 m /e glyphshow
22.592773 0.000000 m /space glyphshow
25.771484 0.000000 m /t glyphshow
29.692383 0.000000 m /o glyphshow
35.810547 0.000000 m /space glyphshow
38.989258 0.000000 m /c glyphshow
44.487305 0.000000 m /o glyphshow
50.605469 0.000000 m /m glyphshow
60.346680 0.000000 m /p glyphshow
66.694336 0.000000 m /l glyphshow
69.472656 0.000000 m /e glyphshow
75.625000 0.000000 m /t glyphshow
79.545898 0.000000 m /e glyphshow
grestore
gsave
215.483750 144.881000 translate
90.000000 rotate
0.000000 0.000000 m /q glyphshow
6.347656 0.000000 m /u glyphshow
12.685547 0.000000 m /e glyphshow
18.837891 0.000000 m /r glyphshow
22.949219 0.000000 m /y glyphshow
28.867188 0.000000 m /space glyphshow
32.045898 0.000000 m /bracketleft glyphshow
35.947266 0.000000 m /u glyphshow
42.285156 0.000000 m /s glyphshow
47.495117 0.000000 m /bracketright glyphshow
grestore
1.000 setlinewidth
2 setlinecap
0.122 0.467 0.706 setrgbcolor
gsave
357.1 266.1 260.4 37.54 clipbox
276.591477 49.644742 m
277.744779 50.004178 l
279.66695 50.363613 l
282.934639 50.962672 l
285.049026 51.127413 l
287.163413 51.39699 l
288.701149 51.486849 l
290.238886 51.661574 l
291.007754 51.746441 l
297.927566 52.360476 l
298.504217 52.480288 l
299.65752 52.580131 l
300.234171 52.640037 l
302.925209 52.814763 l
314.073796 53.753289 l
314.45823 53.823179 l
316.957051 54.1277 l
323.300213 54.686822 l
324.069081 54.781673 l
332.52663 55.665285 l
332.911064 55.909901 l
334.064366 56.019729 l
334.641017 56.084627 l
335.794319 56.18447 l
336.755404 56.354203 l
339.062009 56.563874 l
339.830877 56.643748 l
341.176396 56.768552 l
342.137481 56.818474 l
343.098566 56.938286 l
343.675217 56.998192 l
345.020736 57.13298 l
345.789604 57.297721 l
347.519557 57.467454 l
353.478285 58.036561 l
354.054936 58.171349 l
355.400455 58.346074 l
355.784889 58.45091 l
357.322625 58.585698 l
359.62923 58.900204 l
362.320268 59.169781 l
362.704702 59.259639 l
365.011306 59.634051 l
367.125693 59.903628 l
367.510127 60.043408 l
368.663429 60.138259 l
369.816732 60.253079 l
370.393383 60.307993 l
370.970034 60.537632 l
374.622157 61.011887 l
375.006591 61.236534 l
376.736544 61.441213 l
377.313195 61.635907 l
379.6198 61.825609 l
380.004234 61.935436 l
380.773102 62.015311 l
381.54197 62.160083 l
384.809659 62.494558 l
385.194093 62.599393 l
386.539612 62.809064 l
387.500697 62.883946 l
388.077348 62.928876 l
388.461782 63.05368 l
388.846216 63.163507 l
389.999519 63.388154 l
390.960604 63.463037 l
391.537255 63.63277 l
393.459425 63.857417 l
394.036076 64.017166 l
394.228293 64.266774 l
395.381595 64.421531 l
396.727114 64.561312 l
398.072633 64.691108 l
398.841501 64.820904 l
401.53254 65.185332 l
402.301408 65.32012 l
403.45471 65.464892 l
406.530182 66.168787 l
406.722399 66.368473 l
407.491267 66.493277 l
408.644569 66.817767 l
409.029004 66.89265 l
409.413438 67.03243 l
410.374523 67.242101 l
411.720042 67.546622 l
411.912259 67.571583 l
412.296693 67.806215 l
412.873344 67.881097 l
413.449995 68.200595 l
414.41108 68.345368 l
415.372165 68.520093 l
415.564382 68.714788 l
415.948816 68.779686 l
416.717684 69.029294 l
417.486552 69.089199 l
417.870986 69.22898 l
418.25542 69.258933 l
418.447637 69.433658 l
419.024289 69.513533 l
419.985374 69.907913 l
420.369808 69.957835 l
420.562025 70.197459 l
421.138676 70.342231 l
421.52311 70.472027 l
423.44528 70.921322 l
424.598582 71.036141 l
424.983016 71.165937 l
425.175233 71.185906 l
425.559667 71.475451 l
426.712969 71.670145 l
427.674054 71.894793 l
428.442922 72.064526 l
430.55731 72.299157 l
431.326178 72.428953 l
431.518395 72.573726 l
431.710612 72.578718 l
432.095046 72.763428 l
433.632782 72.983083 l
434.017216 73.262644 l
434.593867 73.382456 l
435.362735 73.607103 l
436.516037 73.90164 l
436.708254 74.101327 l
437.284905 74.196178 l
438.053773 74.515676 l
438.438207 74.685409 l
439.975944 74.959978 l
440.744812 75.179633 l
442.282548 75.399288 l
442.666982 75.559037 l
445.165803 76.173072 l
446.511322 76.387735 l
447.087973 76.602398 l
448.625709 76.871975 l
449.586795 77.11659 l
449.971229 77.206449 l
450.740097 77.356214 l
452.085616 77.650751 l
452.47005 77.845445 l
452.662267 77.99521 l
454.007786 78.139983 l
454.39222 78.239826 l
455.161088 78.379606 l
456.891041 78.908775 l
457.659909 79.003626 l
457.852126 79.183344 l
458.620994 79.308148 l
459.197646 79.502842 l
459.58208 79.607677 l
466.501892 80.935592 l
467.27076 81.220145 l
467.655194 81.305011 l
468.231845 81.409847 l
469.000714 81.574588 l
469.577365 81.774274 l
470.346233 81.884102 l
470.53845 82.13371 l
471.115101 82.2036 l
471.883969 82.318419 l
473.229488 82.772706 l
474.38279 83.157102 l
474.575007 83.396726 l
474.959441 83.496569 l
475.536092 83.930887 l
475.920526 84.235408 l
478.419347 85.044138 l
479.188216 85.578299 l
480.341518 85.658173 l
480.533735 85.703103 l
480.918169 85.962695 l
481.302603 86.102476 l
481.879254 86.212303 l
483.032556 86.641629 l
483.224773 86.716511 l
483.41699 87.011048 l
483.993641 87.080939 l
485.146943 87.50028 l
485.33916 87.849731 l
486.108028 87.994504 l
486.492462 88.144268 l
487.645764 88.478743 l
488.414632 88.623516 l
488.799066 88.81821 l
490.144586 89.152684 l
490.336803 89.162669 l
490.52902 89.447222 l
491.105671 89.626939 l
491.297888 89.771712 l
491.874539 89.83661 l
492.066756 90.041289 l
492.643407 90.181069 l
493.220058 90.555481 l
493.604492 90.620379 l
493.796709 91.044712 l
493.988926 91.054697 l
494.181143 91.26936 l
494.950011 91.369203 l
495.142228 91.573881 l
495.911096 91.698685 l
497.641049 92.133003 l
498.409917 92.327697 l
498.794351 92.607258 l
499.755437 93.081513 l
500.139871 93.396019 l
500.524305 93.690556 l
500.908739 93.7904 l
501.293173 94.18478 l
501.869824 94.314576 l
502.254258 94.708957 l
502.830909 94.778847 l
504.560862 95.577592 l
504.945296 95.727357 l
506.483032 96.171659 l
507.059683 96.461204 l
507.444117 96.531095 l
507.828551 96.715804 l
508.020768 96.840608 l
508.212985 97.160107 l
508.789636 97.349809 l
509.366288 97.474613 l
509.750722 97.759166 l
510.327373 97.928899 l
511.096241 98.088648 l
511.672892 98.57788 l
512.633977 98.817503 l
513.595062 98.992229 l
514.36393 99.331696 l
514.748364 99.436531 l
514.940581 99.601272 l
515.709449 99.671162 l
519.746007 101.16881 l
519.938224 101.193771 l
520.130441 101.518261 l
520.899309 101.79283 l
521.47596 102.052422 l
521.668177 102.297038 l
522.437045 102.521685 l
522.821479 103.005924 l
523.782564 103.160681 l
524.743649 103.654905 l
524.935866 103.669881 l
525.128083 103.909505 l
525.512517 104.009348 l
525.896951 104.273932 l
526.089168 104.318862 l
526.281385 104.618391 l
527.626904 105.14756 l
528.011338 105.187497 l
528.395772 105.40216 l
528.780206 105.531956 l
528.972424 105.541941 l
529.356858 105.891392 l
529.549075 106.136008 l
529.933509 106.250827 l
530.125726 106.595286 l
530.702377 106.685145 l
530.894594 106.909792 l
531.086811 106.929761 l
531.471245 107.129447 l
531.663462 107.154408 l
531.855679 107.428977 l
532.240113 107.588726 l
532.43233 107.773436 l
533.201198 107.893247 l
533.393415 108.087941 l
534.3545 108.272651 l
534.546717 108.806812 l
534.738934 108.826781 l
534.931151 109.041444 l
535.123368 109.086373 l
535.892236 109.640503 l
536.853321 110.149703 l
537.045538 110.249546 l
537.429972 111.038307 l
537.814406 111.352813 l
538.19884 111.502578 l
538.391057 111.931904 l
538.583274 112.08666 l
538.775491 112.096645 l
539.352143 112.810523 l
540.505445 113.030178 l
541.082096 113.374637 l
541.274313 113.444528 l
541.46653 113.694135 l
541.658747 113.714104 l
541.850964 114.0985 l
542.043181 114.133445 l
542.235398 114.413006 l
544.542002 115.376493 l
544.926436 116.035458 l
545.118653 116.334987 l
545.503087 116.349964 l
545.695304 116.629525 l
546.464172 116.959007 l
546.656389 117.278505 l
546.848606 117.348395 l
547.040823 117.647925 l
547.809691 117.782713 l
548.001908 117.86758 l
548.386342 118.167109 l
549.155211 118.232008 l
550.116296 118.935902 l
550.50073 119.050722 l
550.692947 119.065698 l
550.885164 119.569906 l
551.461815 119.939326 l
552.230683 120.243847 l
552.615117 120.558353 l
553.960636 121.576754 l
554.152853 121.861307 l
555.113938 122.315593 l
555.882806 122.744919 l
556.459457 122.939613 l
558.18941 124.192645 l
558.573844 124.272519 l
558.958278 124.517135 l
559.727147 124.62197 l
560.688232 125.285927 l
560.880449 125.370794 l
561.264883 125.929916 l
561.649317 126.039743 l
561.841534 126.089665 l
562.225968 126.394187 l
562.802619 126.823512 l
562.994836 127.093089 l
563.187053 127.103073 l
563.37927 127.277799 l
563.571487 127.672179 l
564.148138 127.871866 l
564.532572 128.196356 l
564.724789 128.301191 l
564.917006 128.535823 l
565.30144 128.565776 l
565.685874 128.860313 l
566.839176 129.254693 l
567.608044 129.993533 l
567.992478 130.98198 l
568.569129 131.750773 l
568.761346 132.289926 l
569.145781 132.334855 l
569.530215 132.594447 l
570.875734 133.223459 l
571.067951 133.47806 l
571.260168 133.537965 l
571.452385 133.94233 l
571.644602 133.957307 l
572.221253 134.361672 l
572.41347 135.205346 l
572.605687 135.390056 l
573.374555 135.599727 l
573.566772 135.854327 l
573.758989 135.864311 l
573.951206 136.113919 l
574.33564 136.243715 l
574.527857 137.002523 l
574.720074 137.257124 l
575.296725 138.679889 l
576.450027 139.563501 l
576.642244 140.04774 l
577.218895 140.521995 l
577.603329 141.640239 l
577.795546 141.799988 l
578.372197 142.803412 l
578.948848 143.018074 l
579.141066 143.023067 l
579.333283 143.297635 l
579.909934 143.642094 l
580.294368 144.321028 l
581.255453 144.945048 l
581.639887 145.868597 l
581.832104 145.998393 l
582.216538 146.98684 l
582.408755 147.106652 l
582.600972 147.361252 l
582.985406 148.289794 l
583.754274 149.677614 l
583.946491 149.757488 l
584.138708 150.20179 l
584.330925 150.306626 l
584.523142 150.715983 l
584.715359 151.929077 l
585.484227 152.538121 l
585.868661 153.376803 l
586.445312 153.521576 l
586.637529 154.135611 l
587.021963 154.240447 l
587.21418 155.423588 l
587.598614 155.563369 l
587.983048 156.876306 l
588.751916 157.784879 l
589.328568 158.868178 l
589.520785 159.132762 l
590.097436 161.583912 l
590.674087 161.893426 l
591.058521 162.787022 l
591.250738 162.821967 l
591.635172 163.10652 l
591.827389 163.580775 l
592.019606 163.630697 l
592.211823 165.123352 l
592.596257 165.263133 l
592.788474 166.281533 l
593.749559 167.225051 l
593.941776 167.509604 l
594.518427 174.278971 l
595.287295 177.234329 l
595.479512 177.58378 l
595.671729 177.693607 l
595.863946 178.187831 l
596.056163 178.192823 l
596.440597 178.806859 l
596.825031 180.479232 l
597.017248 181.512608 l
597.401682 182.336315 l
597.593899 183.439582 l
597.978333 186.764359 l
598.17055 188.441724 l
598.554984 188.586497 l
598.939418 192.280694 l
599.323853 195.310934 l
599.51607 197.103119 l
599.708287 197.517469 l
600.092721 202.60947 l
600.284938 203.597918 l
600.477155 209.493657 l
600.669372 221.015559 l
600.861589 221.999014 l
601.053806 224.050791 l
601.246023 233.905312 l
601.246023 233.905312 l
stroke
grestore
0 setlinejoin
0 setlinecap
gsave
357.1 266.1 260.4 37.54 clipbox
/o {
gsave
newpath
translate
1.0 setlinewidth
0 setlinejoin
0 setlinecap
0 1 m
-1 -1 l
1 -1 l
cl

gsave
0.122 0.467 0.706 setrgbcolor
fill
grestore
stroke
grestore
} bind def
276.591 49.6447 o
309.076 53.324 o
341.561 56.8035 o
374.046 60.8971 o
406.53 66.1688 o
439.015 74.7553 o
471.5 82.2685 o
503.984 95.313 o
536.469 109.775 o
568.954 132.305 o
grestore
1 setlinejoin
2 setlinecap
1.000 0.498 0.055 setrgbcolor
gsave
357.1 266.1 260.4 37.54 clipbox
276.591477 49.649734 m
277.936996 50.143958 l
278.129213 50.158934 l
278.513647 50.338652 l
280.628035 50.593252 l
281.781337 50.822892 l
282.550205 50.91275 l
283.126856 51.037554 l
285.049026 51.28217 l
286.586762 51.461888 l
287.547847 51.566723 l
287.932281 51.631621 l
289.085584 51.746441 l
289.662235 51.831308 l
290.046669 51.846284 l
290.431103 52.040978 l
297.735349 52.510241 l
299.65752 52.759849 l
309.652805 53.623492 l
310.61389 53.833163 l
316.764834 54.362332 l
319.071439 54.522081 l
320.993609 54.661861 l
323.107996 54.816618 l
324.069081 54.881516 l
325.222383 54.991344 l
325.991251 55.061234 l
332.52663 55.810058 l
337.332055 56.13954 l
337.908706 56.209431 l
339.254226 56.32425 l
340.407528 56.488991 l
342.521915 56.708646 l
351.748332 57.766984 l
353.093851 57.911757 l
353.862719 58.006608 l
354.247153 58.106451 l
356.938191 58.470878 l
358.475927 58.770408 l
365.39574 59.574145 l
365.972391 59.668996 l
366.741259 59.833738 l
369.240081 60.053393 l
369.816732 60.168212 l
370.777817 60.268055 l
371.354468 60.337946 l
372.892204 60.557601 l
373.853289 60.702373 l
375.583242 60.872107 l
376.928761 61.046832 l
377.505412 61.131699 l
380.196451 61.326393 l
381.157536 61.576001 l
383.079706 61.73575 l
384.233008 61.895499 l
384.617442 62.000334 l
385.38631 62.10517 l
385.770744 62.190036 l
387.30848 62.439644 l
387.500697 62.639331 l
388.653999 62.769127 l
390.383953 63.168499 l
391.921689 63.343225 l
394.036076 63.627778 l
395.189378 63.737606 l
399.225936 64.58128 l
400.763672 64.800935 l
402.109191 65.060528 l
402.493625 65.175347 l
403.262493 65.39001 l
403.646927 65.52979 l
409.990089 66.403418 l
410.374523 66.518238 l
410.56674 66.518238 l
410.758957 66.767846 l
411.527825 66.89265 l
415.372165 67.476732 l
416.141033 67.606528 l
417.870986 68.055823 l
418.25542 68.185619 l
418.639854 68.190611 l
419.024289 68.385305 l
419.985374 68.545054 l
420.177591 68.749733 l
420.754242 68.934443 l
421.330893 69.049262 l
421.907544 69.144113 l
422.291978 69.323831 l
425.559667 69.733188 l
427.097403 70.192466 l
427.674054 70.392153 l
428.058488 70.536925 l
428.250705 70.541918 l
428.635139 70.676706 l
429.211791 70.766565 l
437.092688 72.309142 l
437.861556 72.423961 l
438.24599 72.563742 l
439.014859 72.653601 l
439.975944 72.773412 l
440.360378 72.81335 l
440.552595 73.037997 l
440.937029 73.142832 l
441.898114 73.32255 l
442.474765 73.407417 l
442.859199 73.53222 l
443.43585 73.696962 l
444.012501 73.846726 l
444.973586 73.986507 l
452.277833 75.504123 l
452.47005 75.678849 l
452.854484 75.803653 l
454.007786 76.053261 l
454.39222 76.302868 l
455.353305 76.462618 l
455.929956 76.612382 l
456.698824 76.762147 l
457.083258 76.996778 l
458.044343 77.086637 l
458.620994 77.241394 l
459.58208 77.396151 l
459.966514 77.48601 l
460.350948 77.520955 l
460.735382 77.675712 l
461.696467 77.840453 l
463.234203 78.764003 l
465.540807 79.148399 l
466.886326 79.602685 l
467.655194 79.652607 l
467.847411 79.837317 l
469.192931 79.992074 l
469.961799 80.116878 l
473.421705 80.935592 l
473.806139 81.020458 l
478.034913 82.033866 l
478.995999 82.198608 l
479.380433 82.333396 l
480.918169 82.697823 l
481.49482 82.937447 l
481.687037 83.172079 l
482.071471 83.286898 l
482.455905 83.501561 l
484.762509 83.851012 l
485.146943 83.940871 l
485.531377 83.945863 l
486.108028 84.305298 l
486.300245 84.320275 l
486.684679 84.490008 l
487.645764 84.594844 l
488.414632 84.929318 l
494.181143 86.496856 l
494.565577 86.571738 l
494.757794 86.821346 l
495.334445 87.021033 l
495.911096 87.400437 l
497.448832 87.859715 l
497.833266 88.07937 l
498.409917 88.239119 l
498.794351 88.363923 l
499.371003 88.51868 l
500.139871 88.708382 l
500.524305 88.848163 l
500.908739 88.908069 l
501.48539 89.00292 l
503.40756 89.51212 l
503.599777 89.841602 l
504.176428 89.966406 l
504.560862 90.1611 l
505.137513 90.335826 l
505.521947 90.395732 l
505.906381 90.695261 l
507.2519 90.964838 l
507.636334 91.004775 l
508.020768 91.289328 l
510.135156 91.833473 l
511.480675 92.322705 l
512.633977 92.687133 l
513.787279 93.09649 l
514.940581 93.181356 l
515.325015 93.281199 l
515.517232 93.565752 l
516.093883 93.665596 l
516.2861 93.880258 l
516.478317 93.885251 l
516.862751 94.094921 l
518.592704 94.698972 l
518.977139 94.718941 l
519.361573 95.168235 l
520.130441 95.372914 l
523.013696 95.976965 l
523.590347 96.301455 l
524.166998 96.376338 l
524.743649 96.82064 l
525.512517 97.249965 l
526.089168 97.474613 l
527.24247 97.943875 l
528.203555 98.817503 l
528.587989 98.962276 l
529.549075 99.536374 l
529.933509 99.566327 l
530.51016 99.845888 l
531.471245 100.130441 l
531.663462 100.469908 l
532.43233 100.649625 l
532.816764 100.84432 l
533.201198 100.899233 l
534.162283 101.463347 l
534.546717 101.578167 l
535.123368 101.81779 l
535.700019 101.957571 l
536.661104 102.526677 l
537.045538 102.576599 l
537.814406 102.856159 l
539.54436 103.39032 l
539.736577 103.400305 l
539.928794 103.87456 l
540.313228 104.099207 l
540.889879 104.318862 l
541.082096 104.763164 l
541.658747 104.828062 l
542.043181 105.00778 l
543.580917 105.242411 l
543.773134 105.382192 l
543.965351 105.716666 l
544.734219 106.001219 l
545.503087 106.545365 l
547.425257 107.134439 l
547.617474 107.399024 l
549.539645 108.018051 l
549.924079 108.162824 l
550.50073 108.402447 l
550.692947 108.677016 l
551.654032 108.836765 l
552.038466 109.301036 l
552.230683 109.340973 l
552.615117 109.785275 l
552.807334 109.810236 l
552.999551 110.04986 l
553.383985 110.149703 l
553.768419 110.324428 l
554.152853 110.48917 l
554.34507 110.678872 l
554.537287 111.073252 l
554.729504 111.073252 l
556.075023 112.071684 l
556.26724 112.101637 l
556.459457 112.595861 l
557.228325 112.830492 l
557.997193 113.159975 l
558.18941 113.749049 l
560.303798 114.587732 l
560.496015 114.747481 l
560.688232 115.171814 l
561.072666 115.291626 l
562.418185 115.730936 l
562.802619 116.469776 l
562.994836 116.469776 l
563.763704 117.378348 l
564.340355 117.513137 l
564.532572 118.30689 l
564.724789 118.331851 l
565.30144 119.090659 l
565.685874 119.350251 l
565.878091 119.614835 l
566.646959 119.939326 l
567.031393 120.348683 l
567.608044 120.428557 l
568.184695 121.087522 l
568.569129 121.596722 l
568.761346 122.35553 l
571.067951 124.836633 l
571.452385 126.154563 l
571.644602 126.184516 l
571.836819 126.414155 l
572.029036 127.192932 l
572.41347 127.287783 l
572.797904 127.362665 l
572.990121 127.37265 l
573.374555 128.036607 l
573.566772 128.32116 l
573.758989 128.366089 l
574.33564 128.870297 l
574.912291 128.980125 l
575.296725 129.574192 l
576.065593 130.068415 l
576.25781 130.28807 l
576.450027 130.682451 l
576.642244 130.697427 l
576.834461 131.036894 l
577.026678 131.046878 l
577.218895 131.306471 l
577.603329 131.336424 l
577.795546 131.960443 l
577.987763 132.150145 l
578.17998 132.150145 l
578.564414 132.674322 l
579.141066 132.898969 l
579.909934 133.887417 l
580.102151 134.072126 l
580.294368 134.576334 l
581.255453 135.509868 l
581.44767 135.974139 l
582.216538 136.248707 l
582.600972 136.373511 l
582.793189 136.69301 l
583.177623 136.912665 l
583.36984 137.5267 l
583.754274 137.816245 l
583.946491 138.2905 l
584.330925 138.415304 l
584.715359 138.580046 l
585.099793 139.019355 l
585.29201 139.21405 l
585.484227 139.673328 l
586.445312 140.477066 l
588.175265 143.437416 l
588.559699 143.602157 l
589.136351 144.350981 l
590.866304 145.663918 l
591.058521 145.688879 l
591.250738 146.22304 l
591.442955 146.397766 l
591.635172 147.24144 l
591.827389 147.580907 l
592.019606 148.509449 l
592.211823 148.729104 l
592.596257 151.255136 l
592.788474 154.030776 l
592.980691 155.178972 l
593.365125 155.323745 l
593.557342 155.703149 l
593.941776 157.006102 l
594.133993 157.600169 l
594.518427 157.754926 l
594.710644 159.572072 l
594.902861 159.881586 l
595.287295 162.048183 l
595.479512 162.08812 l
595.863946 163.525861 l
596.056163 163.640681 l
596.24838 164.469379 l
596.632814 164.883729 l
596.825031 166.256572 l
597.017248 166.356415 l
597.209465 168.163577 l
597.401682 168.203514 l
597.593899 168.528004 l
597.978333 169.686185 l
598.17055 171.233754 l
598.362767 171.368542 l
598.554984 171.747946 l
598.747201 175.821548 l
598.939418 176.350717 l
599.131636 180.134773 l
599.323853 180.164726 l
599.51607 180.539138 l
599.708287 180.628996 l
599.900504 182.565954 l
600.092721 190.039215 l
600.284938 190.079152 l
601.053806 210.337332 l
601.246023 236.910591 l
601.246023 236.910591 l
stroke
grestore
0 setlinecap
gsave
357.1 266.1 260.4 37.54 clipbox
/o {
gsave
newpath
translate
1.0 setlinewidth
1 setlinejoin
0 setlinecap
-1 0 m
1 0 l
0 -1 m
0 1 l

gsave
1.000 0.498 0.055 setrgbcolor
fill
grestore
stroke
grestore
} bind def
276.784 49.7346 o
309.268 53.6085 o
341.753 56.6138 o
374.238 60.7523 o
406.722 65.9142 o
439.207 72.6935 o
471.692 80.5861 o
504.176 89.9664 o
536.661 102.527 o
569.146 122.715 o
grestore
2 setlinecap
0.173 0.627 0.173 setrgbcolor
gsave
357.1 266.1 260.4 37.54 clipbox
276.591477 49.63975 m
277.936996 50.024146 l
281.396903 50.648166 l
282.934639 50.743017 l
283.703507 50.872813 l
287.35563 51.252217 l
288.701149 51.342076 l
289.277801 51.431935 l
291.968839 51.681543 l
295.044311 52.145814 l
295.620962 52.195735 l
296.005396 52.330523 l
304.270728 53.059379 l
304.655162 53.144245 l
307.153983 53.308986 l
307.538417 53.443775 l
309.076154 53.528641 l
309.845022 53.603524 l
312.151626 53.823179 l
312.53606 53.933006 l
313.497145 54.047826 l
314.45823 54.222551 l
315.034881 54.337371 l
316.764834 54.522081 l
318.30257 54.616932 l
319.840307 54.821611 l
320.224741 54.926446 l
321.954694 55.076211 l
324.069081 55.405693 l
324.453515 55.525505 l
330.027809 56.029713 l
330.412243 56.109587 l
337.716489 56.963246 l
339.446443 57.058098 l
343.675217 57.607235 l
344.251868 57.672133 l
344.636302 57.846859 l
348.288425 58.311129 l
349.249511 58.40598 l
349.633945 58.530784 l
352.132766 59.015024 l
353.478285 59.094898 l
355.592672 59.58413 l
356.938191 59.763847 l
359.437013 60.033424 l
359.821447 60.128275 l
365.203523 61.036848 l
365.587957 61.166644 l
365.780174 61.206581 l
365.972391 61.386299 l
367.125693 61.526079 l
368.855646 61.740742 l
369.432298 61.870538 l
375.775459 63.083633 l
376.159893 63.178484 l
376.736544 63.333241 l
379.812017 63.967245 l
380.580885 64.032143 l
380.773102 64.1869 l
380.965319 64.196884 l
381.157536 64.341657 l
381.926404 64.461469 l
386.155178 65.095473 l
386.731829 65.494845 l
387.500697 65.599681 l
388.269565 65.7145 l
388.846216 65.884234 l
394.036076 66.598112 l
394.42051 66.817767 l
394.997161 66.852712 l
395.573812 67.057391 l
396.34268 67.187187 l
398.072633 67.54163 l
398.841501 67.691395 l
399.225936 67.846152 l
399.61037 67.936011 l
400.571455 68.380313 l
401.148106 68.470172 l
401.724757 68.679842 l
402.109191 68.709795 l
402.301408 68.879529 l
403.45471 69.019309 l
404.415795 69.238964 l
404.992446 69.583423 l
406.722399 69.872968 l
407.106833 70.1076 l
407.683484 70.222419 l
408.644569 70.382168 l
409.221221 70.526941 l
409.605655 70.811494 l
410.374523 71.016173 l
410.56674 71.255796 l
411.143391 71.325686 l
411.720042 71.42553 l
413.065561 71.640192 l
413.257778 71.784965 l
413.642212 71.86484 l
415.564382 72.314134 l
416.33325 72.44393 l
416.909901 72.593695 l
418.447637 73.062958 l
419.024289 73.402424 l
420.562025 73.672001 l
420.754242 73.846726 l
421.52311 73.921609 l
422.291978 74.360919 l
423.637497 74.490715 l
427.28962 74.935017 l
427.481837 75.114735 l
429.019574 75.304437 l
429.404008 75.534076 l
430.172876 75.828613 l
430.55731 75.943433 l
430.941744 76.133135 l
431.326178 76.497563 l
431.710612 76.502555 l
432.095046 76.712225 l
432.671697 76.832037 l
433.632782 77.001771 l
434.209433 77.181488 l
434.593867 77.341237 l
435.362735 77.535932 l
435.939386 77.620798 l
436.32382 77.775555 l
436.516037 78.080077 l
436.900471 78.229842 l
437.092688 78.439512 l
438.24599 78.604254 l
439.207076 78.788963 l
439.59151 79.053548 l
440.552595 79.258226 l
440.937029 79.512826 l
441.129246 79.532795 l
441.705897 79.917191 l
441.898114 80.216721 l
442.474765 80.311572 l
442.859199 80.451352 l
443.628067 80.641054 l
444.396935 80.840741 l
445.35802 80.940584 l
446.703539 81.329972 l
446.895756 81.50969 l
447.472407 81.609533 l
447.664624 81.804227 l
448.241275 81.839172 l
448.625709 82.053835 l
449.394578 82.153678 l
451.701182 82.842596 l
452.085616 83.157102 l
452.662267 83.241969 l
452.854484 83.316851 l
453.046701 83.621373 l
454.776654 83.91591 l
455.545522 84.53993 l
455.737739 84.599836 l
455.929956 85.029161 l
457.275475 85.313715 l
457.852126 85.782977 l
459.005429 86.012617 l
459.389863 86.257232 l
460.543165 86.536793 l
461.119816 86.756448 l
461.888684 86.971111 l
463.42642 88.229135 l
464.387505 88.463767 l
464.771939 88.793249 l
464.964156 89.122731 l
465.156373 89.167661 l
465.34859 89.44223 l
466.886326 89.751743 l
467.078543 89.901508 l
468.039628 89.986375 l
468.424062 90.201038 l
468.808496 90.295889 l
469.577365 90.565465 l
469.961799 90.680285 l
470.346233 90.810081 l
470.53845 90.874979 l
470.730667 91.159532 l
471.499535 91.379187 l
471.883969 91.77856 l
472.46062 92.083081 l
473.613922 92.352658 l
474.575007 93.076521 l
474.959441 93.181356 l
475.536092 93.430964 l
476.30496 93.910211 l
476.689394 93.960133 l
477.458262 94.334545 l
480.149301 95.482741 l
480.341518 95.762302 l
480.533735 95.8272 l
480.725952 96.021894 l
480.918169 96.036871 l
481.302603 96.301455 l
481.687037 96.356369 l
482.263688 96.700828 l
482.840339 96.89053 l
483.224773 97.205036 l
483.801424 97.289903 l
484.378075 97.534518 l
487.837981 99.077095 l
488.030198 99.097064 l
488.414632 99.381617 l
488.991284 99.496437 l
490.336803 100.594712 l
490.721237 101.393457 l
491.105671 101.4933 l
492.835624 102.097351 l
493.027841 102.182218 l
493.604492 102.736348 l
493.796709 102.761308 l
494.565577 103.325422 l
495.718879 103.94445 l
496.487747 104.758172 l
496.679964 104.922913 l
497.064398 105.521972 l
498.409917 105.666745 l
498.986569 105.826494 l
499.56322 105.951298 l
499.947654 106.200906 l
500.139871 106.415568 l
500.716522 106.530388 l
500.908739 107.004643 l
501.48539 107.099494 l
502.254258 107.334126 l
503.023126 107.593718 l
504.753079 108.337549 l
504.945296 108.612118 l
505.906381 109.001507 l
506.483032 109.365934 l
507.059683 109.705401 l
507.2519 110.024899 l
507.444117 110.059844 l
508.020768 110.584021 l
508.597419 110.618966 l
508.789636 111.093221 l
508.981854 111.158119 l
509.558505 111.787131 l
510.135156 111.961856 l
510.51959 112.026755 l
510.904024 112.321292 l
511.288458 112.371213 l
511.480675 112.725657 l
511.865109 112.830492 l
512.44176 113.494449 l
512.826194 113.614261 l
513.210628 113.863869 l
514.36393 114.173383 l
514.940581 114.427983 l
515.132798 114.547795 l
515.325015 114.812379 l
516.862751 115.361516 l
517.247185 115.60114 l
517.823836 115.765881 l
518.016053 116.030466 l
518.400487 116.060419 l
518.977139 116.399885 l
520.130441 116.73436 l
520.514875 117.043874 l
520.707092 117.123748 l
521.091526 117.79769 l
521.47596 118.556498 l
522.437045 118.81609 l
523.205913 119.030753 l
524.359215 119.784569 l
525.3203 120.233863 l
525.704734 120.902812 l
526.281385 121.032608 l
527.24247 121.786424 l
528.203555 122.14586 l
528.395772 122.410444 l
528.780206 122.455374 l
528.972424 122.65506 l
529.164641 122.675029 l
529.741292 123.309033 l
529.933509 123.643507 l
530.317943 123.71839 l
530.51016 124.047872 l
531.279028 124.192645 l
531.663462 124.532112 l
531.855679 125.006367 l
532.624547 125.151139 l
533.201198 126.319304 l
533.777849 126.469069 l
534.162283 126.603857 l
534.3545 126.618834 l
534.738934 126.778583 l
535.123368 126.993246 l
535.507802 127.312744 l
537.429972 128.500878 l
537.814406 129.104929 l
538.006623 129.149858 l
538.391057 129.703988 l
539.159926 129.853752 l
539.352143 129.96358 l
539.736577 130.947035 l
539.928794 130.952027 l
540.121011 131.271525 l
540.313228 131.271525 l
540.505445 131.566063 l
540.697662 131.655922 l
541.274313 132.264965 l
541.46653 132.314887 l
541.658747 132.544526 l
542.235398 132.66933 l
543.773134 133.892409 l
544.157568 134.456523 l
544.926436 134.741076 l
545.118653 135.235299 l
545.31087 135.280229 l
545.695304 135.764468 l
546.079738 135.779445 l
546.464172 135.934202 l
546.656389 135.964154 l
546.848606 136.2537 l
547.23304 136.328582 l
547.617474 136.368519 l
548.386342 137.207202 l
549.347428 137.985979 l
549.731862 138.724818 l
550.116296 138.77474 l
550.308513 138.879575 l
550.50073 139.234018 l
550.885164 139.373799 l
551.077381 139.393767 l
551.461815 139.718258 l
551.654032 139.808116 l
551.846249 140.287364 l
554.152853 141.834933 l
555.113938 143.30762 l
555.306155 143.367525 l
555.498372 143.612141 l
555.690589 144.056443 l
556.26724 144.191232 l
556.459457 144.58062 l
556.843891 144.815251 l
557.036108 145.359397 l
557.420542 145.404326 l
557.612759 145.878581 l
558.573844 146.387781 l
558.766061 146.867029 l
559.342713 146.91695 l
560.303798 147.620845 l
560.688232 147.835507 l
560.880449 148.444551 l
561.4571 148.993688 l
561.841534 149.413029 l
562.033751 149.722543 l
562.225968 149.747504 l
562.802619 150.096955 l
563.37927 150.626124 l
563.571487 151.005528 l
563.763704 151.065434 l
563.955921 151.33501 l
564.340355 151.474791 l
565.109223 151.754352 l
565.685874 153.007384 l
566.262525 153.102235 l
566.839176 153.64638 l
567.031393 154.055737 l
567.22361 154.115643 l
567.608044 154.475078 l
567.992478 154.619851 l
568.376912 154.679757 l
568.569129 154.889427 l
568.761346 155.328737 l
569.337998 155.548392 l
569.722432 155.862898 l
570.683517 156.072569 l
571.260168 158.209213 l
571.644602 158.87317 l
572.029036 158.973013 l
572.797904 159.796719 l
572.990121 160.061303 l
573.374555 160.186107 l
573.566772 160.485637 l
573.758989 160.505606 l
574.143423 161.149594 l
574.33564 161.184539 l
574.527857 161.399202 l
575.104508 161.588904 l
575.488942 161.778606 l
575.873376 162.587336 l
576.065593 163.286238 l
576.834461 163.655658 l
577.026678 163.66065 l
577.218895 163.910258 l
577.411112 164.464387 l
577.603329 164.549254 l
577.987763 165.437858 l
578.17998 165.55767 l
578.372197 166.39136 l
578.756631 166.556102 l
578.948848 166.870608 l
579.141066 166.910545 l
579.5255 167.978867 l
580.102151 168.143608 l
580.294368 168.153592 l
580.871019 168.812557 l
581.063236 168.907408 l
581.255453 169.157016 l
581.44767 169.167001 l
582.024321 171.43344 l
582.600972 172.696457 l
582.985406 173.140759 l
583.177623 173.365406 l
583.36984 174.119222 l
583.754274 174.249018 l
584.138708 175.077716 l
584.523142 175.137622 l
584.715359 175.736681 l
585.29201 176.131062 l
586.060878 177.429023 l
586.253095 178.552258 l
586.445312 178.557251 l
587.021963 180.304506 l
587.406397 182.156597 l
587.598614 182.62586 l
587.790831 182.640836 l
587.983048 184.103539 l
588.367482 184.857355 l
588.559699 186.549696 l
588.751916 186.829257 l
588.944133 186.889163 l
589.136351 187.348442 l
589.520785 189.050768 l
589.905219 189.460125 l
590.097436 189.654819 l
590.289653 190.273847 l
590.48187 190.368698 l
590.674087 190.638274 l
590.866304 190.663235 l
591.058521 190.842953 l
591.442955 193.084432 l
591.827389 193.513757 l
592.019606 193.738405 l
592.211823 193.743397 l
592.40404 194.022958 l
592.596257 194.617024 l
592.980691 196.10968 l
593.365125 197.392665 l
593.557342 197.412633 l
593.941776 197.876904 l
594.133993 197.916841 l
594.518427 198.7705 l
594.710644 198.875336 l
594.902861 200.38796 l
595.095078 200.512764 l
595.287295 200.847238 l
595.479512 200.957066 l
595.671729 201.356438 l
595.863946 202.569533 l
596.056163 202.829125 l
596.24838 204.731138 l
596.632814 205.420055 l
597.401682 208.520186 l
597.593899 209.189135 l
597.786116 209.333908 l
597.978333 210.207535 l
598.362767 210.392245 l
598.554984 212.468983 l
598.747201 212.893317 l
598.939418 214.880196 l
599.323853 221.085449 l
599.900504 223.661402 l
600.092721 227.784925 l
600.284938 229.502228 l
600.669372 236.680952 l
601.053806 265.211138 l
601.246023 291.55975 l
601.246023 291.55975 l
stroke
grestore
0 setlinecap
gsave
357.1 266.1 260.4 37.54 clipbox
/o {
gsave
newpath
translate
1.0 setlinewidth
1 setlinejoin
0 setlinecap
-1 -1 m
1 1 l
-1 1 m
1 -1 l

gsave
0.173 0.627 0.173 setrgbcolor
fill
grestore
stroke
grestore
} bind def
276.976 49.7845 o
309.461 53.5885 o
341.945 57.3826 o
374.43 62.9039 o
406.915 70.0527 o
439.399 78.9837 o
471.884 91.7786 o
504.369 108.133 o
536.853 128.226 o
569.338 155.548 o
grestore
2 setlinecap
0.839 0.153 0.157 setrgbcolor
gsave
357.1 266.1 260.4 37.54 clipbox
276.591477 52.71492 m
277.744779 52.884653 l
279.859167 53.338939 l
281.012469 53.448767 l
283.126856 53.613508 l
285.049026 53.843147 l
285.817894 54.007889 l
288.893367 54.217559 l
305.42403 54.971375 l
307.538417 55.061234 l
308.883937 55.141109 l
319.840307 55.505536 l
320.416958 55.565442 l
325.606817 55.810058 l
327.33677 55.894925 l
330.412243 55.989776 l
331.949979 56.044689 l
334.256583 56.154517 l
348.480642 56.783529 l
350.979464 56.873388 l
351.556115 56.923309 l
356.553757 57.147956 l
358.091493 57.237815 l
361.5514 57.342651 l
371.931119 57.771976 l
374.237723 57.871819 l
377.120978 57.991631 l
379.043149 58.096466 l
386.155178 58.545761 l
388.846216 58.725478 l
392.113906 58.965102 l
392.690557 59.039984 l
397.688199 59.279608 l
399.802587 59.394428 l
401.340323 59.499263 l
414.218863 60.397852 l
416.525467 60.497695 l
418.063203 60.592546 l
420.562025 60.802216 l
421.138676 60.867114 l
425.175233 61.171636 l
426.328535 61.241526 l
439.399293 62.150099 l
444.012501 62.339801 l
444.589152 62.459613 l
446.703539 62.619362 l
452.47005 63.108594 l
459.005429 63.697668 l
459.389863 63.782535 l
462.849769 64.057104 l
465.156373 64.316696 l
466.309675 64.486429 l
467.462977 64.646178 l
478.803781 65.559743 l
479.188216 65.674563 l
482.071471 66.163795 l
483.41699 66.273622 l
484.570292 66.368473 l
487.837981 66.787814 l
488.799066 66.922603 l
489.183501 66.972524 l
489.567935 67.067375 l
490.144586 67.187187 l
492.258973 67.51667 l
493.027841 67.626497 l
496.679964 68.070799 l
497.064398 68.220564 l
500.908739 68.515101 l
501.48539 68.594976 l
503.599777 68.90449 l
503.984211 69.024301 l
505.137513 69.129137 l
505.906381 69.29887 l
507.2519 69.423674 l
508.212985 69.733188 l
509.558505 69.907913 l
517.439402 71.001196 l
518.20827 71.205875 l
518.784921 71.315702 l
519.55379 71.500412 l
519.938224 71.535357 l
520.322658 71.650177 l
521.091526 71.745028 l
521.47596 71.879816 l
523.39813 72.269204 l
523.782564 72.433946 l
525.3203 72.818342 l
527.24247 73.117871 l
528.395772 73.25266 l
528.780206 73.282613 l
529.356858 73.547197 l
530.702377 73.676993 l
536.27667 74.59555 l
536.853321 74.805221 l
540.697662 75.374327 l
541.082096 75.574013 l
541.46653 75.84359 l
541.658747 75.853574 l
542.043181 76.033292 l
542.812049 76.222994 l
543.3887 76.342806 l
543.773134 76.487578 l
544.157568 76.612382 l
544.926436 76.856998 l
545.118653 76.876967 l
545.503087 77.191473 l
547.23304 78.015179 l
548.001908 78.120014 l
549.539645 78.509402 l
550.308513 78.609246 l
550.692947 78.858854 l
551.654032 79.183344 l
552.615117 79.93716 l
552.999551 80.12187 l
553.576202 80.416407 l
553.768419 80.571164 l
554.152853 80.990505 l
556.075023 81.424823 l
556.26724 82.048843 l
557.997193 82.647902 l
558.381627 82.842596 l
559.150496 83.032298 l
559.342713 83.261937 l
559.727147 83.341812 l
559.919364 83.531514 l
560.303798 83.601404 l
560.688232 83.890949 l
560.880449 83.895941 l
561.072666 84.080651 l
561.264883 84.095628 l
562.225968 84.639773 l
562.802619 84.709663 l
563.571487 85.258801 l
563.955921 85.438518 l
564.148138 85.498424 l
564.724789 85.952711 l
565.109223 86.072523 l
565.878091 86.36706 l
566.262525 86.456919 l
566.839176 86.941158 l
567.031393 87.120876 l
567.22361 87.13086 l
567.415827 87.335539 l
567.800261 87.355507 l
568.761346 87.854723 l
569.337998 87.989511 l
569.914649 88.244112 l
570.299083 88.713374 l
571.067951 89.237551 l
571.452385 89.312433 l
571.644602 89.626939 l
572.605687 89.986375 l
573.566772 90.705246 l
573.951206 91.15454 l
574.143423 91.159532 l
574.33564 91.354226 l
574.527857 91.384179 l
574.912291 91.758591 l
575.296725 91.91834 l
575.488942 91.96327 l
575.873376 92.592282 l
576.25781 93.186348 l
576.642244 93.595705 l
577.603329 93.890243 l
577.987763 93.980102 l
578.564414 94.194764 l
579.5255 94.429396 l
579.909934 94.574168 l
580.102151 95.008486 l
580.486585 95.093353 l
581.255453 96.605977 l
581.832104 96.870561 l
582.024321 96.885538 l
582.408755 97.374769 l
582.600972 97.449652 l
582.985406 98.078664 l
583.177623 98.148554 l
583.36984 98.547927 l
583.754274 99.651194 l
584.330925 99.761021 l
584.523142 100.270221 l
584.715359 101.258669 l
584.907576 101.358512 l
585.099793 101.722939 l
585.484227 101.812798 l
585.676444 102.147273 l
585.868661 102.247116 l
586.445312 103.040869 l
586.637529 103.170665 l
587.021963 104.413713 l
587.406397 104.663321 l
587.598614 105.182505 l
587.790831 105.377199 l
587.983048 105.95629 l
588.367482 106.051141 l
588.944133 106.230859 l
589.136351 106.515412 l
589.328568 106.520404 l
589.520785 106.735067 l
589.905219 106.775004 l
590.289653 107.418992 l
590.674087 107.633655 l
591.058521 108.15284 l
591.250738 108.392463 l
591.442955 109.201193 l
592.019606 109.400879 l
592.211823 110.224585 l
592.40404 111.62239 l
592.596257 111.76217 l
593.172908 113.035171 l
593.749559 113.639222 l
593.941776 114.258249 l
594.133993 116.045442 l
594.32621 116.080387 l
594.518427 118.157125 l
594.710644 118.716247 l
594.902861 118.841051 l
595.095078 119.864443 l
595.479512 120.193926 l
595.671729 120.997663 l
595.863946 121.132452 l
596.056163 121.996095 l
596.24838 122.320585 l
596.440597 122.380491 l
596.825031 123.528688 l
597.209465 125.096225 l
597.401682 125.221029 l
597.593899 127.637234 l
597.786116 127.99667 l
597.978333 129.144866 l
598.17055 131.001949 l
598.362767 131.036894 l
599.131636 135.045597 l
599.708287 138.59003 l
600.092721 145.15971 l
600.477155 170.524868 l
600.669372 180.199671 l
600.861589 182.845515 l
601.053806 194.956491 l
601.246023 197.911849 l
601.246023 197.911849 l
stroke
grestore
0 setlinejoin
0 setlinecap
gsave
357.1 266.1 260.4 37.54 clipbox
/o {
gsave
newpath
translate
1.0 setlinewidth
0 setlinejoin
0 setlinecap
-0 -1.414214 m
0.848528 0 l
0 1.414214 l
-0.848528 0 l
cl

gsave
0.839 0.153 0.157 setrgbcolor
fill
grestore
stroke
grestore
} bind def
277.168 52.8347 o
309.653 55.1561 o
342.137 56.5489 o
374.622 57.8968 o
407.107 59.9585 o
439.592 62.1551 o
472.076 65.0206 o
504.561 69.1192 o
537.046 74.8302 o
569.53 88.0694 o
grestore
0.800 setlinewidth
2 setlinecap
[] 0 setdash
0.000 setgray
gsave
260.35875 37.54375 m
260.35875 303.65575 l
stroke
grestore
gsave
617.47875 37.54375 m
617.47875 303.65575 l
stroke
grestore
gsave
260.35875 37.54375 m
617.47875 37.54375 l
stroke
grestore
gsave
260.35875 303.65575 m
617.47875 303.65575 l
stroke
grestore
/DejaVuSans findfont
12.000 scalefont
setfont
gsave
308.684375 344.045075 translate
0.000000 rotate
0.000000 0.000000 m /P glyphshow
7.236328 0.000000 m /e glyphshow
14.619141 0.000000 m /r glyphshow
19.552734 0.000000 m /f glyphshow
23.777344 0.000000 m /o glyphshow
31.119141 0.000000 m /r glyphshow
36.052734 0.000000 m /m glyphshow
47.742188 0.000000 m /a glyphshow
55.095703 0.000000 m /n glyphshow
62.701172 0.000000 m /c glyphshow
69.298828 0.000000 m /e glyphshow
76.681641 0.000000 m /space glyphshow
80.496094 0.000000 m /o glyphshow
87.837891 0.000000 m /v glyphshow
94.939453 0.000000 m /e glyphshow
102.322266 0.000000 m /r glyphshow
107.255859 0.000000 m /space glyphshow
111.070312 0.000000 m /q glyphshow
118.687500 0.000000 m /u glyphshow
126.292969 0.000000 m /e glyphshow
133.675781 0.000000 m /r glyphshow
138.609375 0.000000 m /y glyphshow
145.710938 0.000000 m /space glyphshow
149.525391 0.000000 m /i glyphshow
152.859375 0.000000 m /d glyphshow
160.476562 0.000000 m /space glyphshow
164.291016 0.000000 m /parenleft glyphshow
168.972656 0.000000 m /t glyphshow
173.677734 0.000000 m /i glyphshow
177.011719 0.000000 m /m glyphshow
188.701172 0.000000 m /e glyphshow
196.083984 0.000000 m /s glyphshow
202.335938 0.000000 m /space glyphshow
206.150391 0.000000 m /S glyphshow
213.767578 0.000000 m /O glyphshow
223.212891 0.000000 m /R glyphshow
231.550781 0.000000 m /T glyphshow
238.880859 0.000000 m /E glyphshow
246.462891 0.000000 m /D glyphshow
255.703125 0.000000 m /parenright glyphshow
grestore
gsave
7.200000 330.595075 translate
0.000000 rotate
0.000000 0.000000 m /u glyphshow
7.605469 0.000000 m /s glyphshow
13.857422 0.000000 m /e glyphshow
21.240234 0.000000 m /underscore glyphshow
27.240234 0.000000 m /b glyphshow
34.857422 0.000000 m /o glyphshow
42.199219 0.000000 m /u glyphshow
49.804688 0.000000 m /n glyphshow
57.410156 0.000000 m /d glyphshow
65.027344 0.000000 m /equal glyphshow
75.082031 0.000000 m /F glyphshow
81.968750 0.000000 m /a glyphshow
89.322266 0.000000 m /l glyphshow
92.656250 0.000000 m /s glyphshow
98.908203 0.000000 m /e glyphshow
106.291016 0.000000 m /space glyphshow
110.105469 0.000000 m /u glyphshow
117.710938 0.000000 m /s glyphshow
123.962891 0.000000 m /e glyphshow
131.345703 0.000000 m /underscore glyphshow
137.345703 0.000000 m /a glyphshow
144.699219 0.000000 m /n glyphshow
152.304688 0.000000 m /y glyphshow
159.406250 0.000000 m /t glyphshow
164.111328 0.000000 m /i glyphshow
167.445312 0.000000 m /m glyphshow
179.134766 0.000000 m /e glyphshow
186.517578 0.000000 m /equal glyphshow
196.572266 0.000000 m /F glyphshow
203.458984 0.000000 m /a glyphshow
210.812500 0.000000 m /l glyphshow
214.146484 0.000000 m /s glyphshow
220.398438 0.000000 m /e glyphshow
227.781250 0.000000 m /space glyphshow
231.595703 0.000000 m /p glyphshow
239.212891 0.000000 m /e glyphshow
246.595703 0.000000 m /r glyphshow
251.529297 0.000000 m /t glyphshow
256.234375 0.000000 m /u glyphshow
263.839844 0.000000 m /r glyphshow
268.773438 0.000000 m /b glyphshow
276.390625 0.000000 m /a glyphshow
283.744141 0.000000 m /t glyphshow
288.449219 0.000000 m /i glyphshow
291.783203 0.000000 m /o glyphshow
299.125000 0.000000 m /n glyphshow
306.730469 0.000000 m /underscore glyphshow
312.730469 0.000000 m /m glyphshow
324.419922 0.000000 m /o glyphshow
331.761719 0.000000 m /d glyphshow
339.378906 0.000000 m /e glyphshow
346.761719 0.000000 m /equal glyphshow
356.816406 0.000000 m /M glyphshow
367.169922 0.000000 m /U glyphshow
375.953125 0.000000 m /L glyphshow
382.623047 0.000000 m /T glyphshow
389.953125 0.000000 m /I glyphshow
393.492188 0.000000 m /P glyphshow
400.728516 0.000000 m /L glyphshow
407.398438 0.000000 m /Y glyphshow
414.728516 0.000000 m /space glyphshow
418.542969 0.000000 m /p glyphshow
426.160156 0.000000 m /e glyphshow
433.542969 0.000000 m /r glyphshow
438.476562 0.000000 m /t glyphshow
443.181641 0.000000 m /u glyphshow
450.787109 0.000000 m /r glyphshow
455.720703 0.000000 m /b glyphshow
463.337891 0.000000 m /a glyphshow
470.691406 0.000000 m /t glyphshow
475.396484 0.000000 m /i glyphshow
478.730469 0.000000 m /o glyphshow
486.072266 0.000000 m /n glyphshow
493.677734 0.000000 m /underscore glyphshow
499.677734 0.000000 m /r glyphshow
504.611328 0.000000 m /a glyphshow
511.964844 0.000000 m /n glyphshow
519.570312 0.000000 m /g glyphshow
527.187500 0.000000 m /e glyphshow
534.570312 0.000000 m /equal glyphshow
544.625000 0.000000 m /bracketleft glyphshow
549.306641 0.000000 m /three glyphshow
556.941406 0.000000 m /comma glyphshow
560.755859 0.000000 m /three glyphshow
568.390625 0.000000 m /bracketright glyphshow
573.072266 0.000000 m /space glyphshow
576.886719 0.000000 m /a glyphshow
584.240234 0.000000 m /r glyphshow
589.173828 0.000000 m /e glyphshow
596.556641 0.000000 m /a glyphshow
603.910156 0.000000 m /underscore glyphshow
609.910156 0.000000 m /r glyphshow
614.843750 0.000000 m /a glyphshow
622.197266 0.000000 m /d glyphshow
629.814453 0.000000 m /i glyphshow
633.148438 0.000000 m /u glyphshow
640.753906 0.000000 m /s glyphshow
647.005859 0.000000 m /equal glyphshow
657.060547 0.000000 m /bracketleft glyphshow
661.742188 0.000000 m /one glyphshow
669.376953 0.000000 m /five glyphshow
677.011719 0.000000 m /comma glyphshow
680.826172 0.000000 m /one glyphshow
688.460938 0.000000 m /five glyphshow
696.095703 0.000000 m /bracketright glyphshow
700.777344 0.000000 m /space glyphshow
704.591797 0.000000 m /o glyphshow
711.933594 0.000000 m /p glyphshow
719.550781 0.000000 m /t glyphshow
724.255859 0.000000 m /i glyphshow
727.589844 0.000000 m /m glyphshow
739.279297 0.000000 m /a glyphshow
746.632812 0.000000 m /l glyphshow
749.966797 0.000000 m /underscore glyphshow
755.966797 0.000000 m /p glyphshow
763.583984 0.000000 m /a glyphshow
770.937500 0.000000 m /t glyphshow
775.642578 0.000000 m /h glyphshow
783.248047 0.000000 m /underscore glyphshow
789.248047 0.000000 m /r glyphshow
794.181641 0.000000 m /a glyphshow
801.535156 0.000000 m /t glyphshow
806.240234 0.000000 m /i glyphshow
809.574219 0.000000 m /o glyphshow
816.916016 0.000000 m /equal glyphshow
826.970703 0.000000 m /bracketleft glyphshow
831.652344 0.000000 m /zero glyphshow
839.287109 0.000000 m /comma glyphshow
843.101562 0.000000 m /nine glyphshow
850.736328 0.000000 m /five glyphshow
858.371094 0.000000 m /bracketright glyphshow
grestore
1.000 setlinewidth
1 setlinejoin
[] 0 setdash
0.122 0.467 0.706 setrgbcolor
gsave
264.35875 295.562 m
284.35875 295.562 l
stroke
grestore
0 setlinejoin
0 setlinecap
gsave
/o {
gsave
newpath
translate
1.0 setlinewidth
0 setlinejoin
0 setlinecap
0 1 m
-1 -1 l
1 -1 l
cl

gsave
0.122 0.467 0.706 setrgbcolor
fill
grestore
stroke
grestore
} bind def
274.359 295.562 o
grestore
0.000 setgray
/DejaVuSans findfont
10.000 scalefont
setfont
gsave
292.358750 292.062000 translate
0.000000 rotate
0.000000 0.000000 m /A glyphshow
6.840820 0.000000 m /asterisk glyphshow
11.840820 0.000000 m /space glyphshow
15.019531 0.000000 m /D glyphshow
22.719727 0.000000 m /H glyphshow
30.239258 0.000000 m /equal glyphshow
38.618164 0.000000 m /one glyphshow
44.980469 0.000000 m /two glyphshow
grestore
1 setlinejoin
2 setlinecap
1.000 0.498 0.055 setrgbcolor
gsave
264.35875 280.890125 m
284.35875 280.890125 l
stroke
grestore
0 setlinecap
gsave
/o {
gsave
newpath
translate
1.0 setlinewidth
1 setlinejoin
0 setlinecap
-1 0 m
1 0 l
0 -1 m
0 1 l

gsave
1.000 0.498 0.055 setrgbcolor
fill
grestore
stroke
grestore
} bind def
274.359 280.89 o
grestore
0.000 setgray
gsave
292.358750 277.390125 translate
0.000000 rotate
0.000000 0.000000 m /A glyphshow
6.840820 0.000000 m /asterisk glyphshow
11.840820 0.000000 m /space glyphshow
15.019531 0.000000 m /D glyphshow
22.719727 0.000000 m /H glyphshow
30.239258 0.000000 m /equal glyphshow
38.618164 0.000000 m /one glyphshow
44.980469 0.000000 m /eight glyphshow
grestore
2 setlinecap
0.173 0.627 0.173 setrgbcolor
gsave
363.7025 295.562 m
383.7025 295.562 l
stroke
grestore
0 setlinecap
gsave
/o {
gsave
newpath
translate
1.0 setlinewidth
1 setlinejoin
0 setlinecap
-1 -1 m
1 1 l
-1 1 m
1 -1 l

gsave
0.173 0.627 0.173 setrgbcolor
fill
grestore
stroke
grestore
} bind def
373.702 295.562 o
grestore
0.000 setgray
gsave
391.702500 292.062000 translate
0.000000 rotate
0.000000 0.000000 m /A glyphshow
6.840820 0.000000 m /asterisk glyphshow
11.840820 0.000000 m /space glyphshow
15.019531 0.000000 m /D glyphshow
22.719727 0.000000 m /H glyphshow
30.239258 0.000000 m /equal glyphshow
38.618164 0.000000 m /six glyphshow
grestore
2 setlinecap
0.839 0.153 0.157 setrgbcolor
gsave
456.686875 295.562 m
476.686875 295.562 l
stroke
grestore
0 setlinejoin
0 setlinecap
gsave
/o {
gsave
newpath
translate
1.0 setlinewidth
0 setlinejoin
0 setlinecap
-0 -1.414214 m
0.848528 0 l
0 1.414214 l
-0.848528 0 l
cl

gsave
0.839 0.153 0.157 setrgbcolor
fill
grestore
stroke
grestore
} bind def
466.687 295.562 o
grestore
0.000 setgray
gsave
484.686875 292.062000 translate
0.000000 rotate
0.000000 0.000000 m /A glyphshow
6.840820 0.000000 m /asterisk glyphshow
11.840820 0.000000 m /space glyphshow
15.019531 0.000000 m /c glyphshow
20.517578 0.000000 m /a glyphshow
26.645508 0.000000 m /c glyphshow
32.143555 0.000000 m /h glyphshow
38.481445 0.000000 m /e glyphshow
44.633789 0.000000 m /space glyphshow
47.812500 0.000000 m /E glyphshow
54.130859 0.000000 m /S glyphshow
grestore

end
showpage
