%!PS-Adobe-3.0 EPSF-3.0
%%Title: /home/koldar/git/UNIBS_dynamicPathFinding/DynamicPathFindingTestsCockpit/build.optimal/images/0008|ar#[15,15]@mp#16room_003.map@opr#[0,95]@pk#RANDOM_RATIO_AREA@pm#MULTIPLY@pr#[3,3]@sf#16room_003.map.scen@ua#False@ub#False|image_infos:image_type#single_time_over_query|.eps
%%Creator: matplotlib version 3.0.2, http://matplotlib.org/
%%CreationDate: Fri Feb 22 23:50:30 2019
%%Orientation: portrait
%%BoundingBox: -132 215 744 576
%%EndComments
%%BeginProlog
/mpldict 8 dict def
mpldict begin
/m { moveto } bind def
/l { lineto } bind def
/r { rlineto } bind def
/c { curveto } bind def
/cl { closepath } bind def
/box {
m
1 index 0 r
0 exch r
neg 0 r
cl
} bind def
/clipbox {
box
clip
newpath
} bind def
%!PS-Adobe-3.0 Resource-Font
%%Title: DejaVu Sans
%%Copyright: Copyright (c) 2003 by Bitstream, Inc. All Rights Reserved. Copyright (c) 2006 by Tavmjong Bah. All Rights Reserved. DejaVu changes are in public domain 
%%Creator: Converted from TrueType to type 3 by PPR
25 dict begin
/_d{bind def}bind def
/_m{moveto}_d
/_l{lineto}_d
/_cl{closepath eofill}_d
/_c{curveto}_d
/_sc{7 -1 roll{setcachedevice}{pop pop pop pop pop pop}ifelse}_d
/_e{exec}_d
/FontName /DejaVuSans def
/PaintType 0 def
/FontMatrix[.001 0 0 .001 0 0]def
/FontBBox[-1021 -463 1793 1232]def
/FontType 3 def
/Encoding [ /space /numbersign /parenleft /parenright /asterisk /comma /zero /one /two /three /four /five /six /eight /nine /equal /A /D /E /F /H /I /L /M /O /P /Q /R /S /T /U /Y /bracketleft /bracketright /underscore /a /b /c /d /e /f /g /h /i /l /m /n /o /p /q /r /s /t /u /v /y ] def
/FontInfo 10 dict dup begin
/FamilyName (DejaVu Sans) def
/FullName (DejaVu Sans) def
/Notice (Copyright (c) 2003 by Bitstream, Inc. All Rights Reserved. Copyright (c) 2006 by Tavmjong Bah. All Rights Reserved. DejaVu changes are in public domain ) def
/Weight (Book) def
/Version (Version 2.35) def
/ItalicAngle 0.0 def
/isFixedPitch false def
/UnderlinePosition -130 def
/UnderlineThickness 90 def
end readonly def
/CharStrings 57 dict dup begin
/.notdef 0 def
/space{318 0 0 0 0 0 _sc
}_d
/numbersign{{838 0 77 0 761 718 _sc
511 440 _m
369 440 _l
328 277 _l
471 277 _l
511 440 _l
438 718 _m
387 515 _l
530 515 _l
581 718 _l
659 718 _l
609 515 _l
761 515 _l
761 440 _l
590 440 _l
550 277 _l
705 277 _l
705 202 _l
531 202 _l
480 0 _l
402 0 _l
452 202 _l
309 202 _l
259 0 _l
180 0 _l
231 202 _l
77 202 _l
77 277 _l
249 277 _l
290 440 _l
133 440 _l
}_e{133 515 _l
309 515 _l
359 718 _l
438 718 _l
_cl}_e}_d
/parenleft{390 0 86 -131 310 759 _sc
310 759 _m
266 683 234 609 213 536 _c
191 463 181 389 181 314 _c
181 238 191 164 213 91 _c
234 17 266 -56 310 -131 _c
232 -131 _l
183 -54 146 20 122 94 _c
98 168 86 241 86 314 _c
86 386 98 459 122 533 _c
146 607 182 682 232 759 _c
310 759 _l
_cl}_d
/parenright{390 0 80 -131 304 759 _sc
80 759 _m
158 759 _l
206 682 243 607 267 533 _c
291 459 304 386 304 314 _c
304 241 291 168 267 94 _c
243 20 206 -54 158 -131 _c
80 -131 _l
123 -56 155 17 177 91 _c
198 164 209 238 209 314 _c
209 389 198 463 177 536 _c
155 609 123 683 80 759 _c
_cl}_d
/asterisk{500 0 30 286 470 742 _sc
470 609 _m
295 514 _l
470 419 _l
442 371 _l
278 470 _l
278 286 _l
222 286 _l
222 470 _l
58 371 _l
30 419 _l
205 514 _l
30 609 _l
58 657 _l
222 558 _l
222 742 _l
278 742 _l
278 558 _l
442 657 _l
470 609 _l
_cl}_d
/comma{318 0 77 -115 220 124 _sc
117 124 _m
220 124 _l
220 40 _l
140 -115 _l
77 -115 _l
117 40 _l
117 124 _l
_cl}_d
/zero{636 0 66 -13 570 742 _sc
318 664 _m
267 664 229 639 203 589 _c
177 539 165 464 165 364 _c
165 264 177 189 203 139 _c
229 89 267 64 318 64 _c
369 64 407 89 433 139 _c
458 189 471 264 471 364 _c
471 464 458 539 433 589 _c
407 639 369 664 318 664 _c
318 742 _m
399 742 461 709 505 645 _c
548 580 570 486 570 364 _c
570 241 548 147 505 83 _c
461 19 399 -13 318 -13 _c
236 -13 173 19 130 83 _c
87 147 66 241 66 364 _c
66 486 87 580 130 645 _c
173 709 236 742 318 742 _c
_cl}_d
/one{636 0 110 0 544 729 _sc
124 83 _m
285 83 _l
285 639 _l
110 604 _l
110 694 _l
284 729 _l
383 729 _l
383 83 _l
544 83 _l
544 0 _l
124 0 _l
124 83 _l
_cl}_d
/two{{636 0 73 0 536 742 _sc
192 83 _m
536 83 _l
536 0 _l
73 0 _l
73 83 _l
110 121 161 173 226 239 _c
290 304 331 346 348 365 _c
380 400 402 430 414 455 _c
426 479 433 504 433 528 _c
433 566 419 598 392 622 _c
365 646 330 659 286 659 _c
255 659 222 653 188 643 _c
154 632 117 616 78 594 _c
78 694 _l
118 710 155 722 189 730 _c
223 738 255 742 284 742 _c
}_e{359 742 419 723 464 685 _c
509 647 532 597 532 534 _c
532 504 526 475 515 449 _c
504 422 484 390 454 354 _c
446 344 420 317 376 272 _c
332 227 271 164 192 83 _c
_cl}_e}_d
/three{{636 0 76 -13 556 742 _sc
406 393 _m
453 383 490 362 516 330 _c
542 298 556 258 556 212 _c
556 140 531 84 482 45 _c
432 6 362 -13 271 -13 _c
240 -13 208 -10 176 -4 _c
144 1 110 10 76 22 _c
76 117 _l
103 101 133 89 166 81 _c
198 73 232 69 268 69 _c
330 69 377 81 409 105 _c
441 129 458 165 458 212 _c
458 254 443 288 413 312 _c
383 336 341 349 287 349 _c
}_e{202 349 _l
202 430 _l
291 430 _l
339 430 376 439 402 459 _c
428 478 441 506 441 543 _c
441 580 427 609 401 629 _c
374 649 336 659 287 659 _c
260 659 231 656 200 650 _c
169 644 135 635 98 623 _c
98 711 _l
135 721 170 729 203 734 _c
235 739 266 742 296 742 _c
370 742 429 725 473 691 _c
517 657 539 611 539 553 _c
539 513 527 479 504 451 _c
481 423 448 403 406 393 _c
_cl}_e}_d
/four{636 0 49 0 580 729 _sc
378 643 _m
129 254 _l
378 254 _l
378 643 _l
352 729 _m
476 729 _l
476 254 _l
580 254 _l
580 172 _l
476 172 _l
476 0 _l
378 0 _l
378 172 _l
49 172 _l
49 267 _l
352 729 _l
_cl}_d
/five{{636 0 77 -13 549 729 _sc
108 729 _m
495 729 _l
495 646 _l
198 646 _l
198 467 _l
212 472 227 476 241 478 _c
255 480 270 482 284 482 _c
365 482 429 459 477 415 _c
525 370 549 310 549 234 _c
549 155 524 94 475 51 _c
426 8 357 -13 269 -13 _c
238 -13 207 -10 175 -6 _c
143 -1 111 6 77 17 _c
77 116 _l
106 100 136 88 168 80 _c
199 72 232 69 267 69 _c
}_e{323 69 368 83 401 113 _c
433 143 450 183 450 234 _c
450 284 433 324 401 354 _c
368 384 323 399 267 399 _c
241 399 214 396 188 390 _c
162 384 135 375 108 363 _c
108 729 _l
_cl}_e}_d
/six{{636 0 70 -13 573 742 _sc
330 404 _m
286 404 251 388 225 358 _c
199 328 186 286 186 234 _c
186 181 199 139 225 109 _c
251 79 286 64 330 64 _c
374 64 409 79 435 109 _c
461 139 474 181 474 234 _c
474 286 461 328 435 358 _c
409 388 374 404 330 404 _c
526 713 _m
526 623 _l
501 635 476 644 451 650 _c
425 656 400 659 376 659 _c
310 659 260 637 226 593 _c
}_e{192 549 172 482 168 394 _c
187 422 211 444 240 459 _c
269 474 301 482 336 482 _c
409 482 467 459 509 415 _c
551 371 573 310 573 234 _c
573 159 550 99 506 54 _c
462 9 403 -13 330 -13 _c
246 -13 181 19 137 83 _c
92 147 70 241 70 364 _c
70 479 97 571 152 639 _c
206 707 280 742 372 742 _c
396 742 421 739 447 735 _c
472 730 498 723 526 713 _c
_cl}_e}_d
/eight{{636 0 68 -13 568 742 _sc
318 346 _m
271 346 234 333 207 308 _c
180 283 167 249 167 205 _c
167 161 180 126 207 101 _c
234 76 271 64 318 64 _c
364 64 401 76 428 102 _c
455 127 469 161 469 205 _c
469 249 455 283 429 308 _c
402 333 365 346 318 346 _c
219 388 _m
177 398 144 418 120 447 _c
96 476 85 511 85 553 _c
85 611 105 657 147 691 _c
188 725 245 742 318 742 _c
}_e{390 742 447 725 489 691 _c
530 657 551 611 551 553 _c
551 511 539 476 515 447 _c
491 418 459 398 417 388 _c
464 377 501 355 528 323 _c
554 291 568 251 568 205 _c
568 134 546 80 503 43 _c
459 5 398 -13 318 -13 _c
237 -13 175 5 132 43 _c
89 80 68 134 68 205 _c
68 251 81 291 108 323 _c
134 355 171 377 219 388 _c
183 544 _m
183 506 194 476 218 455 _c
}_e{242 434 275 424 318 424 _c
360 424 393 434 417 455 _c
441 476 453 506 453 544 _c
453 582 441 611 417 632 _c
393 653 360 664 318 664 _c
275 664 242 653 218 632 _c
194 611 183 582 183 544 _c
_cl}_e}_d
/nine{{636 0 63 -13 566 742 _sc
110 15 _m
110 105 _l
134 93 159 84 185 78 _c
210 72 235 69 260 69 _c
324 69 374 90 408 134 _c
442 178 462 244 468 334 _c
448 306 424 284 396 269 _c
367 254 335 247 300 247 _c
226 247 168 269 126 313 _c
84 357 63 417 63 494 _c
63 568 85 628 129 674 _c
173 719 232 742 306 742 _c
390 742 455 709 499 645 _c
543 580 566 486 566 364 _c
}_e{566 248 538 157 484 89 _c
429 21 356 -13 264 -13 _c
239 -13 214 -10 189 -6 _c
163 -2 137 5 110 15 _c
306 324 _m
350 324 385 339 411 369 _c
437 399 450 441 450 494 _c
450 546 437 588 411 618 _c
385 648 350 664 306 664 _c
262 664 227 648 201 618 _c
175 588 162 546 162 494 _c
162 441 175 399 201 369 _c
227 339 262 324 306 324 _c
_cl}_e}_d
/equal{838 0 106 172 732 454 _sc
106 454 _m
732 454 _l
732 372 _l
106 372 _l
106 454 _l
106 255 _m
732 255 _l
732 172 _l
106 172 _l
106 255 _l
_cl}_d
/A{684 0 8 0 676 729 _sc
342 632 _m
208 269 _l
476 269 _l
342 632 _l
286 729 _m
398 729 _l
676 0 _l
573 0 _l
507 187 _l
178 187 _l
112 0 _l
8 0 _l
286 729 _l
_cl}_d
/D{770 0 98 0 711 729 _sc
197 648 _m
197 81 _l
316 81 _l
416 81 490 103 537 149 _c
583 195 607 267 607 365 _c
607 463 583 534 537 580 _c
490 625 416 648 316 648 _c
197 648 _l
98 729 _m
301 729 _l
442 729 546 699 612 641 _c
678 582 711 490 711 365 _c
711 239 677 147 611 88 _c
545 29 441 0 301 0 _c
98 0 _l
98 729 _l
_cl}_d
/E{632 0 98 0 568 729 _sc
98 729 _m
559 729 _l
559 646 _l
197 646 _l
197 430 _l
544 430 _l
544 347 _l
197 347 _l
197 83 _l
568 83 _l
568 0 _l
98 0 _l
98 729 _l
_cl}_d
/F{575 0 98 0 517 729 _sc
98 729 _m
517 729 _l
517 646 _l
197 646 _l
197 431 _l
486 431 _l
486 348 _l
197 348 _l
197 0 _l
98 0 _l
98 729 _l
_cl}_d
/H{752 0 98 0 654 729 _sc
98 729 _m
197 729 _l
197 430 _l
555 430 _l
555 729 _l
654 729 _l
654 0 _l
555 0 _l
555 347 _l
197 347 _l
197 0 _l
98 0 _l
98 729 _l
_cl}_d
/I{295 0 98 0 197 729 _sc
98 729 _m
197 729 _l
197 0 _l
98 0 _l
98 729 _l
_cl}_d
/L{557 0 98 0 552 729 _sc
98 729 _m
197 729 _l
197 83 _l
552 83 _l
552 0 _l
98 0 _l
98 729 _l
_cl}_d
/M{863 0 98 0 765 729 _sc
98 729 _m
245 729 _l
431 233 _l
618 729 _l
765 729 _l
765 0 _l
669 0 _l
669 640 _l
481 140 _l
382 140 _l
194 640 _l
194 0 _l
98 0 _l
98 729 _l
_cl}_d
/O{787 0 56 -13 731 742 _sc
394 662 _m
322 662 265 635 223 582 _c
181 528 160 456 160 364 _c
160 272 181 199 223 146 _c
265 92 322 66 394 66 _c
465 66 522 92 564 146 _c
606 199 627 272 627 364 _c
627 456 606 528 564 582 _c
522 635 465 662 394 662 _c
394 742 _m
496 742 577 707 639 639 _c
700 571 731 479 731 364 _c
731 248 700 157 639 89 _c
577 21 496 -13 394 -13 _c
291 -13 209 21 148 89 _c
86 157 56 248 56 364 _c
56 479 86 571 148 639 _c
209 707 291 742 394 742 _c
_cl}_d
/P{603 0 98 0 569 729 _sc
197 648 _m
197 374 _l
321 374 _l
367 374 402 385 427 409 _c
452 433 465 467 465 511 _c
465 555 452 588 427 612 _c
402 636 367 648 321 648 _c
197 648 _l
98 729 _m
321 729 _l
402 729 464 710 506 673 _c
548 636 569 582 569 511 _c
569 439 548 384 506 348 _c
464 311 402 293 321 293 _c
197 293 _l
197 0 _l
98 0 _l
98 729 _l
_cl}_d
/Q{{787 0 56 -128 731 742 _sc
394 662 _m
322 662 265 635 223 582 _c
181 528 160 456 160 364 _c
160 272 181 199 223 146 _c
265 92 322 66 394 66 _c
465 66 522 92 564 146 _c
606 199 627 272 627 364 _c
627 456 606 528 564 582 _c
522 635 465 662 394 662 _c
532 13 _m
662 -128 _l
543 -128 _l
435 -11 _l
424 -11 416 -12 410 -12 _c
404 -12 399 -13 394 -13 _c
291 -13 209 21 148 89 _c
}_e{86 157 56 248 56 364 _c
56 479 86 571 148 639 _c
209 707 291 742 394 742 _c
496 742 577 707 639 639 _c
700 571 731 479 731 364 _c
731 279 714 206 680 146 _c
646 86 596 41 532 13 _c
_cl}_e}_d
/R{{695 0 98 0 666 729 _sc
444 342 _m
465 334 486 319 506 296 _c
526 272 546 240 566 199 _c
666 0 _l
560 0 _l
467 187 _l
443 235 419 268 397 284 _c
374 300 343 308 304 308 _c
197 308 _l
197 0 _l
98 0 _l
98 729 _l
321 729 _l
404 729 466 711 507 677 _c
548 642 569 589 569 519 _c
569 473 558 434 537 404 _c
515 374 484 353 444 342 _c
197 648 _m
197 389 _l
321 389 _l
}_e{368 389 404 400 428 422 _c
452 444 465 476 465 519 _c
465 561 452 593 428 615 _c
404 637 368 648 321 648 _c
197 648 _l
_cl}_e}_d
/S{{635 0 66 -13 579 742 _sc
535 705 _m
535 609 _l
497 627 462 640 429 649 _c
395 657 363 662 333 662 _c
279 662 237 651 208 631 _c
179 610 165 580 165 542 _c
165 510 174 485 194 469 _c
213 452 250 439 304 429 _c
364 417 _l
437 403 491 378 526 343 _c
561 307 579 260 579 201 _c
579 130 555 77 508 41 _c
460 5 391 -13 300 -13 _c
265 -13 228 -9 189 -2 _c
}_e{150 5 110 16 69 32 _c
69 134 _l
109 111 148 94 186 83 _c
224 71 262 66 300 66 _c
356 66 399 77 430 99 _c
460 121 476 152 476 194 _c
476 230 465 258 443 278 _c
421 298 385 313 335 323 _c
275 335 _l
201 349 148 372 115 404 _c
82 435 66 478 66 534 _c
66 598 88 649 134 686 _c
179 723 242 742 322 742 _c
356 742 390 739 426 733 _c
461 727 497 717 535 705 _c
}_e{_cl}_e}_d
/T{611 0 -2 0 614 729 _sc
-2 729 _m
614 729 _l
614 646 _l
355 646 _l
355 0 _l
256 0 _l
256 646 _l
-2 646 _l
-2 729 _l
_cl}_d
/U{732 0 87 -13 645 729 _sc
87 729 _m
186 729 _l
186 286 _l
186 208 200 151 228 117 _c
256 83 302 66 366 66 _c
429 66 475 83 503 117 _c
531 151 546 208 546 286 _c
546 729 _l
645 729 _l
645 274 _l
645 178 621 107 574 59 _c
527 11 458 -13 366 -13 _c
274 -13 204 11 157 59 _c
110 107 87 178 87 274 _c
87 729 _l
_cl}_d
/Y{611 0 -1 0 613 729 _sc
-1 729 _m
104 729 _l
306 429 _l
507 729 _l
613 729 _l
355 347 _l
355 0 _l
256 0 _l
256 347 _l
-1 729 _l
_cl}_d
/bracketleft{390 0 86 -131 293 760 _sc
86 760 _m
293 760 _l
293 690 _l
176 690 _l
176 -61 _l
293 -61 _l
293 -131 _l
86 -131 _l
86 760 _l
_cl}_d
/bracketright{390 0 97 -131 304 760 _sc
304 760 _m
304 -131 _l
97 -131 _l
97 -61 _l
214 -61 _l
214 690 _l
97 690 _l
97 760 _l
304 760 _l
_cl}_d
/underscore{500 0 -9 -235 510 -165 _sc
510 -165 _m
510 -235 _l
-9 -235 _l
-9 -165 _l
510 -165 _l
_cl}_d
/a{{613 0 60 -13 522 560 _sc
343 275 _m
270 275 220 266 192 250 _c
164 233 150 205 150 165 _c
150 133 160 107 181 89 _c
202 70 231 61 267 61 _c
317 61 357 78 387 114 _c
417 149 432 196 432 255 _c
432 275 _l
343 275 _l
522 312 _m
522 0 _l
432 0 _l
432 83 _l
411 49 385 25 355 10 _c
325 -5 287 -13 243 -13 _c
187 -13 142 2 109 33 _c
76 64 60 106 60 159 _c
}_e{60 220 80 266 122 298 _c
163 329 224 345 306 345 _c
432 345 _l
432 354 _l
432 395 418 427 391 450 _c
364 472 326 484 277 484 _c
245 484 215 480 185 472 _c
155 464 127 453 100 439 _c
100 522 _l
132 534 164 544 195 550 _c
226 556 256 560 286 560 _c
365 560 424 539 463 498 _c
502 457 522 395 522 312 _c
_cl}_e}_d
/b{{635 0 91 -13 580 760 _sc
487 273 _m
487 339 473 390 446 428 _c
418 466 381 485 334 485 _c
286 485 249 466 222 428 _c
194 390 181 339 181 273 _c
181 207 194 155 222 117 _c
249 79 286 61 334 61 _c
381 61 418 79 446 117 _c
473 155 487 207 487 273 _c
181 464 _m
199 496 223 520 252 536 _c
281 552 316 560 356 560 _c
422 560 476 533 518 481 _c
559 428 580 359 580 273 _c
}_e{580 187 559 117 518 65 _c
476 13 422 -13 356 -13 _c
316 -13 281 -5 252 10 _c
223 25 199 49 181 82 _c
181 0 _l
91 0 _l
91 760 _l
181 760 _l
181 464 _l
_cl}_e}_d
/c{{550 0 55 -13 488 560 _sc
488 526 _m
488 442 _l
462 456 437 466 411 473 _c
385 480 360 484 334 484 _c
276 484 230 465 198 428 _c
166 391 150 339 150 273 _c
150 206 166 154 198 117 _c
230 80 276 62 334 62 _c
360 62 385 65 411 72 _c
437 79 462 90 488 104 _c
488 21 _l
462 9 436 0 410 -5 _c
383 -10 354 -13 324 -13 _c
242 -13 176 12 128 64 _c
}_e{79 115 55 185 55 273 _c
55 362 79 432 128 483 _c
177 534 244 560 330 560 _c
358 560 385 557 411 551 _c
437 545 463 537 488 526 _c
_cl}_e}_d
/d{{635 0 55 -13 544 760 _sc
454 464 _m
454 760 _l
544 760 _l
544 0 _l
454 0 _l
454 82 _l
435 49 411 25 382 10 _c
353 -5 319 -13 279 -13 _c
213 -13 159 13 117 65 _c
75 117 55 187 55 273 _c
55 359 75 428 117 481 _c
159 533 213 560 279 560 _c
319 560 353 552 382 536 _c
411 520 435 496 454 464 _c
148 273 _m
148 207 161 155 188 117 _c
215 79 253 61 301 61 _c
}_e{348 61 385 79 413 117 _c
440 155 454 207 454 273 _c
454 339 440 390 413 428 _c
385 466 348 485 301 485 _c
253 485 215 466 188 428 _c
161 390 148 339 148 273 _c
_cl}_e}_d
/e{{615 0 55 -13 562 560 _sc
562 296 _m
562 252 _l
149 252 _l
153 190 171 142 205 110 _c
238 78 284 62 344 62 _c
378 62 412 66 444 74 _c
476 82 509 95 541 113 _c
541 28 _l
509 14 476 3 442 -3 _c
408 -9 373 -13 339 -13 _c
251 -13 182 12 131 62 _c
80 112 55 181 55 268 _c
55 357 79 428 127 481 _c
175 533 241 560 323 560 _c
397 560 455 536 498 489 _c
}_e{540 441 562 377 562 296 _c
472 322 _m
471 371 457 410 431 440 _c
404 469 368 484 324 484 _c
274 484 234 469 204 441 _c
174 413 156 373 152 322 _c
472 322 _l
_cl}_e}_d
/f{352 0 23 0 371 760 _sc
371 760 _m
371 685 _l
285 685 _l
253 685 230 678 218 665 _c
205 652 199 629 199 595 _c
199 547 _l
347 547 _l
347 477 _l
199 477 _l
199 0 _l
109 0 _l
109 477 _l
23 477 _l
23 547 _l
109 547 _l
109 585 _l
109 645 123 690 151 718 _c
179 746 224 760 286 760 _c
371 760 _l
_cl}_d
/g{{635 0 55 -207 544 560 _sc
454 280 _m
454 344 440 395 414 431 _c
387 467 349 485 301 485 _c
253 485 215 467 188 431 _c
161 395 148 344 148 280 _c
148 215 161 165 188 129 _c
215 93 253 75 301 75 _c
349 75 387 93 414 129 _c
440 165 454 215 454 280 _c
544 68 _m
544 -24 523 -93 482 -139 _c
440 -184 377 -207 292 -207 _c
260 -207 231 -204 203 -200 _c
175 -195 147 -188 121 -178 _c
}_e{121 -91 _l
147 -105 173 -115 199 -122 _c
225 -129 251 -133 278 -133 _c
336 -133 380 -117 410 -87 _c
439 -56 454 -10 454 52 _c
454 96 _l
435 64 411 40 382 24 _c
353 8 319 0 279 0 _c
211 0 157 25 116 76 _c
75 127 55 195 55 280 _c
55 364 75 432 116 483 _c
157 534 211 560 279 560 _c
319 560 353 552 382 536 _c
411 520 435 496 454 464 _c
454 547 _l
544 547 _l
}_e{544 68 _l
_cl}_e}_d
/h{634 0 91 0 549 760 _sc
549 330 _m
549 0 _l
459 0 _l
459 327 _l
459 379 448 417 428 443 _c
408 469 378 482 338 482 _c
289 482 251 466 223 435 _c
195 404 181 362 181 309 _c
181 0 _l
91 0 _l
91 760 _l
181 760 _l
181 462 _l
202 494 227 519 257 535 _c
286 551 320 560 358 560 _c
420 560 468 540 500 501 _c
532 462 549 405 549 330 _c
_cl}_d
/i{278 0 94 0 184 760 _sc
94 547 _m
184 547 _l
184 0 _l
94 0 _l
94 547 _l
94 760 _m
184 760 _l
184 646 _l
94 646 _l
94 760 _l
_cl}_d
/l{278 0 94 0 184 760 _sc
94 760 _m
184 760 _l
184 0 _l
94 0 _l
94 760 _l
_cl}_d
/m{{974 0 91 0 889 560 _sc
520 442 _m
542 482 569 511 600 531 _c
631 550 668 560 711 560 _c
767 560 811 540 842 500 _c
873 460 889 403 889 330 _c
889 0 _l
799 0 _l
799 327 _l
799 379 789 418 771 444 _c
752 469 724 482 686 482 _c
639 482 602 466 575 435 _c
548 404 535 362 535 309 _c
535 0 _l
445 0 _l
445 327 _l
445 379 435 418 417 444 _c
398 469 369 482 331 482 _c
}_e{285 482 248 466 221 435 _c
194 404 181 362 181 309 _c
181 0 _l
91 0 _l
91 547 _l
181 547 _l
181 462 _l
201 495 226 520 255 536 _c
283 552 317 560 357 560 _c
397 560 430 550 458 530 _c
486 510 506 480 520 442 _c
_cl}_e}_d
/n{634 0 91 0 549 560 _sc
549 330 _m
549 0 _l
459 0 _l
459 327 _l
459 379 448 417 428 443 _c
408 469 378 482 338 482 _c
289 482 251 466 223 435 _c
195 404 181 362 181 309 _c
181 0 _l
91 0 _l
91 547 _l
181 547 _l
181 462 _l
202 494 227 519 257 535 _c
286 551 320 560 358 560 _c
420 560 468 540 500 501 _c
532 462 549 405 549 330 _c
_cl}_d
/o{612 0 55 -13 557 560 _sc
306 484 _m
258 484 220 465 192 427 _c
164 389 150 338 150 273 _c
150 207 163 156 191 118 _c
219 80 257 62 306 62 _c
354 62 392 80 420 118 _c
448 156 462 207 462 273 _c
462 337 448 389 420 427 _c
392 465 354 484 306 484 _c
306 560 _m
384 560 445 534 490 484 _c
534 433 557 363 557 273 _c
557 183 534 113 490 63 _c
445 12 384 -13 306 -13 _c
227 -13 165 12 121 63 _c
77 113 55 183 55 273 _c
55 363 77 433 121 484 _c
165 534 227 560 306 560 _c
_cl}_d
/p{{635 0 91 -207 580 560 _sc
181 82 _m
181 -207 _l
91 -207 _l
91 547 _l
181 547 _l
181 464 _l
199 496 223 520 252 536 _c
281 552 316 560 356 560 _c
422 560 476 533 518 481 _c
559 428 580 359 580 273 _c
580 187 559 117 518 65 _c
476 13 422 -13 356 -13 _c
316 -13 281 -5 252 10 _c
223 25 199 49 181 82 _c
487 273 _m
487 339 473 390 446 428 _c
418 466 381 485 334 485 _c
}_e{286 485 249 466 222 428 _c
194 390 181 339 181 273 _c
181 207 194 155 222 117 _c
249 79 286 61 334 61 _c
381 61 418 79 446 117 _c
473 155 487 207 487 273 _c
_cl}_e}_d
/q{{635 0 55 -207 544 560 _sc
148 273 _m
148 207 161 155 188 117 _c
215 79 253 61 301 61 _c
348 61 385 79 413 117 _c
440 155 454 207 454 273 _c
454 339 440 390 413 428 _c
385 466 348 485 301 485 _c
253 485 215 466 188 428 _c
161 390 148 339 148 273 _c
454 82 _m
435 49 411 25 382 10 _c
353 -5 319 -13 279 -13 _c
213 -13 159 13 117 65 _c
75 117 55 187 55 273 _c
}_e{55 359 75 428 117 481 _c
159 533 213 560 279 560 _c
319 560 353 552 382 536 _c
411 520 435 496 454 464 _c
454 547 _l
544 547 _l
544 -207 _l
454 -207 _l
454 82 _l
_cl}_e}_d
/r{411 0 91 0 411 560 _sc
411 463 _m
401 469 390 473 378 476 _c
366 478 353 480 339 480 _c
288 480 249 463 222 430 _c
194 397 181 350 181 288 _c
181 0 _l
91 0 _l
91 547 _l
181 547 _l
181 462 _l
199 495 224 520 254 536 _c
284 552 321 560 365 560 _c
371 560 378 559 386 559 _c
393 558 401 557 411 555 _c
411 463 _l
_cl}_d
/s{{521 0 54 -13 472 560 _sc
443 531 _m
443 446 _l
417 458 391 468 364 475 _c
336 481 308 485 279 485 _c
234 485 200 478 178 464 _c
156 450 145 430 145 403 _c
145 382 153 366 169 354 _c
185 342 217 330 265 320 _c
296 313 _l
360 299 405 279 432 255 _c
458 230 472 195 472 151 _c
472 100 452 60 412 31 _c
372 1 316 -13 246 -13 _c
216 -13 186 -10 154 -5 _c
}_e{122 0 89 8 54 20 _c
54 113 _l
87 95 120 82 152 74 _c
184 65 216 61 248 61 _c
290 61 323 68 346 82 _c
368 96 380 117 380 144 _c
380 168 371 187 355 200 _c
339 213 303 226 247 238 _c
216 245 _l
160 257 119 275 95 299 _c
70 323 58 356 58 399 _c
58 450 76 490 112 518 _c
148 546 200 560 268 560 _c
301 560 332 557 362 552 _c
391 547 418 540 443 531 _c
}_e{_cl}_e}_d
/t{392 0 27 0 368 702 _sc
183 702 _m
183 547 _l
368 547 _l
368 477 _l
183 477 _l
183 180 _l
183 135 189 106 201 94 _c
213 81 238 75 276 75 _c
368 75 _l
368 0 _l
276 0 _l
206 0 158 13 132 39 _c
106 65 93 112 93 180 _c
93 477 _l
27 477 _l
27 547 _l
93 547 _l
93 702 _l
183 702 _l
_cl}_d
/u{634 0 85 -13 543 560 _sc
85 216 _m
85 547 _l
175 547 _l
175 219 _l
175 167 185 129 205 103 _c
225 77 255 64 296 64 _c
344 64 383 79 411 110 _c
439 141 453 183 453 237 _c
453 547 _l
543 547 _l
543 0 _l
453 0 _l
453 84 _l
431 50 405 26 377 10 _c
348 -5 315 -13 277 -13 _c
214 -13 166 6 134 45 _c
101 83 85 140 85 216 _c
311 560 _m
311 560 _l
_cl}_d
/v{592 0 30 0 562 547 _sc
30 547 _m
125 547 _l
296 88 _l
467 547 _l
562 547 _l
357 0 _l
235 0 _l
30 547 _l
_cl}_d
/y{592 0 30 -207 562 547 _sc
322 -50 _m
296 -114 271 -157 247 -177 _c
223 -197 191 -207 151 -207 _c
79 -207 _l
79 -132 _l
132 -132 _l
156 -132 175 -126 189 -114 _c
203 -102 218 -75 235 -31 _c
251 9 _l
30 547 _l
125 547 _l
296 119 _l
467 547 _l
562 547 _l
322 -50 _l
_cl}_d
end readonly def

/BuildGlyph
 {exch begin
 CharStrings exch
 2 copy known not{pop /.notdef}if
 true 3 1 roll get exec
 end}_d

/BuildChar {
 1 index /Encoding get exch get
 1 index /BuildGlyph get exec
}_d

FontName currentdict end definefont pop
end
%%EndProlog
mpldict begin
-132.919 215.979 translate
877.837 360.042 0 0 clipbox
gsave
-0 0 m
877.8375 0 l
877.8375 360.04195 l
-0 360.04195 l
cl
1.000 setgray
fill
grestore
gsave
260.35875 37.54375 m
617.47875 37.54375 l
617.47875 303.65575 l
260.35875 303.65575 l
cl
1.000 setgray
fill
grestore
0.800 setlinewidth
1 setlinejoin
2 setlinecap
[] 0 setdash
0.690 setgray
gsave
357.1 266.1 260.4 37.54 clipbox
276.591477 37.54375 m
276.591477 303.65575 l
stroke
grestore
0 setlinecap
0.000 setgray
gsave
/o {
gsave
newpath
translate
0.8 setlinewidth
1 setlinejoin
0 setlinecap
0 0 m
0 -3.5 l

gsave
0.000 setgray
fill
grestore
stroke
grestore
} bind def
276.591 37.5438 o
grestore
/DejaVuSans findfont
10.000 scalefont
setfont
gsave
273.411790 22.950000 translate
0.000000 rotate
0.000000 0.000000 m /zero glyphshow
grestore
2 setlinecap
0.690 setgray
gsave
357.1 266.1 260.4 37.54 clipbox
355.429395 37.54375 m
355.429395 303.65575 l
stroke
grestore
0 setlinecap
0.000 setgray
gsave
/o {
gsave
newpath
translate
0.8 setlinewidth
1 setlinejoin
0 setlinecap
0 0 m
0 -3.5 l

gsave
0.000 setgray
fill
grestore
stroke
grestore
} bind def
355.429 37.5438 o
grestore
gsave
345.890333 22.950000 translate
0.000000 rotate
0.000000 0.000000 m /five glyphshow
6.362305 0.000000 m /zero glyphshow
12.724609 0.000000 m /zero glyphshow
grestore
2 setlinecap
0.690 setgray
gsave
357.1 266.1 260.4 37.54 clipbox
434.267313 37.54375 m
434.267313 303.65575 l
stroke
grestore
0 setlinecap
0.000 setgray
gsave
/o {
gsave
newpath
translate
0.8 setlinewidth
1 setlinejoin
0 setlinecap
0 0 m
0 -3.5 l

gsave
0.000 setgray
fill
grestore
stroke
grestore
} bind def
434.267 37.5438 o
grestore
gsave
421.548563 22.950000 translate
0.000000 rotate
0.000000 0.000000 m /one glyphshow
6.362305 0.000000 m /zero glyphshow
12.724609 0.000000 m /zero glyphshow
19.086914 0.000000 m /zero glyphshow
grestore
2 setlinecap
0.690 setgray
gsave
357.1 266.1 260.4 37.54 clipbox
513.105231 37.54375 m
513.105231 303.65575 l
stroke
grestore
0 setlinecap
0.000 setgray
gsave
/o {
gsave
newpath
translate
0.8 setlinewidth
1 setlinejoin
0 setlinecap
0 0 m
0 -3.5 l

gsave
0.000 setgray
fill
grestore
stroke
grestore
} bind def
513.105 37.5438 o
grestore
gsave
500.386481 22.950000 translate
0.000000 rotate
0.000000 0.000000 m /one glyphshow
6.362305 0.000000 m /five glyphshow
12.724609 0.000000 m /zero glyphshow
19.086914 0.000000 m /zero glyphshow
grestore
2 setlinecap
0.690 setgray
gsave
357.1 266.1 260.4 37.54 clipbox
591.943148 37.54375 m
591.943148 303.65575 l
stroke
grestore
0 setlinecap
0.000 setgray
gsave
/o {
gsave
newpath
translate
0.8 setlinewidth
1 setlinejoin
0 setlinecap
0 0 m
0 -3.5 l

gsave
0.000 setgray
fill
grestore
stroke
grestore
} bind def
591.943 37.5438 o
grestore
gsave
579.224398 22.950000 translate
0.000000 rotate
0.000000 0.000000 m /two glyphshow
6.362305 0.000000 m /zero glyphshow
12.724609 0.000000 m /zero glyphshow
19.086914 0.000000 m /zero glyphshow
grestore
gsave
407.785938 9.278125 translate
0.000000 rotate
0.000000 0.000000 m /Q glyphshow
7.871094 0.000000 m /u glyphshow
14.208984 0.000000 m /e glyphshow
20.361328 0.000000 m /r glyphshow
24.472656 0.000000 m /y glyphshow
30.390625 0.000000 m /space glyphshow
33.569336 0.000000 m /I glyphshow
36.518555 0.000000 m /d glyphshow
42.866211 0.000000 m /space glyphshow
46.044922 0.000000 m /bracketleft glyphshow
49.946289 0.000000 m /numbersign glyphshow
58.325195 0.000000 m /bracketright glyphshow
grestore
2 setlinecap
0.690 setgray
gsave
357.1 266.1 260.4 37.54 clipbox
260.35875 49.448811 m
617.47875 49.448811 l
stroke
grestore
0 setlinecap
0.000 setgray
gsave
/o {
gsave
newpath
translate
0.8 setlinewidth
1 setlinejoin
0 setlinecap
0 0 m
-3.5 0 l

gsave
0.000 setgray
fill
grestore
stroke
grestore
} bind def
260.359 49.4488 o
grestore
gsave
246.999375 45.651936 translate
0.000000 rotate
0.000000 0.000000 m /zero glyphshow
grestore
2 setlinecap
0.690 setgray
gsave
357.1 266.1 260.4 37.54 clipbox
260.35875 91.87975 m
617.47875 91.87975 l
stroke
grestore
0 setlinecap
0.000 setgray
gsave
/o {
gsave
newpath
translate
0.8 setlinewidth
1 setlinejoin
0 setlinecap
0 0 m
-3.5 0 l

gsave
0.000 setgray
fill
grestore
stroke
grestore
} bind def
260.359 91.8798 o
grestore
gsave
221.561875 88.082875 translate
0.000000 rotate
0.000000 0.000000 m /one glyphshow
6.362305 0.000000 m /zero glyphshow
12.724609 0.000000 m /zero glyphshow
19.086914 0.000000 m /zero glyphshow
25.449219 0.000000 m /zero glyphshow
grestore
2 setlinecap
0.690 setgray
gsave
357.1 266.1 260.4 37.54 clipbox
260.35875 134.310689 m
617.47875 134.310689 l
stroke
grestore
0 setlinecap
0.000 setgray
gsave
/o {
gsave
newpath
translate
0.8 setlinewidth
1 setlinejoin
0 setlinecap
0 0 m
-3.5 0 l

gsave
0.000 setgray
fill
grestore
stroke
grestore
} bind def
260.359 134.311 o
grestore
gsave
221.561875 130.513814 translate
0.000000 rotate
0.000000 0.000000 m /two glyphshow
6.362305 0.000000 m /zero glyphshow
12.724609 0.000000 m /zero glyphshow
19.086914 0.000000 m /zero glyphshow
25.449219 0.000000 m /zero glyphshow
grestore
2 setlinecap
0.690 setgray
gsave
357.1 266.1 260.4 37.54 clipbox
260.35875 176.741628 m
617.47875 176.741628 l
stroke
grestore
0 setlinecap
0.000 setgray
gsave
/o {
gsave
newpath
translate
0.8 setlinewidth
1 setlinejoin
0 setlinecap
0 0 m
-3.5 0 l

gsave
0.000 setgray
fill
grestore
stroke
grestore
} bind def
260.359 176.742 o
grestore
gsave
221.561875 172.944753 translate
0.000000 rotate
0.000000 0.000000 m /three glyphshow
6.362305 0.000000 m /zero glyphshow
12.724609 0.000000 m /zero glyphshow
19.086914 0.000000 m /zero glyphshow
25.449219 0.000000 m /zero glyphshow
grestore
2 setlinecap
0.690 setgray
gsave
357.1 266.1 260.4 37.54 clipbox
260.35875 219.172568 m
617.47875 219.172568 l
stroke
grestore
0 setlinecap
0.000 setgray
gsave
/o {
gsave
newpath
translate
0.8 setlinewidth
1 setlinejoin
0 setlinecap
0 0 m
-3.5 0 l

gsave
0.000 setgray
fill
grestore
stroke
grestore
} bind def
260.359 219.173 o
grestore
gsave
221.561875 215.375693 translate
0.000000 rotate
0.000000 0.000000 m /four glyphshow
6.362305 0.000000 m /zero glyphshow
12.724609 0.000000 m /zero glyphshow
19.086914 0.000000 m /zero glyphshow
25.449219 0.000000 m /zero glyphshow
grestore
2 setlinecap
0.690 setgray
gsave
357.1 266.1 260.4 37.54 clipbox
260.35875 261.603507 m
617.47875 261.603507 l
stroke
grestore
0 setlinecap
0.000 setgray
gsave
/o {
gsave
newpath
translate
0.8 setlinewidth
1 setlinejoin
0 setlinecap
0 0 m
-3.5 0 l

gsave
0.000 setgray
fill
grestore
stroke
grestore
} bind def
260.359 261.604 o
grestore
gsave
221.561875 257.806632 translate
0.000000 rotate
0.000000 0.000000 m /five glyphshow
6.362305 0.000000 m /zero glyphshow
12.724609 0.000000 m /zero glyphshow
19.086914 0.000000 m /zero glyphshow
25.449219 0.000000 m /zero glyphshow
grestore
2 setlinecap
0.690 setgray
gsave
357.1 266.1 260.4 37.54 clipbox
260.35875 304.034446 m
617.47875 304.034446 l
stroke
grestore
0 setlinecap
0.000 setgray
gsave
/o {
gsave
newpath
translate
0.8 setlinewidth
1 setlinejoin
0 setlinecap
0 0 m
-3.5 0 l

gsave
0.000 setgray
fill
grestore
stroke
grestore
} bind def
260.359 304.034 o
grestore
gsave
221.561875 300.237571 translate
0.000000 rotate
0.000000 0.000000 m /six glyphshow
6.362305 0.000000 m /zero glyphshow
12.724609 0.000000 m /zero glyphshow
19.086914 0.000000 m /zero glyphshow
25.449219 0.000000 m /zero glyphshow
grestore
gsave
204.293125 127.716938 translate
90.000000 rotate
0.000000 0.000000 m /t glyphshow
3.920898 0.000000 m /i glyphshow
6.699219 0.000000 m /m glyphshow
16.440430 0.000000 m /e glyphshow
22.592773 0.000000 m /space glyphshow
25.771484 0.000000 m /t glyphshow
29.692383 0.000000 m /o glyphshow
35.810547 0.000000 m /space glyphshow
38.989258 0.000000 m /c glyphshow
44.487305 0.000000 m /o glyphshow
50.605469 0.000000 m /m glyphshow
60.346680 0.000000 m /p glyphshow
66.694336 0.000000 m /l glyphshow
69.472656 0.000000 m /e glyphshow
75.625000 0.000000 m /t glyphshow
79.545898 0.000000 m /e glyphshow
grestore
gsave
215.483750 144.881000 translate
90.000000 rotate
0.000000 0.000000 m /q glyphshow
6.347656 0.000000 m /u glyphshow
12.685547 0.000000 m /e glyphshow
18.837891 0.000000 m /r glyphshow
22.949219 0.000000 m /y glyphshow
28.867188 0.000000 m /space glyphshow
32.045898 0.000000 m /bracketleft glyphshow
35.947266 0.000000 m /u glyphshow
42.285156 0.000000 m /s glyphshow
47.495117 0.000000 m /bracketright glyphshow
grestore
1.000 setlinewidth
2 setlinecap
0.122 0.467 0.706 setrgbcolor
gsave
357.1 266.1 260.4 37.54 clipbox
276.591477 49.673695 m
277.852884 49.847662 l
278.641263 50.047087 l
280.533373 50.310159 l
281.479428 50.5308 l
282.425483 50.624148 l
284.159917 50.755684 l
286.998082 50.993297 l
288.259489 51.188479 l
289.836247 51.2988 l
290.939978 51.400634 l
295.197226 51.757054 l
296.773984 51.905562 l
302.134963 52.53354 l
303.396369 52.631131 l
305.919183 52.864501 l
308.28432 53.017253 l
308.757348 53.072413 l
312.226216 53.3567 l
313.802974 53.568855 l
315.379733 53.662203 l
316.168112 53.730093 l
320.740711 54.044081 l
321.213739 54.120457 l
322.948173 54.273209 l
323.578876 54.349584 l
325.155635 54.502336 l
328.466827 54.83754 l
330.358937 54.981805 l
331.147316 55.096369 l
332.724075 55.198203 l
347.230252 56.462645 l
348.018631 56.581452 l
349.437713 56.78512 l
351.014472 56.891198 l
352.748906 57.022733 l
354.167988 57.20943 l
355.114043 57.260347 l
357.479181 57.370667 l
358.26756 57.489474 l
359.844318 57.684656 l
360.790373 57.845894 l
363.628539 58.024104 l
364.889945 58.151396 l
370.881627 58.694512 l
372.616061 58.804833 l
375.454226 59.131551 l
375.927254 59.224899 l
376.715633 59.314004 l
377.030985 59.415838 l
381.445908 59.865606 l
382.391963 59.98017 l
383.338018 60.077761 l
383.968721 60.175352 l
384.599425 60.243242 l
385.230128 60.366291 l
391.694837 61.33796 l
392.167865 61.477982 l
392.798568 61.575573 l
394.848354 61.855617 l
402.416794 62.76364 l
403.362849 62.886689 l
403.678201 62.988523 l
405.412635 63.213407 l
405.727987 63.349186 l
409.512207 63.748037 l
410.931289 63.896546 l
413.92713 64.673032 l
414.715509 64.753651 l
415.661564 64.834269 l
417.080647 65.220391 l
417.869026 65.339198 l
418.815081 65.636214 l
419.130433 65.678645 l
419.761136 65.979905 l
421.022543 66.17933 l
421.49557 66.285407 l
422.599301 66.501805 l
424.018384 66.743662 l
424.333735 66.764877 l
424.649087 66.964302 l
425.27979 67.057651 l
426.541197 67.337695 l
427.329576 67.668656 l
427.960279 67.808678 l
429.06401 68.012347 l
429.852389 68.118424 l
430.483093 68.232988 l
430.95612 68.330579 l
431.429148 68.576678 l
431.744499 68.610623 l
432.059851 68.818535 l
433.478934 69.034932 l
434.898016 69.204656 l
437.105478 69.628965 l
437.736181 69.78596 l
447.512083 71.682623 l
447.827435 71.831131 l
448.142786 71.907507 l
448.931166 72.039043 l
449.246517 72.174822 l
450.507924 72.37849 l
450.980951 72.5567 l
451.611655 72.667021 l
451.927006 72.785827 l
452.873061 72.993739 l
453.188413 73.138004 l
454.134468 73.256811 l
454.44982 73.362888 l
457.918688 73.92722 l
458.23404 74.156347 l
459.337771 74.300612 l
459.653122 74.402446 l
460.914529 74.618844 l
461.860584 75.077098 l
462.648963 75.289253 l
464.068046 75.437761 l
464.541073 75.586269 l
464.856425 75.815396 l
465.487128 76.023308 l
465.960156 76.239706 l
468.167617 76.744634 l
468.640645 76.829496 l
468.955997 76.969518 l
469.902052 77.037407 l
471.163458 77.432015 l
473.843948 77.886026 l
474.316975 77.958159 l
475.105354 78.089695 l
477.15514 78.46733 l
479.04725 79.252302 l
480.150981 79.405054 l
480.624009 79.532347 l
481.727739 79.680855 l
482.043091 79.82512 l
483.777525 80.168811 l
484.881256 80.453098 l
485.196608 80.614336 l
488.823152 81.475684 l
489.453855 81.730269 l
491.030614 82.014557 l
491.661317 82.43038 l
494.341806 83.189894 l
494.814834 83.236568 l
495.130185 83.278999 l
495.445537 83.5548 l
495.918565 83.592988 l
496.233916 83.792413 l
497.652999 84.042756 l
499.545109 84.280369 l
499.86046 84.717407 l
500.018136 84.747109 l
500.491164 85.07807 l
501.437219 85.290225 l
502.698625 85.370844 l
503.013977 85.582999 l
503.329329 85.723021 l
503.644681 85.782424 l
503.802356 85.952148 l
504.43306 86.049739 l
505.536791 86.397673 l
506.32517 86.524965 l
506.798197 86.673474 l
507.113549 87.085054 l
508.059604 87.195374 l
508.374956 87.343883 l
509.005659 87.488148 l
509.478686 87.755463 l
510.267066 88.001562 l
510.582417 88.184015 l
511.213121 88.370711 l
511.686148 88.667728 l
512.159176 88.828965 l
512.632203 88.913827 l
512.789879 89.087794 l
513.105231 89.155684 l
513.420582 89.266004 l
514.208961 89.39754 l
514.524313 89.495131 l
514.681989 89.681827 l
515.628044 89.834579 l
516.889451 90.297076 l
517.993182 90.725628 l
518.150857 90.751087 l
518.623885 91.090535 l
520.200643 91.680325 l
520.831347 91.905209 l
522.723457 92.473783 l
523.511836 92.898093 l
524.142539 93.021142 l
524.773242 93.11449 l
525.088594 93.216325 l
525.24627 93.441209 l
525.561622 93.500612 l
525.876973 93.700037 l
526.192325 93.874004 l
528.084435 94.612302 l
528.399787 94.837186 l
529.503518 95.0748 l
529.818869 95.393032 l
530.134221 95.456678 l
531.237952 95.872501 l
532.026331 96.30954 l
532.341683 96.547153 l
532.657034 96.674446 l
533.287738 96.699905 l
533.445413 96.950247 l
533.760765 97.009651 l
535.022172 97.476391 l
535.652875 97.565496 l
536.125903 97.697032 l
536.756606 97.854026 l
537.229633 97.938888 l
537.544985 98.528678 l
538.018013 99.220302 l
538.648716 99.674314 l
539.437095 99.873739 l
539.910123 99.933142 l
540.225474 100.27259 l
540.698502 100.387153 l
541.329205 100.624767 l
541.802233 100.836921 l
542.117584 101.180612 l
542.27526 101.197584 l
542.748288 101.57522 l
543.378991 102.054689 l
543.852019 102.181982 l
544.325046 102.652965 l
544.640398 102.763286 l
544.798074 102.80996 l
545.113425 103.026358 l
545.271101 103.030601 l
545.744129 103.314888 l
546.05948 103.336104 l
546.374832 103.505827 l
547.005535 103.599175 l
547.163211 103.802844 l
547.320887 103.807087 l
547.636239 104.129562 l
547.95159 104.239883 l
548.266942 104.583573 l
548.739969 104.774512 l
548.897645 104.808457 l
549.055321 105.11396 l
549.8437 105.330358 l
550.001376 105.41522 l
550.316728 105.971065 l
550.474404 105.971065 l
550.789755 106.132302 l
551.262783 106.289297 l
554.100948 107.392501 l
554.573975 107.744678 l
555.047003 107.956833 l
555.52003 108.36417 l
555.993058 108.690888 l
556.150734 108.716347 l
556.466085 108.945474 l
557.096789 109.026093 l
557.254465 109.229761 l
557.569816 109.314623 l
560.565657 111.351308 l
560.881009 111.36828 l
561.038685 111.758645 l
562.300091 112.144767 l
562.615443 112.32722 l
562.773119 112.675153 l
563.403822 112.853363 l
563.87685 113.341319 l
564.822905 113.553474 l
565.611284 113.990512 l
565.76896 114.024457 l
565.926636 114.312988 l
566.084311 114.32996 l
566.715015 114.762756 l
568.134097 115.471352 l
568.449449 115.789584 l
568.922476 115.925363 l
570.183883 116.162977 l
570.499235 116.328457 l
570.814586 116.616988 l
570.972262 116.676391 l
571.129938 116.914004 l
571.287614 116.92249 l
571.918317 117.601385 l
572.549021 118.05964 l
572.706696 118.05964 l
573.179724 118.615485 l
573.495076 118.674888 l
573.810427 119.468347 l
573.968103 119.498048 l
574.756482 120.109054 l
574.914158 120.168457 l
575.22951 120.495175 l
575.702537 120.630954 l
576.017889 121.432899 l
576.490917 121.882667 l
576.806268 122.345164 l
577.12162 122.620965 l
577.279296 122.782203 l
577.436972 122.782203 l
577.909999 123.376236 l
578.067675 123.393209 l
578.225351 123.851463 l
578.856054 124.029673 l
579.959785 124.857076 l
580.275137 125.277142 l
581.536543 126.584015 l
582.009571 127.750866 l
582.640274 128.251551 l
582.79795 128.747993 l
582.955626 128.841341 l
583.113302 129.087441 l
583.270977 129.104413 l
583.428653 129.269894 l
584.374708 131.200501 l
585.005412 131.510247 l
585.163087 131.909098 l
585.320763 131.951529 l
585.951467 132.952899 l
586.266818 133.614822 l
586.424494 133.686954 l
586.739846 134.336148 l
587.055198 135.511485 l
587.843577 137.263883 l
588.001253 137.348744 l
588.158928 137.675463 l
588.316604 137.709407 l
588.47428 137.908833 l
588.789632 137.930048 l
589.262659 138.294954 l
589.420335 139.113872 l
589.578011 139.292081 l
589.893363 139.410888 l
590.051038 139.521209 l
590.36639 141.927043 l
590.681742 142.67807 l
590.839418 142.758689 l
590.997093 143.076921 l
591.312445 143.161783 l
591.470121 143.607308 l
591.627797 143.662468 l
591.785473 143.857651 l
591.943148 144.557761 l
592.2585 144.714756 l
592.573852 145.185739 l
592.731528 145.402137 l
593.046879 146.662336 l
593.204555 146.76417 l
593.992934 151.647971 l
594.15061 151.681916 l
594.465962 152.076523 l
594.781313 152.895441 l
595.096665 153.133054 l
595.254341 154.164126 l
595.412017 154.219286 l
595.569693 154.524789 l
595.727368 157.206424 l
596.200396 157.881076 l
596.358072 158.122932 l
596.515748 159.315242 l
596.673423 159.327971 l
596.831099 161.06764 l
597.619479 162.938844 l
597.777154 163.630468 l
597.93483 163.706844 l
598.565534 169.188921 l
598.723209 169.562314 l
598.880885 171.013452 l
599.038561 171.166203 l
599.196237 172.260921 l
599.353913 178.803772 l
599.984616 184.391927 l
600.142292 184.731374 l
600.299968 187.40028 l
600.615319 187.998557 l
600.930671 194.350468 l
601.088347 202.823927 l
601.246023 204.101098 l
601.246023 204.101098 l
stroke
grestore
0 setlinejoin
0 setlinecap
gsave
357.1 266.1 260.4 37.54 clipbox
/o {
gsave
newpath
translate
1.0 setlinewidth
0 setlinejoin
0 setlinecap
0 1 m
-1 -1 l
1 -1 l
cl

gsave
0.122 0.467 0.706 setrgbcolor
fill
grestore
stroke
grestore
} bind def
276.591 49.6737 o
309.073 53.0851 o
341.554 55.8941 o
374.035 58.9703 o
406.516 63.4213 o
438.998 69.9642 o
471.479 77.466 o
503.96 85.9564 o
536.441 97.7352 o
568.922 115.925 o
grestore
1 setlinejoin
2 setlinecap
1.000 0.498 0.055 setrgbcolor
gsave
357.1 266.1 260.4 37.54 clipbox
276.591477 49.63975 m
279.587318 50.178623 l
282.110132 50.40775 l
283.68689 50.636877 l
284.002242 50.755684 l
286.682731 51.163021 l
291.886033 51.676435 l
292.989764 51.897076 l
295.354902 52.0668 l
297.877715 52.372302 l
298.350743 52.440192 l
299.612149 52.584457 l
300.242853 52.673562 l
302.60799 52.88996 l
304.342424 53.029982 l
305.761507 53.19122 l
307.180589 53.326999 l
308.28432 53.428833 l
325.470986 55.172744 l
326.732393 55.266093 l
327.836124 55.342468 l
334.458509 55.987419 l
336.192943 56.208059 l
338.873432 56.390512 l
341.711597 56.670557 l
347.387927 57.077894 l
349.437713 57.302778 l
350.856796 57.4428 l
351.645175 57.523419 l
353.537285 57.667684 l
353.852637 57.752546 l
354.956368 57.845894 l
356.690802 58.108965 l
359.371291 58.363551 l
359.844318 58.465385 l
360.790373 58.546004 l
361.263401 58.62238 l
362.682483 58.736943 l
363.470863 58.961827 l
366.309028 59.21217 l
367.255083 59.32249 l
368.516489 59.530402 l
369.304869 59.585562 l
371.354654 59.7468 l
372.773737 59.992899 l
374.350495 60.264457 l
375.611902 60.332347 l
376.557957 60.510557 l
380.499853 60.934866 l
382.234287 61.176722 l
383.338018 61.346446 l
384.441749 61.490711 l
384.7571 61.57133 l
386.176183 61.711352 l
388.068293 62.012612 l
393.902299 62.852744 l
395.479057 63.005496 l
396.267436 63.086115 l
396.582788 63.243109 l
398.632574 63.510424 l
400.367008 63.731065 l
405.254959 64.316612 l
405.885662 64.613628 l
406.989393 64.753651 l
408.2508 64.919131 l
409.512207 65.046424 l
411.246641 65.360413 l
411.719668 65.424059 l
413.611778 65.623485 l
414.084806 65.71259 l
418.815081 66.510291 l
419.761136 66.641827 l
421.022543 66.866711 l
422.914653 67.269805 l
423.860708 67.388612 l
424.176059 67.549849 l
424.964439 67.672899 l
427.960279 68.37301 l
430.640769 68.843993 l
431.113796 68.945827 l
432.532879 69.090093 l
433.63661 69.365894 l
434.582665 69.522888 l
435.686395 69.790203 l
436.317099 69.836877 l
436.63245 70.002358 l
437.263154 70.057518 l
437.893857 70.210269 l
438.839912 70.422424 l
439.943643 70.702468 l
441.678077 70.897651 l
442.781808 71.2668 l
443.570187 71.589275 l
443.885539 71.729297 l
444.20089 71.818402 l
444.516242 71.958424 l
446.88138 72.717938 l
447.985111 72.819772 l
450.507924 73.316214 l
450.980951 73.409562 l
451.769331 73.490181 l
452.242358 73.562314 l
453.503765 73.761739 l
454.44982 73.91449 l
454.922847 74.020568 l
455.711226 74.135131 l
456.184254 74.236965 l
456.972633 74.360015 l
457.603337 74.657032 l
458.391716 74.775838 l
459.810798 75.21712 l
460.756853 75.374115 l
463.279667 76.222733 l
464.068046 76.383971 l
464.856425 76.494291 l
465.644804 76.579153 l
466.748535 76.93133 l
468.325293 77.228347 l
469.113673 77.4108 l
469.744376 77.529606 l
470.059728 77.69933 l
471.794162 78.12364 l
473.843948 78.794048 l
474.632327 78.887396 l
476.682113 79.218358 l
477.785843 79.328678 l
478.889574 79.59175 l
479.204926 79.850579 l
479.362602 79.871794 l
479.677953 80.024546 l
480.308657 80.109407 l
481.412388 80.580391 l
481.727739 80.720413 l
485.511959 81.696325 l
485.827311 81.861805 l
486.61569 81.984855 l
487.404069 82.175794 l
487.719421 82.298844 l
488.192449 82.358247 l
488.980828 82.655264 l
489.769207 82.854689 l
490.084559 83.126247 l
490.557586 83.177164 l
491.188289 83.232325 l
491.503641 83.385076 l
493.868779 84.242181 l
494.97251 84.505253 l
495.287861 84.632546 l
496.07624 84.751352 l
496.706944 85.052612 l
497.179971 85.243551 l
498.126026 85.387816 l
499.545109 85.752722 l
500.964191 85.986093 l
501.279543 86.223706 l
501.594895 86.249164 l
501.910246 86.499507 l
502.856301 86.652258 l
503.802356 86.830468 l
504.117708 87.000192 l
504.43306 87.131728 l
504.748411 87.305695 l
505.063763 87.399043 l
505.536791 87.445717 l
505.852142 87.649385 l
506.32517 87.776678 l
507.113549 87.980347 l
507.428901 88.137341 l
507.744252 88.213717 l
507.901928 88.213717 l
508.374956 88.455573 l
509.321011 88.633783 l
509.794038 88.795021 l
510.424741 88.922314 l
511.213121 89.130225 l
511.686148 89.486645 l
512.159176 89.618181 l
512.474527 89.732744 l
513.420582 89.957628 l
514.208961 90.352236 l
514.839665 90.41164 l
514.997341 90.415883 l
515.312692 90.657739 l
515.78572 90.780789 l
516.416423 90.882623 l
517.520154 91.277231 l
518.466209 91.421496 l
519.727616 91.943396 l
520.042967 92.062203 l
520.515995 92.108877 l
520.831347 92.354977 l
521.619726 92.609562 l
521.777402 92.630778 l
522.092753 92.783529 l
522.881132 93.012656 l
523.038808 93.207838 l
523.827187 93.373319 l
524.457891 93.572744 l
524.930918 93.695794 l
525.403946 93.746711 l
526.507677 94.132833 l
526.980704 94.247396 l
527.296056 94.340744 l
527.611408 94.616546 l
527.926759 94.803242 l
528.715138 95.155419 l
529.188166 95.342115 l
529.976545 95.575485 l
530.449573 95.749452 l
530.9226 95.914932 l
531.237952 96.054954 l
532.341683 96.330756 l
532.657034 96.818711 l
533.603089 96.962977 l
534.076117 97.170888 l
535.337523 97.510336 l
535.652875 97.637628 l
535.810551 98.002535 l
536.441254 98.231662 l
537.544985 98.685673 l
538.018013 99.003905 l
538.333364 99.084523 l
538.49104 99.474888 l
539.279419 99.572479 l
540.38315 100.433827 l
542.27526 101.002402 l
543.221315 101.537032 l
543.852019 101.766159 l
544.009694 102.008015 l
544.16737 102.008015 l
544.955749 102.517186 l
545.113425 102.559617 l
545.428777 102.767529 l
545.744129 102.860877 l
546.847859 103.085761 l
548.109266 104.214424 l
548.266942 104.244126 l
548.582294 104.52417 l
548.739969 104.549628 l
548.897645 104.842402 l
549.686024 105.096988 l
550.001376 105.313385 l
551.105107 105.610402 l
551.262783 105.903175 l
552.051162 106.234137 l
552.366514 106.357186 l
555.52003 107.54101 l
555.835382 108.147772 l
556.30841 108.478733 l
556.466085 108.533894 l
556.781437 108.949717 l
557.096789 109.081253 l
557.727492 109.250977 l
558.20052 109.437673 l
559.146575 109.628612 l
559.461926 109.811065 l
560.723333 110.371153 l
561.511712 110.719087 l
561.669388 110.782733 l
561.98474 111.73743 l
562.773119 112.02596 l
563.719174 112.823662 l
563.87685 112.950954 l
564.192201 113.324347 l
564.507553 113.511043 l
564.822905 113.67228 l
565.138256 113.757142 l
565.76896 114.355419 l
566.241987 114.61849 l
566.557339 114.860347 l
567.030366 115.191308 l
567.66107 115.488325 l
567.976421 115.832015 l
568.134097 115.836258 l
568.449449 116.260568 l
568.764801 116.319971 l
569.237828 116.964921 l
569.55318 117.070999 l
569.868531 117.321341 l
570.026207 117.618358 l
570.499235 117.851728 l
570.972262 118.05964 l
572.075993 118.335441 l
572.233669 118.556081 l
572.549021 118.6367 l
572.864372 118.840369 l
573.022048 118.878557 l
573.179724 119.22649 l
573.495076 119.400457 l
574.598807 120.796435 l
574.914158 120.872811 l
575.22951 121.284391 l
575.387186 121.29712 l
575.702537 121.861452 l
575.860213 122.077849 l
576.333241 122.12028 l
576.806268 122.565805 l
576.963944 122.926468 l
577.12162 122.947684 l
577.436972 123.804789 l
578.067675 124.029673 l
578.383027 124.229098 l
578.698378 124.271529 l
579.171406 125.060744 l
579.329082 125.540214 l
579.486757 125.637805 l
579.802109 126.172435 l
581.063516 127.492037 l
581.378867 128.467949 l
581.536543 128.582512 l
581.694219 129.405673 l
582.482598 130.504634 l
582.79795 130.933186 l
583.586329 131.87091 l
583.901681 132.388568 l
584.059357 132.443728 l
584.374708 132.957142 l
584.532384 132.999573 l
585.005412 133.945783 l
585.793791 134.183396 l
585.951467 134.18764 l
587.055198 136.818358 l
587.370549 137.208722 l
588.001253 137.556656 l
588.316604 138.443463 l
588.47428 138.600457 l
588.789632 139.813982 l
589.104983 140.33164 l
589.262659 140.361341 l
589.735687 142.151927 l
589.893363 142.198601 l
590.051038 142.364081 l
590.681742 144.511087 l
590.839418 144.727485 l
591.154769 145.622778 l
591.470121 145.711883 l
591.627797 146.267728 l
591.785473 146.327131 l
591.943148 146.547772 l
592.100824 147.430336 l
592.416176 147.544899 l
593.204555 150.290181 l
593.362231 150.341098 l
593.519907 150.752678 l
593.677583 152.25049 l
593.992934 152.37354 l
594.15061 154.066535 l
594.308286 154.147153 l
594.465962 154.56722 l
594.623638 155.636479 l
594.781313 155.687396 l
595.096665 157.741054 l
595.254341 158.224767 l
595.412017 158.309628 l
595.727368 161.695617 l
595.885044 161.716833 l
596.04272 161.988391 l
596.358072 167.041916 l
596.515748 167.101319 l
596.673423 168.730667 l
596.988775 169.044656 l
597.304127 172.019065 l
597.619479 172.447617 l
597.777154 173.57628 l
598.250182 174.047264 l
598.407858 174.93407 l
598.723209 181.048369 l
598.880885 181.837584 l
599.038561 186.759573 l
599.196237 187.87975 l
599.669264 197.778888 l
599.82694 200.367175 l
599.984616 210.665164 l
600.142292 211.539242 l
600.615319 219.087706 l
600.772995 225.087441 l
600.930671 225.197761 l
601.246023 235.792767 l
601.246023 235.792767 l
stroke
grestore
0 setlinecap
gsave
357.1 266.1 260.4 37.54 clipbox
/o {
gsave
newpath
translate
1.0 setlinewidth
1 setlinejoin
0 setlinecap
-1 0 m
1 0 l
0 -1 m
0 1 l

gsave
1.000 0.498 0.055 setrgbcolor
fill
grestore
stroke
grestore
} bind def
276.749 49.6737 o
309.23 53.624 o
341.712 56.6706 o
374.193 60.239 o
406.674 64.7027 o
439.155 70.5879 o
471.636 78.0897 o
504.118 87.0002 o
536.599 98.2868 o
569.08 116.651 o
grestore
2 setlinecap
0.173 0.627 0.173 setrgbcolor
gsave
357.1 266.1 260.4 37.54 clipbox
276.591477 49.745827 m
277.379856 49.860391 l
278.01056 49.979198 l
279.90267 50.178623 l
285.421324 50.976325 l
286.840407 51.10786 l
287.786462 51.222424 l
288.732517 51.328501 l
289.205544 51.392148 l
292.359061 51.723109 l
292.989764 51.816457 l
294.093495 51.986181 l
300.558204 52.614159 l
303.711721 53.025739 l
305.603831 53.186977 l
310.649458 53.789496 l
311.122485 53.984678 l
312.06854 54.167131 l
314.118326 54.430203 l
314.749029 54.502336 l
315.537409 54.612656 l
316.64114 54.72722 l
317.74487 54.816325 l
318.375574 54.875728 l
319.952332 55.096369 l
320.267684 55.206689 l
322.31747 55.355198 l
326.417041 56.025606 l
328.939855 56.271706 l
329.255206 56.369297 l
330.674289 56.66207 l
332.566399 56.823308 l
334.300833 57.077894 l
334.773861 57.166999 l
335.877591 57.323993 l
336.823646 57.459772 l
337.612026 57.548877 l
339.188784 57.659198 l
340.134839 57.824678 l
341.23857 58.104722 l
342.657652 58.2108 l
343.13068 58.350822 l
344.234411 58.490844 l
344.865114 58.613894 l
348.018631 59.063662 l
348.80701 59.178225 l
355.114043 59.967441 l
356.690802 60.154137 l
357.163829 60.243242 l
357.794533 60.44691 l
358.898263 60.540258 l
361.421077 60.98154 l
361.894104 61.09186 l
362.367132 61.329474 l
365.362973 61.796214 l
366.624379 61.936236 l
369.147193 62.386004 l
370.093248 62.500568 l
370.408599 62.62786 l
371.354654 62.941849 l
372.143034 63.187949 l
372.458385 63.289783 l
374.350495 63.654689 l
380.026825 64.634844 l
380.657529 64.740921 l
383.022666 65.284037 l
383.495694 65.648943 l
384.284073 65.873827 l
385.072452 66.018093 l
385.54548 66.183573 l
386.176183 66.349054 l
387.122238 66.518778 l
387.910617 66.730932 l
389.487376 67.010977 l
392.167865 67.825651 l
392.956244 68.080236 l
393.902299 68.220258 l
396.267436 68.831264 l
397.055816 68.984015 l
397.371167 69.102822 l
399.578629 69.505916 l
400.367008 69.951441 l
400.68236 70.333319 l
402.259118 70.736413 l
406.201014 71.580789 l
406.989393 71.669894 l
407.304745 71.886291 l
408.566152 72.403949 l
409.669883 72.543971 l
412.03502 73.21438 l
413.138751 73.672634 l
414.557833 74.109673 l
414.873185 74.258181 l
415.503888 74.419419 l
417.080647 75.089827 l
417.395998 75.132258 l
417.71135 75.289253 l
418.342053 75.361385 l
419.130433 75.675374 l
420.864867 76.176059 l
421.49557 76.549452 l
421.653246 76.570667 l
421.968598 76.80828 l
422.283949 76.952546 l
422.599301 77.041651 l
423.545356 77.207131 l
423.860708 77.300479 l
424.176059 77.635684 l
424.491411 77.737518 l
424.964439 77.784192 l
425.122114 78.11091 l
425.27979 78.119396 l
425.595142 78.301849 l
426.856549 78.471573 l
427.487252 78.781319 l
427.802604 78.802535 l
428.117955 79.061363 l
428.590983 79.129253 l
429.379362 79.612965 l
429.537038 79.612965 l
429.694714 79.859065 l
430.640769 79.965142 l
431.586824 80.079706 l
432.217527 80.317319 l
434.74034 80.843463 l
435.055692 81.051374 l
436.159423 81.314446 l
436.474775 81.41628 l
436.790126 81.496899 l
437.263154 81.713297 l
438.051533 81.942424 l
438.366885 82.07396 l
438.997588 82.256413 l
439.31294 82.392192 l
439.943643 82.5407 l
440.889698 82.752855 l
441.20505 82.969253 l
441.520401 83.079573 l
442.151105 83.185651 l
444.20089 83.690579 l
444.358566 83.906977 l
444.673918 83.962137 l
446.723704 84.776811 l
446.88138 85.03564 l
447.039056 85.069584 l
447.196731 85.273253 l
447.354407 85.290225 l
447.669759 85.464192 l
448.931166 85.981849 l
449.561869 86.652258 l
450.6656 86.902601 l
451.453979 87.008678 l
452.55771 87.526336 l
453.188413 87.611198 l
453.819116 87.780921 l
454.134468 87.9167 l
455.080523 88.141584 l
455.395875 88.285849 l
456.184254 88.472546 l
456.657282 88.744104 l
456.814957 89.104767 l
458.707067 89.749717 l
460.12615 90.029761 l
460.441502 90.161297 l
462.806639 90.869894 l
463.121991 91.060833 l
463.752694 91.268744 l
464.068046 91.540302 l
464.383397 91.705783 l
465.644804 91.968855 l
466.433183 92.278601 l
467.536914 92.915065 l
467.852266 93.279971 l
468.640645 93.492126 l
468.955997 93.700037 l
470.059728 94.548656 l
470.375079 94.565628 l
470.848107 94.977209 l
471.163458 95.172391 l
471.794162 95.617916 l
472.424865 95.707021 l
472.582541 96.016767 l
472.740217 96.046468 l
473.213244 96.3647 l
474.159299 96.48775 l
476.682113 97.79038 l
476.997464 98.448059 l
478.101195 98.566866 l
478.258871 98.779021 l
478.731898 98.880855 l
479.520278 99.542778 l
479.677953 99.79312 l
479.993305 99.962844 l
480.150981 100.179242 l
480.624009 100.238645 l
481.727739 100.743573 l
481.885415 100.764789 l
482.200767 101.066048 l
482.673794 101.214557 l
483.304498 101.554004 l
483.462174 101.613407 l
483.777525 102.024988 l
483.935201 102.033474 l
484.092877 102.173496 l
484.250553 102.661452 l
484.408229 102.691153 l
484.72358 102.962711 l
485.827311 103.645849 l
485.984987 103.853761 l
486.458014 103.904678 l
486.773366 104.142291 l
487.088718 104.303529 l
487.561745 104.617518 l
488.034773 104.774512 l
488.5078 104.973938 l
488.823152 105.241253 l
489.296179 105.351573 l
490.242234 106.077142 l
490.715262 106.234137 l
491.030614 106.323242 l
491.818993 106.535396 l
492.922724 107.311883 l
494.499482 107.978048 l
494.814834 108.147772 l
495.130185 108.253849 l
495.918565 108.758778 l
496.706944 109.123684 l
497.022295 109.658314 l
497.96835 110.604523 l
498.283702 110.697872 l
498.599054 110.850623 l
499.072081 110.977916 l
499.387433 111.151883 l
499.702785 111.266446 l
500.175812 111.554977 l
501.279543 112.085363 l
501.594895 112.25933 l
501.910246 112.284789 l
502.225598 112.636965 l
502.698625 112.91701 l
503.013977 112.97217 l
503.960032 113.91838 l
504.117708 113.922623 l
504.275384 114.066888 l
504.43306 114.74154 l
504.748411 114.907021 l
506.32517 115.305872 l
506.640521 115.730181 l
507.428901 116.124789 l
507.744252 116.137518 l
508.374956 117.236479 l
509.005659 117.499551 l
509.321011 117.665032 l
510.10939 118.208148 l
510.424741 118.424546 l
511.055445 118.619728 l
511.213121 119.001606 l
512.474527 119.52775 l
512.789879 120.024192 l
513.262906 120.113297 l
513.420582 120.287264 l
513.735934 120.346667 l
514.524313 120.660656 l
514.681989 120.978888 l
515.628044 121.394711 l
515.78572 121.755374 l
516.416423 121.937827 l
516.574099 121.94207 l
517.047127 122.400325 l
518.150857 122.841606 l
519.56994 123.206512 l
520.042967 124.06786 l
520.515995 124.364877 l
520.831347 124.653407 l
521.146698 124.992855 l
522.092753 125.298358 l
522.723457 125.582645 l
522.881132 125.608104 l
523.038808 125.900877 l
523.196484 125.922093 l
523.511836 126.172435 l
523.984863 126.227595 l
524.300215 126.537341 l
524.457891 126.5628 l
524.615567 126.923463 l
524.930918 127.076214 l
525.24627 127.576899 l
525.876973 127.780568 l
526.507677 127.886645 l
526.823028 128.090314 l
527.13838 128.361872 l
527.296056 128.603728 l
528.084435 128.815883 l
529.188166 129.15533 l
529.503518 129.202004 l
529.818869 129.596612 l
531.237952 130.216104 l
531.710979 130.988347 l
532.026331 131.306579 l
532.972386 131.408413 l
533.287738 131.696943 l
533.603089 131.904855 l
533.760765 131.913341 l
534.233793 132.231573 l
535.179848 132.418269 l
535.495199 132.51586 l
535.652875 132.889253 l
536.125903 133.122623 l
537.387309 134.42101 l
537.544985 134.433739 l
539.279419 135.719396 l
539.594771 135.846689 l
539.752447 136.156435 l
540.067799 136.292214 l
540.698502 136.436479 l
540.856178 136.618932 l
541.013854 137.009297 l
541.329205 137.119617 l
541.644557 138.010667 l
541.802233 138.392546 l
541.959909 138.430733 l
542.27526 138.740479 l
542.905964 138.829584 l
543.536667 139.847927 l
543.852019 139.958247 l
544.009694 140.399529 l
544.325046 140.450446 l
544.798074 141.095396 l
545.113425 141.702159 l
545.744129 142.317407 l
545.901804 142.67807 l
546.532508 143.009032 l
546.690184 143.344236 l
546.847859 143.369695 l
547.478563 144.086778 l
547.793914 144.197098 l
548.266942 145.130579 l
549.370673 145.614291 l
549.686024 145.979198 l
549.8437 146.10649 l
550.159052 146.781142 l
550.474404 147.472767 l
550.63208 147.485496 l
550.789755 147.824943 l
551.105107 147.87586 l
551.420459 148.117717 l
551.578135 148.143175 l
552.051162 148.690535 l
552.366514 148.82207 l
552.997217 149.089385 l
553.312569 149.216678 l
553.62792 149.887087 l
554.258624 150.145916 l
554.4163 150.748435 l
555.047003 151.130314 l
555.204679 151.60554 l
556.150734 152.242004 l
556.623761 152.271706 l
556.939113 152.568722 l
557.096789 152.810579 l
557.254465 152.810579 l
558.673547 154.041076 l
559.461926 155.237628 l
560.09263 155.381894 l
560.250305 155.674667 l
560.407981 155.712855 l
560.565657 156.115949 l
560.723333 156.154137 l
560.881009 156.519043 l
561.038685 156.548744 l
561.354036 157.312501 l
561.827064 158.275684 l
562.142416 158.33933 l
562.300091 158.496325 l
562.457767 158.907905 l
563.403822 159.323728 l
563.719174 159.832899 l
564.192201 159.938977 l
564.349877 159.938977 l
564.507553 160.456634 l
565.295932 160.842756 l
565.453608 161.797452 l
565.611284 161.831396 l
565.926636 162.374512 l
566.399663 162.701231 l
567.66107 163.935971 l
567.818746 164.368767 l
568.449449 164.479087 l
568.607125 164.975529 l
569.710856 165.259816 l
569.868531 165.637452 l
570.183883 165.739286 l
570.814586 165.892037 l
571.129938 166.405452 l
571.287614 166.481827 l
571.602966 166.829761 l
572.233669 166.944325 l
572.549021 167.288015 l
572.706696 167.37712 l
573.022048 168.713695 l
573.179724 168.836744 l
573.3374 170.979507 l
573.495076 171.102557 l
573.810427 171.802667 l
573.968103 171.900258 l
574.125779 172.21849 l
574.283455 172.273651 l
576.648592 177.71754 l
576.963944 178.676479 l
577.12162 178.710424 l
578.225351 179.847573 l
578.383027 180.445849 l
578.540702 180.450093 l
578.698378 180.568899 l
579.644433 182.329783 l
579.802109 182.482535 l
579.959785 183.526336 l
580.590488 183.848811 l
580.90584 184.179772 l
581.063516 184.260391 l
581.221192 184.604081 l
581.694219 186.534689 l
582.167247 186.657739 l
582.482598 187.141452 l
582.79795 188.59259 l
582.955626 188.635021 l
583.270977 189.178137 l
583.744005 189.534557 l
583.901681 189.623662 l
584.217032 190.731109 l
584.847736 191.06207 l
585.163087 191.384546 l
585.320763 192.305297 l
585.478439 192.453805 l
585.636115 193.217562 l
585.793791 193.251507 l
586.109143 193.684302 l
586.266818 193.879485 l
586.424494 194.834181 l
586.897522 195.339109 l
587.370549 196.858137 l
587.685901 199.620391 l
587.843577 200.299286 l
588.001253 200.392634 l
588.158928 201.23701 l
588.316604 201.351573 l
588.631956 202.153518 l
588.789632 203.468877 l
588.947308 203.714977 l
589.735687 206.948214 l
589.893363 206.965186 l
590.208714 209.099463 l
590.839418 210.758512 l
591.154769 215.58291 l
591.312445 217.080722 l
591.470121 217.292877 l
591.627797 218.18817 l
591.785473 220.865562 l
592.100824 221.871175 l
592.2585 222.236081 l
592.416176 228.299463 l
592.731528 231.193253 l
592.889203 231.290844 l
593.204555 232.618932 l
593.362231 232.826844 l
593.835258 234.566512 l
593.992934 234.625916 l
594.308286 235.737606 l
594.623638 236.064325 l
594.938989 240.668081 l
595.254341 246.65933 l
595.412017 246.83754 l
595.727368 248.186844 l
595.885044 249.684656 l
596.200396 249.858623 l
596.358072 250.533275 l
596.988775 257.793209 l
597.304127 259.583794 l
597.461803 259.677142 l
597.619479 260.037805 l
597.777154 262.583662 l
597.93483 262.812789 l
598.250182 268.608855 l
598.880885 275.923949 l
599.038561 275.983352 l
599.353913 277.392059 l
599.511589 281.766689 l
599.669264 282.721385 l
599.984616 283.41301 l
600.299968 284.312546 l
600.457644 285.080546 l
600.615319 287.261496 l
600.772995 287.575485 l
600.930671 289.467905 l
601.088347 289.854026 l
601.246023 291.55975 l
601.246023 291.55975 l
stroke
grestore
0 setlinecap
gsave
357.1 266.1 260.4 37.54 clipbox
/o {
gsave
newpath
translate
1.0 setlinewidth
1 setlinejoin
0 setlinecap
-1 -1 m
1 1 l
-1 1 m
1 -1 l

gsave
0.173 0.627 0.173 setrgbcolor
fill
grestore
stroke
grestore
} bind def
276.907 49.7501 o
309.388 53.6113 o
341.869 58.1344 o
374.35 63.6547 o
406.832 71.6232 o
439.313 82.3922 o
471.794 95.6179 o
504.275 114.067 o
536.757 133.683 o
569.238 165.158 o
grestore
2 setlinecap
0.839 0.153 0.157 setrgbcolor
gsave
357.1 266.1 260.4 37.54 clipbox
276.591477 52.151662 m
278.798939 52.53354 l
280.375697 52.64386 l
286.367379 52.915419 l
291.413006 53.076656 l
295.670253 53.186977 l
398.317222 56.046822 l
399.105602 56.089253 l
416.449943 56.66207 l
419.288108 56.780877 l
422.599301 56.891198 l
424.964439 56.980302 l
428.590983 57.08638 l
437.105478 57.438557 l
440.258995 57.548877 l
444.20089 57.752546 l
445.304621 57.79922 l
450.507924 58.041076 l
451.611655 58.125938 l
456.657282 58.372037 l
457.918688 58.435684 l
461.860584 58.643595 l
486.773366 60.077761 l
487.088718 60.162623 l
493.238075 60.586932 l
494.026455 60.667551 l
495.760889 60.816059 l
509.005659 62.135662 l
510.267066 62.267198 l
511.686148 62.390247 l
514.524313 62.729695 l
515.78572 62.924877 l
516.731775 63.081872 l
517.835506 63.323728 l
519.727616 63.484965 l
521.46205 63.654689 l
522.565781 63.756523 l
523.669512 63.837142 l
523.984863 63.858358 l
524.300215 64.006866 l
526.665352 64.214778 l
527.611408 64.363286 l
529.345842 64.592413 l
529.818869 64.690004 l
530.607248 64.817297 l
531.080276 64.948833 l
531.868655 65.063396 l
534.549144 65.695617 l
535.495199 65.831396 l
536.283578 65.933231 l
537.229633 66.221761 l
538.964068 66.442402 l
539.752447 66.599396 l
540.38315 66.76912 l
543.221315 67.214645 l
543.536667 67.30375 l
544.325046 67.460744 l
545.428777 67.596523 l
546.532508 67.817164 l
547.636239 68.186314 l
548.109266 68.334822 l
550.789755 68.801562 l
551.73581 68.941584 l
552.051162 69.01796 l
553.154893 69.208899 l
555.204679 69.853849 l
555.52003 70.138137 l
555.835382 70.261186 l
556.466085 70.324833 l
556.781437 70.490314 l
556.939113 70.494557 l
557.254465 70.672767 l
557.727492 70.795816 l
557.885168 70.863706 l
558.20052 71.114048 l
559.461926 71.602004 l
559.934954 71.661407 l
561.354036 72.488811 l
563.561498 73.193164 l
564.034526 73.634446 l
564.349877 73.765982 l
564.507553 73.795684 l
564.822905 74.020568 l
564.980581 74.054512 l
565.295932 74.207264 l
566.084311 74.580656 l
566.241987 74.818269 l
566.557339 74.898888 l
566.872691 75.157717 l
567.345718 75.246822 l
567.818746 75.391087 l
568.607125 75.531109 l
568.922476 75.75175 l
569.237828 75.836612 l
569.395504 76.061496 l
570.341559 76.171816 l
571.287614 76.613098 l
571.760641 76.905872 l
572.233669 77.1647 l
572.549021 77.359883 l
572.864372 77.847838 l
573.3374 78.212744 l
573.810427 78.255175 l
574.125779 78.471573 l
575.071834 78.857695 l
575.544862 79.383838 l
575.860213 79.489916 l
576.175565 79.59175 l
576.490917 79.706314 l
576.806268 79.837849 l
577.12162 80.05849 l
577.436972 80.164568 l
577.594647 80.508258 l
577.909999 80.584634 l
578.856054 81.280501 l
579.171406 81.66238 l
579.802109 81.844833 l
580.275137 82.400678 l
580.432812 82.727396 l
580.590488 82.757098 l
580.90584 83.3087 l
581.063516 83.648148 l
581.221192 83.660877 l
581.378867 83.826358 l
581.694219 84.471308 l
581.851895 84.48828 l
582.167247 84.78954 l
582.324922 84.831971 l
582.482598 85.175662 l
583.270977 85.307198 l
583.586329 85.918203 l
583.901681 86.100656 l
584.374708 86.664988 l
584.532384 86.775308 l
584.69006 87.097783 l
584.847736 87.152943 l
585.320763 87.606954 l
585.636115 87.730004 l
585.951467 88.27312 l
586.739846 88.612568 l
586.897522 88.790778 l
587.055198 88.795021 l
587.370549 89.147198 l
587.843577 89.503617 l
588.158928 89.915198 l
588.316604 90.000059 l
588.47428 90.39891 l
588.631956 90.437098 l
588.789632 90.785032 l
588.947308 90.82322 l
589.104983 91.294203 l
589.420335 91.306932 l
589.735687 92.164037 l
590.36639 92.64775 l
590.681742 92.982954 l
590.997093 93.178137 l
591.312445 93.547286 l
591.470121 94.081916 l
591.627797 94.12859 l
591.943148 94.629275 l
592.2585 94.731109 l
592.416176 94.739595 l
592.889203 95.265739 l
593.362231 97.306667 l
593.519907 97.599441 l
593.677583 98.151043 l
593.992934 98.422601 l
594.15061 98.740833 l
594.308286 100.913297 l
594.465962 100.968457 l
594.781313 101.244258 l
594.938989 102.037717 l
595.254341 102.054689 l
596.831099 110.1887 l
596.988775 112.115065 l
597.146451 112.365407 l
597.304127 115.352546 l
597.461803 115.501054 l
597.619479 117.117673 l
597.777154 120.486689 l
597.93483 120.720059 l
598.250182 123.108921 l
598.407858 124.31396 l
598.565534 124.475198 l
598.723209 125.425651 l
599.038561 128.930446 l
599.196237 130.177916 l
599.511589 137.913076 l
599.669264 139.686689 l
599.984616 146.411993 l
600.142292 148.495352 l
600.299968 153.01849 l
600.457644 153.035463 l
600.615319 154.151396 l
600.772995 162.12417 l
600.930671 189.916435 l
601.088347 190.014026 l
601.246023 191.893717 l
601.246023 191.893717 l
stroke
grestore
0 setlinejoin
0 setlinecap
gsave
357.1 266.1 260.4 37.54 clipbox
/o {
gsave
newpath
translate
1.0 setlinewidth
0 setlinejoin
0 setlinecap
-0 -1.414214 m
0.848528 0 l
0 1.414214 l
-0.848528 0 l
cl

gsave
0.839 0.153 0.157 setrgbcolor
fill
grestore
stroke
grestore
} bind def
277.065 52.2111 o
309.546 53.5901 o
342.027 54.4344 o
374.508 55.3297 o
406.989 56.3566 o
439.471 57.5361 o
471.952 59.2334 o
504.433 61.7283 o
536.914 66.2175 o
569.396 76.0615 o
grestore
0.800 setlinewidth
2 setlinecap
[] 0 setdash
0.000 setgray
gsave
260.35875 37.54375 m
260.35875 303.65575 l
stroke
grestore
gsave
617.47875 37.54375 m
617.47875 303.65575 l
stroke
grestore
gsave
260.35875 37.54375 m
617.47875 37.54375 l
stroke
grestore
gsave
260.35875 303.65575 m
617.47875 303.65575 l
stroke
grestore
/DejaVuSans findfont
12.000 scalefont
setfont
gsave
308.684375 344.045075 translate
0.000000 rotate
0.000000 0.000000 m /P glyphshow
7.236328 0.000000 m /e glyphshow
14.619141 0.000000 m /r glyphshow
19.552734 0.000000 m /f glyphshow
23.777344 0.000000 m /o glyphshow
31.119141 0.000000 m /r glyphshow
36.052734 0.000000 m /m glyphshow
47.742188 0.000000 m /a glyphshow
55.095703 0.000000 m /n glyphshow
62.701172 0.000000 m /c glyphshow
69.298828 0.000000 m /e glyphshow
76.681641 0.000000 m /space glyphshow
80.496094 0.000000 m /o glyphshow
87.837891 0.000000 m /v glyphshow
94.939453 0.000000 m /e glyphshow
102.322266 0.000000 m /r glyphshow
107.255859 0.000000 m /space glyphshow
111.070312 0.000000 m /q glyphshow
118.687500 0.000000 m /u glyphshow
126.292969 0.000000 m /e glyphshow
133.675781 0.000000 m /r glyphshow
138.609375 0.000000 m /y glyphshow
145.710938 0.000000 m /space glyphshow
149.525391 0.000000 m /i glyphshow
152.859375 0.000000 m /d glyphshow
160.476562 0.000000 m /space glyphshow
164.291016 0.000000 m /parenleft glyphshow
168.972656 0.000000 m /t glyphshow
173.677734 0.000000 m /i glyphshow
177.011719 0.000000 m /m glyphshow
188.701172 0.000000 m /e glyphshow
196.083984 0.000000 m /s glyphshow
202.335938 0.000000 m /space glyphshow
206.150391 0.000000 m /S glyphshow
213.767578 0.000000 m /O glyphshow
223.212891 0.000000 m /R glyphshow
231.550781 0.000000 m /T glyphshow
238.880859 0.000000 m /E glyphshow
246.462891 0.000000 m /D glyphshow
255.703125 0.000000 m /parenright glyphshow
grestore
gsave
7.200000 330.595075 translate
0.000000 rotate
0.000000 0.000000 m /u glyphshow
7.605469 0.000000 m /s glyphshow
13.857422 0.000000 m /e glyphshow
21.240234 0.000000 m /underscore glyphshow
27.240234 0.000000 m /b glyphshow
34.857422 0.000000 m /o glyphshow
42.199219 0.000000 m /u glyphshow
49.804688 0.000000 m /n glyphshow
57.410156 0.000000 m /d glyphshow
65.027344 0.000000 m /equal glyphshow
75.082031 0.000000 m /F glyphshow
81.968750 0.000000 m /a glyphshow
89.322266 0.000000 m /l glyphshow
92.656250 0.000000 m /s glyphshow
98.908203 0.000000 m /e glyphshow
106.291016 0.000000 m /space glyphshow
110.105469 0.000000 m /u glyphshow
117.710938 0.000000 m /s glyphshow
123.962891 0.000000 m /e glyphshow
131.345703 0.000000 m /underscore glyphshow
137.345703 0.000000 m /a glyphshow
144.699219 0.000000 m /n glyphshow
152.304688 0.000000 m /y glyphshow
159.406250 0.000000 m /t glyphshow
164.111328 0.000000 m /i glyphshow
167.445312 0.000000 m /m glyphshow
179.134766 0.000000 m /e glyphshow
186.517578 0.000000 m /equal glyphshow
196.572266 0.000000 m /F glyphshow
203.458984 0.000000 m /a glyphshow
210.812500 0.000000 m /l glyphshow
214.146484 0.000000 m /s glyphshow
220.398438 0.000000 m /e glyphshow
227.781250 0.000000 m /space glyphshow
231.595703 0.000000 m /p glyphshow
239.212891 0.000000 m /e glyphshow
246.595703 0.000000 m /r glyphshow
251.529297 0.000000 m /t glyphshow
256.234375 0.000000 m /u glyphshow
263.839844 0.000000 m /r glyphshow
268.773438 0.000000 m /b glyphshow
276.390625 0.000000 m /a glyphshow
283.744141 0.000000 m /t glyphshow
288.449219 0.000000 m /i glyphshow
291.783203 0.000000 m /o glyphshow
299.125000 0.000000 m /n glyphshow
306.730469 0.000000 m /underscore glyphshow
312.730469 0.000000 m /m glyphshow
324.419922 0.000000 m /o glyphshow
331.761719 0.000000 m /d glyphshow
339.378906 0.000000 m /e glyphshow
346.761719 0.000000 m /equal glyphshow
356.816406 0.000000 m /M glyphshow
367.169922 0.000000 m /U glyphshow
375.953125 0.000000 m /L glyphshow
382.623047 0.000000 m /T glyphshow
389.953125 0.000000 m /I glyphshow
393.492188 0.000000 m /P glyphshow
400.728516 0.000000 m /L glyphshow
407.398438 0.000000 m /Y glyphshow
414.728516 0.000000 m /space glyphshow
418.542969 0.000000 m /p glyphshow
426.160156 0.000000 m /e glyphshow
433.542969 0.000000 m /r glyphshow
438.476562 0.000000 m /t glyphshow
443.181641 0.000000 m /u glyphshow
450.787109 0.000000 m /r glyphshow
455.720703 0.000000 m /b glyphshow
463.337891 0.000000 m /a glyphshow
470.691406 0.000000 m /t glyphshow
475.396484 0.000000 m /i glyphshow
478.730469 0.000000 m /o glyphshow
486.072266 0.000000 m /n glyphshow
493.677734 0.000000 m /underscore glyphshow
499.677734 0.000000 m /r glyphshow
504.611328 0.000000 m /a glyphshow
511.964844 0.000000 m /n glyphshow
519.570312 0.000000 m /g glyphshow
527.187500 0.000000 m /e glyphshow
534.570312 0.000000 m /equal glyphshow
544.625000 0.000000 m /bracketleft glyphshow
549.306641 0.000000 m /three glyphshow
556.941406 0.000000 m /comma glyphshow
560.755859 0.000000 m /three glyphshow
568.390625 0.000000 m /bracketright glyphshow
573.072266 0.000000 m /space glyphshow
576.886719 0.000000 m /a glyphshow
584.240234 0.000000 m /r glyphshow
589.173828 0.000000 m /e glyphshow
596.556641 0.000000 m /a glyphshow
603.910156 0.000000 m /underscore glyphshow
609.910156 0.000000 m /r glyphshow
614.843750 0.000000 m /a glyphshow
622.197266 0.000000 m /d glyphshow
629.814453 0.000000 m /i glyphshow
633.148438 0.000000 m /u glyphshow
640.753906 0.000000 m /s glyphshow
647.005859 0.000000 m /equal glyphshow
657.060547 0.000000 m /bracketleft glyphshow
661.742188 0.000000 m /one glyphshow
669.376953 0.000000 m /five glyphshow
677.011719 0.000000 m /comma glyphshow
680.826172 0.000000 m /one glyphshow
688.460938 0.000000 m /five glyphshow
696.095703 0.000000 m /bracketright glyphshow
700.777344 0.000000 m /space glyphshow
704.591797 0.000000 m /o glyphshow
711.933594 0.000000 m /p glyphshow
719.550781 0.000000 m /t glyphshow
724.255859 0.000000 m /i glyphshow
727.589844 0.000000 m /m glyphshow
739.279297 0.000000 m /a glyphshow
746.632812 0.000000 m /l glyphshow
749.966797 0.000000 m /underscore glyphshow
755.966797 0.000000 m /p glyphshow
763.583984 0.000000 m /a glyphshow
770.937500 0.000000 m /t glyphshow
775.642578 0.000000 m /h glyphshow
783.248047 0.000000 m /underscore glyphshow
789.248047 0.000000 m /r glyphshow
794.181641 0.000000 m /a glyphshow
801.535156 0.000000 m /t glyphshow
806.240234 0.000000 m /i glyphshow
809.574219 0.000000 m /o glyphshow
816.916016 0.000000 m /equal glyphshow
826.970703 0.000000 m /bracketleft glyphshow
831.652344 0.000000 m /zero glyphshow
839.287109 0.000000 m /comma glyphshow
843.101562 0.000000 m /nine glyphshow
850.736328 0.000000 m /five glyphshow
858.371094 0.000000 m /bracketright glyphshow
grestore
1.000 setlinewidth
1 setlinejoin
[] 0 setdash
0.122 0.467 0.706 setrgbcolor
gsave
264.35875 295.562 m
284.35875 295.562 l
stroke
grestore
0 setlinejoin
0 setlinecap
gsave
/o {
gsave
newpath
translate
1.0 setlinewidth
0 setlinejoin
0 setlinecap
0 1 m
-1 -1 l
1 -1 l
cl

gsave
0.122 0.467 0.706 setrgbcolor
fill
grestore
stroke
grestore
} bind def
274.359 295.562 o
grestore
0.000 setgray
/DejaVuSans findfont
10.000 scalefont
setfont
gsave
292.358750 292.062000 translate
0.000000 rotate
0.000000 0.000000 m /A glyphshow
6.840820 0.000000 m /asterisk glyphshow
11.840820 0.000000 m /space glyphshow
15.019531 0.000000 m /D glyphshow
22.719727 0.000000 m /H glyphshow
30.239258 0.000000 m /equal glyphshow
38.618164 0.000000 m /one glyphshow
44.980469 0.000000 m /two glyphshow
grestore
1 setlinejoin
2 setlinecap
1.000 0.498 0.055 setrgbcolor
gsave
264.35875 280.890125 m
284.35875 280.890125 l
stroke
grestore
0 setlinecap
gsave
/o {
gsave
newpath
translate
1.0 setlinewidth
1 setlinejoin
0 setlinecap
-1 0 m
1 0 l
0 -1 m
0 1 l

gsave
1.000 0.498 0.055 setrgbcolor
fill
grestore
stroke
grestore
} bind def
274.359 280.89 o
grestore
0.000 setgray
gsave
292.358750 277.390125 translate
0.000000 rotate
0.000000 0.000000 m /A glyphshow
6.840820 0.000000 m /asterisk glyphshow
11.840820 0.000000 m /space glyphshow
15.019531 0.000000 m /D glyphshow
22.719727 0.000000 m /H glyphshow
30.239258 0.000000 m /equal glyphshow
38.618164 0.000000 m /one glyphshow
44.980469 0.000000 m /eight glyphshow
grestore
2 setlinecap
0.173 0.627 0.173 setrgbcolor
gsave
363.7025 295.562 m
383.7025 295.562 l
stroke
grestore
0 setlinecap
gsave
/o {
gsave
newpath
translate
1.0 setlinewidth
1 setlinejoin
0 setlinecap
-1 -1 m
1 1 l
-1 1 m
1 -1 l

gsave
0.173 0.627 0.173 setrgbcolor
fill
grestore
stroke
grestore
} bind def
373.702 295.562 o
grestore
0.000 setgray
gsave
391.702500 292.062000 translate
0.000000 rotate
0.000000 0.000000 m /A glyphshow
6.840820 0.000000 m /asterisk glyphshow
11.840820 0.000000 m /space glyphshow
15.019531 0.000000 m /D glyphshow
22.719727 0.000000 m /H glyphshow
30.239258 0.000000 m /equal glyphshow
38.618164 0.000000 m /six glyphshow
grestore
2 setlinecap
0.839 0.153 0.157 setrgbcolor
gsave
456.686875 295.562 m
476.686875 295.562 l
stroke
grestore
0 setlinejoin
0 setlinecap
gsave
/o {
gsave
newpath
translate
1.0 setlinewidth
0 setlinejoin
0 setlinecap
-0 -1.414214 m
0.848528 0 l
0 1.414214 l
-0.848528 0 l
cl

gsave
0.839 0.153 0.157 setrgbcolor
fill
grestore
stroke
grestore
} bind def
466.687 295.562 o
grestore
0.000 setgray
gsave
484.686875 292.062000 translate
0.000000 rotate
0.000000 0.000000 m /A glyphshow
6.840820 0.000000 m /asterisk glyphshow
11.840820 0.000000 m /space glyphshow
15.019531 0.000000 m /c glyphshow
20.517578 0.000000 m /a glyphshow
26.645508 0.000000 m /c glyphshow
32.143555 0.000000 m /h glyphshow
38.481445 0.000000 m /e glyphshow
44.633789 0.000000 m /space glyphshow
47.812500 0.000000 m /E glyphshow
54.130859 0.000000 m /S glyphshow
grestore

end
showpage
